0,0,0,20,4.125e-10,4e-10,0.198593,0,0,8044,6.38406,1
1,0,0,20.02,4.17775e-10,4.06225e-10,0.198585,0,0.0200005,8044,6.37921,1
2,0,0,20.04,4.2305e-10,4.1245e-10,0.198576,0,0.0400009,8044,6.37436,1
3,0,0,20.06,4.28325e-10,4.18675e-10,0.198568,0,0.0599995,8044,6.36952,1
4,0,0,20.08,4.336e-10,4.249e-10,0.198559,0,0.0799999,8044,6.36467,1
5,0,0,20.1,4.38875e-10,4.31125e-10,0.198551,0,0.1,8044,6.35982,1
6,0,0,20.12,4.4415e-10,4.3735e-10,0.198543,0,0.120001,8044,6.35497,1
7,0,0,20.14,4.49425e-10,4.43575e-10,0.198534,0,0.139999,8044,6.35012,1
8,0,0,20.16,4.547e-10,4.498e-10,0.198526,0,0.16,8044,6.34527,1
9,0,0,20.18,4.59975e-10,4.56025e-10,0.198518,0,0.18,8044,6.34043,1
10,0,0,20.2,4.6525e-10,4.6225e-10,0.198509,0,0.200001,8044,6.33558,1
11,0,0,20.22,4.70525e-10,4.68475e-10,0.198501,0,0.219999,8044,6.33073,1
12,0,0,20.24,4.758e-10,4.747e-10,0.198492,0,0.24,8044,6.32588,1
13,0,0,20.26,4.81075e-10,4.80925e-10,0.198484,0,0.26,8044,6.32103,1
14,0,0,20.28,4.8635e-10,4.8715e-10,0.198476,0,0.280001,8044,6.31618,1
15,0,0,20.3,4.91625e-10,4.93375e-10,0.198467,0,0.299999,8044,6.31134,1
16,0,0,20.32,4.969e-10,4.996e-10,0.198459,0,0.32,8044,6.30649,1
17,0,0,20.34,5.02175e-10,5.05825e-10,0.198451,0,0.34,8044,6.30164,1
18,0,0,20.36,5.0745e-10,5.1205e-10,0.198442,0,0.360001,8044,6.29679,1
19,0,0,20.38,5.12725e-10,5.18275e-10,0.198434,0,0.379999,8044,6.29194,1
20,0,0,20.4,5.18e-10,5.245e-10,0.198425,0,0.4,8044,6.2871,1
21,0,0,20.42,5.23275e-10,5.30725e-10,0.198417,0,0.42,8044,6.28225,1
22,0,0,20.44,5.2855e-10,5.3695e-10,0.198409,0,0.440001,8044,6.2774,1
23,0,0,20.46,5.33825e-10,5.43175e-10,0.1984,0,0.459999,8044,6.27255,1
24,0,0,20.48,5.391e-10,5.494e-10,0.198392,0,0.48,8044,6.2677,1
25,0,0,20.5,5.44375e-10,5.55625e-10,0.198384,0,0.5,8044,6.26286,1
26,0,0,20.52,5.4965e-10,5.6185e-10,0.198375,0,0.52,8044,6.25801,1
27,0,0,20.54,5.54925e-10,5.68075e-10,0.198367,0,0.540001,8044,6.25316,1
28,0,0,20.56,5.602e-10,5.743e-10,0.198358,0,0.559999,8044,6.24831,1
29,0,0,20.58,5.65475e-10,5.80525e-10,0.19835,0,0.58,8044,6.24346,1
30,0,0,20.6,5.7075e-10,5.8675e-10,0.198342,0,0.6,8044,6.23861,1
31,0,0,20.62,5.76025e-10,5.92975e-10,0.198333,0,0.620001,8044,6.23377,1
32,0,0,20.64,5.813e-10,5.992e-10,0.198325,0,0.639999,8044,6.22892,1
33,0,0,20.66,5.86575e-10,6.05425e-10,0.198316,0,0.66,8044,6.22407,1
34,0,0,20.68,5.9185e-10,6.1165e-10,0.198308,0,0.68,8044,6.21922,1
35,0,0,20.7,5.97125e-10,6.17875e-10,0.1983,0,0.700001,8044,6.21437,1
36,0,0,20.72,6.024e-10,6.241e-10,0.198291,0,0.719999,8044,6.20953,1
37,0,0,20.74,6.07675e-10,6.30325e-10,0.198283,0,0.74,8044,6.20468,1
38,0,0,20.76,6.1295e-10,6.3655e-10,0.198275,0,0.76,8044,6.19983,1
39,0,0,20.78,6.18225e-10,6.42775e-10,0.198266,0,0.780001,8044,6.19498,1
40,0,0,20.8,6.235e-10,6.49e-10,0.198258,0,0.799999,8044,6.19013,1
41,0,0,20.82,6.28775e-10,6.55225e-10,0.198249,0,0.82,8044,6.18528,1
42,0,0,20.84,6.3405e-10,6.6145e-10,0.198241,0,0.84,8044,6.18044,1
43,0,0,20.86,6.39325e-10,6.67675e-10,0.198233,0,0.860001,8044,6.17559,1
44,0,0,20.88,6.446e-10,6.739e-10,0.198224,0,0.879999,8044,6.17074,1
45,0,0,20.9,6.49875e-10,6.80125e-10,0.198216,0,0.9,8044,6.16589,1
46,0,0,20.92,6.5515e-10,6.8635e-10,0.198208,0,0.92,8044,6.16104,1
47,0,0,20.94,6.60425e-10,6.92575e-10,0.198199,0,0.940001,8044,6.15619,1
48,0,0,20.96,6.657e-10,6.988e-10,0.198191,0,0.959999,8044,6.15135,1
49,0,0,20.98,6.70975e-10,7.05025e-10,0.198182,0,0.98,8044,6.1465,1
50,0,0,21,6.7625e-10,7.1125e-10,0.198174,0,1,8044,6.14165,1
51,0,0,21.02,6.71365e-10,7.06675e-10,0.19819,0,1.02,8144,6.13438,1
52,0,0,21.04,6.6648e-10,7.021e-10,0.198206,0,1.04,8144,6.12712,1
53,0,0,21.06,6.61595e-10,6.97525e-10,0.198222,0,1.06,8144,6.11985,1
54,0,0,21.08,6.5671e-10,6.9295e-10,0.198237,0,1.08,8144,6.11259,1
55,0,0,21.1,6.51825e-10,6.88375e-10,0.198253,0,1.1,8144,6.10532,1
56,0,0,21.12,6.4694e-10,6.838e-10,0.198269,0,1.12,8144,6.09806,1
57,0,0,21.14,6.42055e-10,6.79225e-10,0.198285,0,1.14,8144,6.09079,1
58,0,0,21.16,6.3717e-10,6.7465e-10,0.198301,0,1.16,8144,6.08352,1
59,0,0,21.18,6.32285e-10,6.70075e-10,0.198317,0,1.18,8144,6.07626,1
60,0,0,21.2,6.274e-10,6.655e-10,0.198333,0,1.2,8144,6.06899,1
61,0,0,21.22,6.22515e-10,6.60925e-10,0.198349,0,1.22,8144,6.06173,1
62,0,0,21.24,6.1763e-10,6.5635e-10,0.198364,0,1.24,8144,6.05446,1
63,0,0,21.26,6.12745e-10,6.51775e-10,0.19838,0,1.26,8144,6.0472,1
64,0,0,21.28,6.0786e-10,6.472e-10,0.198396,0,1.28,8144,6.03993,1
65,0,0,21.3,6.02975e-10,6.42625e-10,0.198412,0,1.3,8144,6.03266,1
66,0,0,21.32,5.9809e-10,6.3805e-10,0.198428,0,1.32,8144,6.0254,1
67,0,0,21.34,5.93205e-10,6.33475e-10,0.198444,0,1.34,8144,6.01813,1
68,0,0,21.36,5.8832e-10,6.289e-10,0.19846,0,1.36,8144,6.01087,1
69,0,0,21.38,5.83435e-10,6.24325e-10,0.198476,0,1.38,8144,6.0036,1
70,0,0,21.4,5.7855e-10,6.1975e-10,0.198491,0,1.4,8144,5.99634,1
71,0,0,21.42,5.73665e-10,6.15175e-10,0.198507,0,1.42,8144,5.98907,1
72,0,0,21.44,5.6878e-10,6.106e-10,0.198523,0,1.44,8144,5.9818,1
73,0,0,21.46,5.63895e-10,6.06025e-10,0.198539,0,1.46,8144,5.97454,1
74,0,0,21.48,5.5901e-10,6.0145e-10,0.198555,0,1.48,8144,5.96727,1
75,0,0,21.5,5.54125e-10,5.96875e-10,0.198571,0,1.5,8144,5.96001,1
76,0,0,21.52,5.4924e-10,5.923e-10,0.198587,0,1.52,8144,5.95274,1
77,0,0,21.54,5.44355e-10,5.87725e-10,0.198602,0,1.54,8144,5.94548,1
78,0,0,21.56,5.3947e-10,5.8315e-10,0.198618,0,1.56,8144,5.93821,1
79,0,0,21.58,5.34585e-10,5.78575e-10,0.198634,0,1.58,8144,5.93094,1
80,0,0,21.6,5.297e-10,5.74e-10,0.19865,0,1.6,8144,5.92368,1
81,0,0,21.62,5.24815e-10,5.69425e-10,0.198666,0,1.62,8144,5.91641,1
82,0,0,21.64,5.1993e-10,5.6485e-10,0.198682,0,1.64,8144,5.90915,1
83,0,0,21.66,5.15045e-10,5.60275e-10,0.198698,0,1.66,8144,5.90188,1
84,0,0,21.68,5.1016e-10,5.557e-10,0.198714,0,1.68,8144,5.89462,1
85,0,0,21.7,5.05275e-10,5.51125e-10,0.198729,0,1.7,8144,5.88735,1
86,0,0,21.72,5.0039e-10,5.4655e-10,0.198745,0,1.72,8144,5.88008,1
87,0,0,21.74,4.95505e-10,5.41975e-10,0.198761,0,1.74,8144,5.87282,1
88,0,0,21.76,4.9062e-10,5.374e-10,0.198777,0,1.76,8144,5.86555,1
89,0,0,21.78,4.85735e-10,5.32825e-10,0.198793,0,1.78,8144,5.85829,1
90,0,0,21.8,4.8085e-10,5.2825e-10,0.198809,0,1.8,8144,5.85102,1
91,0,0,21.82,4.75965e-10,5.23675e-10,0.198825,0,1.82,8144,5.84376,1
92,0,0,21.84,4.7108e-10,5.191e-10,0.198841,0,1.84,8144,5.83649,1
93,0,0,21.86,4.66195e-10,5.14525e-10,0.198856,0,1.86,8144,5.82922,1
94,0,0,21.88,4.6131e-10,5.0995e-10,0.198872,0,1.88,8144,5.82196,1
95,0,0,21.9,4.56425e-10,5.05375e-10,0.198888,0,1.9,8144,5.81469,1
96,0,0,21.92,4.5154e-10,5.008e-10,0.198904,0,1.92,8144,5.80743,1
97,0,0,21.94,4.46655e-10,4.96225e-10,0.19892,0,1.94,8144,5.80016,1
98,0,0,21.96,4.4177e-10,4.9165e-10,0.198936,0,1.96,8144,5.7929,1
99,0,0,21.98,4.36885e-10,4.87075e-10,0.198952,0,1.98,8144,5.78563,1
100,0,0,22,4.32e-10,4.825e-10,0.198968,0,2,8144,5.77837,1
101,0,0,22.02,4.2795e-10,4.78425e-10,0.198962,0,2.02,8244,5.77235,1
102,0,0,22.04,4.239e-10,4.7435e-10,0.198956,0,2.04,8244,5.76634,1
103,0,0,22.06,4.1985e-10,4.70275e-10,0.19895,0,2.06,8244,5.76033,1
104,0,0,22.08,4.158e-10,4.662e-10,0.198945,0,2.08,8244,5.75432,1
105,0,0,22.1,4.1175e-10,4.62125e-10,0.198939,0,2.1,8244,5.74831,1
106,0,0,22.12,4.077e-10,4.5805e-10,0.198933,0,2.12,8244,5.7423,1
107,0,0,22.14,4.0365e-10,4.53975e-10,0.198928,0,2.14,8244,5.73629,1
108,0,0,22.16,3.996e-10,4.499e-10,0.198922,0,2.16,8244,5.73027,1
109,0,0,22.18,3.9555e-10,4.45825e-10,0.198916,0,2.18,8244,5.72426,1
110,0,0,22.2,3.915e-10,4.4175e-10,0.19891,0,2.2,8244,5.71825,1
111,0,0,22.22,3.8745e-10,4.37675e-10,0.198905,0,2.22,8244,5.71224,1
112,0,0,22.24,3.834e-10,4.336e-10,0.198899,0,2.24,8244,5.70623,1
113,0,0,22.26,3.7935e-10,4.29525e-10,0.198893,0,2.26,8244,5.70022,1
114,0,0,22.28,3.753e-10,4.2545e-10,0.198888,0,2.28,8244,5.69421,1
115,0,0,22.3,3.7125e-10,4.21375e-10,0.198882,0,2.3,8244,5.6882,1
116,0,0,22.32,3.672e-10,4.173e-10,0.198876,0,2.32,8244,5.68218,1
117,0,0,22.34,3.6315e-10,4.13225e-10,0.19887,0,2.34,8244,5.67617,1
118,0,0,22.36,3.591e-10,4.0915e-10,0.198865,0,2.36,8244,5.67016,1
119,0,0,22.38,3.5505e-10,4.05075e-10,0.198859,0,2.38,8244,5.66415,1
120,0,0,22.4,3.51e-10,4.01e-10,0.198853,0,2.4,8244,5.65814,1
121,0,0,22.42,3.4695e-10,3.96925e-10,0.198848,0,2.42,8244,5.65213,1
122,0,0,22.44,3.429e-10,3.9285e-10,0.198842,0,2.44,8244,5.64612,1
123,0,0,22.46,3.3885e-10,3.88775e-10,0.198836,0,2.46,8244,5.64011,1
124,0,0,22.48,3.348e-10,3.847e-10,0.19883,0,2.48,8244,5.63409,1
125,0,0,22.5,3.3075e-10,3.80625e-10,0.198825,0,2.5,8244,5.62808,1
126,0,0,22.52,3.267e-10,3.7655e-10,0.198819,0,2.52,8244,5.62207,1
127,0,0,22.54,3.2265e-10,3.72475e-10,0.198813,0,2.54,8244,5.61606,1
128,0,0,22.56,3.186e-10,3.684e-10,0.198808,0,2.56,8244,5.61005,1
129,0,0,22.58,3.1455e-10,3.64325e-10,0.198802,0,2.58,8244,5.60404,1
130,0,0,22.6,3.105e-10,3.6025e-10,0.198796,0,2.6,8244,5.59803,1
131,0,0,22.62,3.0645e-10,3.56175e-10,0.19879,0,2.62,8244,5.59201,1
132,0,0,22.64,3.024e-10,3.521e-10,0.198785,0,2.64,8244,5.586,1
133,0,0,22.66,2.9835e-10,3.48025e-10,0.198779,0,2.66,8244,5.57999,1
134,0,0,22.68,2.943e-10,3.4395e-10,0.198773,0,2.68,8244,5.57398,1
135,0,0,22.7,2.9025e-10,3.39875e-10,0.198768,0,2.7,8244,5.56797,1
136,0,0,22.72,2.862e-10,3.358e-10,0.198762,0,2.72,8244,5.56196,1
137,0,0,22.74,2.8215e-10,3.31725e-10,0.198756,0,2.74,8244,5.55595,1
138,0,0,22.76,2.781e-10,3.2765e-10,0.198751,0,2.76,8244,5.54994,1
139,0,0,22.78,2.7405e-10,3.23575e-10,0.198745,0,2.78,8244,5.54392,1
140,0,0,22.8,2.7e-10,3.195e-10,0.198739,0,2.8,8244,5.53791,1
141,0,0,22.82,2.6595e-10,3.15425e-10,0.198733,0,2.82,8244,5.5319,1
142,0,0,22.84,2.619e-10,3.1135e-10,0.198728,0,2.84,8244,5.52589,1
143,0,0,22.86,2.5785e-10,3.07275e-10,0.198722,0,2.86,8244,5.51988,1
144,0,0,22.88,2.538e-10,3.032e-10,0.198716,0,2.88,8244,5.51387,1
145,0,0,22.9,2.4975e-10,2.99125e-10,0.198711,0,2.9,8244,5.50786,1
146,0,0,22.92,2.457e-10,2.9505e-10,0.198705,0,2.92,8244,5.50184,1
147,0,0,22.94,2.4165e-10,2.90975e-10,0.198699,0,2.94,8244,5.49583,1
148,0,0,22.96,2.376e-10,2.869e-10,0.198693,0,2.96,8244,5.48982,1
149,0,0,22.98,2.3355e-10,2.82825e-10,0.198688,0,2.98,8244,5.48381,1
150,0,0,23,2.295e-10,2.7875e-10,0.198682,0,3,8244,5.4778,1
151,0,0,23.02,2.26682e-10,2.75816e-10,0.198687,0,3.02,8344,5.47116,1
152,0,0,23.04,2.23864e-10,2.72882e-10,0.198691,0,3.04,8344,5.46453,1
153,0,0,23.06,2.21047e-10,2.69948e-10,0.198696,0,3.06,8344,5.45789,1
154,0,0,23.08,2.18229e-10,2.67014e-10,0.1987,0,3.08,8344,5.45126,1
155,0,0,23.1,2.15411e-10,2.6408e-10,0.198705,0,3.1,8344,5.44462,1
156,0,0,23.12,2.12593e-10,2.61146e-10,0.198709,0,3.12,8344,5.43799,1
157,0,0,23.14,2.09776e-10,2.58212e-10,0.198714,0,3.14,8344,5.43135,1
158,0,0,23.16,2.06958e-10,2.55278e-10,0.198718,0,3.16,8344,5.42472,1
159,0,0,23.18,2.0414e-10,2.52344e-10,0.198723,0,3.18,8344,5.41808,1
160,0,0,23.2,2.01322e-10,2.4941e-10,0.198727,0,3.2,8344,5.41144,1
161,0,0,23.22,1.98505e-10,2.46476e-10,0.198732,0,3.22,8344,5.40481,1
162,0,0,23.24,1.95687e-10,2.43542e-10,0.198736,0,3.24,8344,5.39817,1
163,0,0,23.26,1.92869e-10,2.40608e-10,0.198741,0,3.26,8344,5.39154,1
164,0,0,23.28,1.90051e-10,2.37674e-10,0.198746,0,3.28,8344,5.3849,1
165,0,0,23.3,1.87234e-10,2.3474e-10,0.19875,0,3.3,8344,5.37827,1
166,0,0,23.32,1.84416e-10,2.31806e-10,0.198755,0,3.32,8344,5.37163,1
167,0,0,23.34,1.81598e-10,2.28872e-10,0.198759,0,3.34,8344,5.365,1
168,0,0,23.36,1.7878e-10,2.25938e-10,0.198764,0,3.36,8344,5.35836,1
169,0,0,23.38,1.75963e-10,2.23004e-10,0.198768,0,3.38,8344,5.35173,1
170,0,0,23.4,1.73145e-10,2.2007e-10,0.198773,0,3.4,8344,5.34509,1
171,0,0,23.42,1.70327e-10,2.17136e-10,0.198777,0,3.42,8344,5.33845,1
172,0,0,23.44,1.67509e-10,2.14202e-10,0.198782,0,3.44,8344,5.33182,1
173,0,0,23.46,1.64692e-10,2.11268e-10,0.198786,0,3.46,8344,5.32518,1
174,0,0,23.48,1.61874e-10,2.08334e-10,0.198791,0,3.48,8344,5.31855,1
175,0,0,23.5,1.59056e-10,2.054e-10,0.198795,0,3.5,8344,5.31191,1
176,0,0,23.52,1.56238e-10,2.02466e-10,0.1988,0,3.52,8344,5.30528,1
177,0,0,23.54,1.53421e-10,1.99532e-10,0.198805,0,3.54,8344,5.29864,1
178,0,0,23.56,1.50603e-10,1.96598e-10,0.198809,0,3.56,8344,5.29201,1
179,0,0,23.58,1.47785e-10,1.93664e-10,0.198814,0,3.58,8344,5.28537,1
180,0,0,23.6,1.44967e-10,1.9073e-10,0.198818,0,3.6,8344,5.27874,1
181,0,0,23.62,1.4215e-10,1.87796e-10,0.198823,0,3.62,8344,5.2721,1
182,0,0,23.64,1.39332e-10,1.84862e-10,0.198827,0,3.64,8344,5.26546,1
183,0,0,23.66,1.36514e-10,1.81928e-10,0.198832,0,3.66,8344,5.25883,1
184,0,0,23.68,1.33696e-10,1.78994e-10,0.198836,0,3.68,8344,5.25219,1
185,0,0,23.7,1.30879e-10,1.7606e-10,0.198841,0,3.7,8344,5.24556,1
186,0,0,23.72,1.28061e-10,1.73126e-10,0.198845,0,3.72,8344,5.23892,1
187,0,0,23.74,1.25243e-10,1.70192e-10,0.19885,0,3.74,8344,5.23229,1
188,0,0,23.76,1.22425e-10,1.67258e-10,0.198855,0,3.76,8344,5.22565,1
189,0,0,23.78,1.19608e-10,1.64324e-10,0.198859,0,3.78,8344,5.21902,1
190,0,0,23.8,1.1679e-10,1.6139e-10,0.198864,0,3.8,8344,5.21238,1
191,0,0,23.82,1.13972e-10,1.58456e-10,0.198868,0,3.82,8344,5.20574,1
192,0,0,23.84,1.11154e-10,1.55522e-10,0.198873,0,3.84,8344,5.19911,1
193,0,0,23.86,1.08337e-10,1.52588e-10,0.198877,0,3.86,8344,5.19247,1
194,0,0,23.88,1.05519e-10,1.49654e-10,0.198882,0,3.88,8344,5.18584,1
195,0,0,23.9,1.02701e-10,1.4672e-10,0.198886,0,3.9,8344,5.1792,1
196,0,0,23.92,9.98835e-11,1.43786e-10,0.198891,0,3.92,8344,5.17257,1
197,0,0,23.94,9.70657e-11,1.40852e-10,0.198895,0,3.94,8344,5.16593,1
198,0,0,23.96,9.42481e-11,1.37918e-10,0.1989,0,3.96,8344,5.1593,1
199,0,0,23.98,9.14303e-11,1.34984e-10,0.198904,0,3.98,8344,5.15266,1
200,0,0,24,8.86125e-11,1.3205e-10,0.198909,0,4,8344,5.14603,1
201,0,0,24.02,8.69375e-11,1.30125e-10,0.198908,0,4.02,8444,5.13969,1
202,0,0,24.04,8.52624e-11,1.282e-10,0.198906,0,4.04,8444,5.13334,1
203,0,0,24.06,8.35875e-11,1.26275e-10,0.198905,0,4.06,8444,5.12701,1
204,0,0,24.08,8.19125e-11,1.2435e-10,0.198904,0,4.08,8444,5.12067,1
205,0,0,24.1,8.02375e-11,1.22425e-10,0.198903,0,4.1,8444,5.11433,1
206,0,0,24.12,7.85624e-11,1.205e-10,0.198901,0,4.12,8444,5.10799,1
207,0,0,24.14,7.68876e-11,1.18575e-10,0.1989,0,4.14,8444,5.10165,1
208,0,0,24.16,7.52125e-11,1.1665e-10,0.198899,0,4.16,8444,5.0953,1
209,0,0,24.18,7.35375e-11,1.14725e-10,0.198898,0,4.18,8444,5.08896,1
210,0,0,24.2,7.18624e-11,1.128e-10,0.198896,0,4.2,8444,5.08262,1
211,0,0,24.22,7.01876e-11,1.10875e-10,0.198895,0,4.22,8444,5.07629,1
212,0,0,24.24,6.85125e-11,1.0895e-10,0.198894,0,4.24,8444,5.06995,1
213,0,0,24.26,6.68375e-11,1.07025e-10,0.198892,0,4.26,8444,5.0636,1
214,0,0,24.28,6.51624e-11,1.051e-10,0.198891,0,4.28,8444,5.05726,1
215,0,0,24.3,6.34876e-11,1.03175e-10,0.19889,0,4.3,8444,5.05093,1
216,0,0,24.32,6.18125e-11,1.0125e-10,0.198889,0,4.32,8444,5.04459,1
217,0,0,24.34,6.01375e-11,9.9325e-11,0.198887,0,4.34,8444,5.03825,1
218,0,0,24.36,5.84625e-11,9.73999e-11,0.198886,0,4.36,8444,5.0319,1
219,0,0,24.38,5.67876e-11,9.54751e-11,0.198885,0,4.38,8444,5.02557,1
220,0,0,24.4,5.51125e-11,9.355e-11,0.198884,0,4.4,8444,5.01923,1
221,0,0,24.42,5.34375e-11,9.1625e-11,0.198882,0,4.42,8444,5.01289,1
222,0,0,24.44,5.17625e-11,8.96999e-11,0.198881,0,4.44,8444,5.00655,1
223,0,0,24.46,5.00876e-11,8.77751e-11,0.19888,0,4.46,8444,5.00021,1
224,0,0,24.48,4.84125e-11,8.585e-11,0.198879,0,4.48,8444,4.99387,1
225,0,0,24.5,4.67375e-11,8.3925e-11,0.198877,0,4.5,8444,4.98752,1
226,0,0,24.52,4.50625e-11,8.2e-11,0.198876,0,4.52,8444,4.98118,1
227,0,0,24.54,4.33874e-11,8.00749e-11,0.198875,0,4.54,8444,4.97484,1
228,0,0,24.56,4.17125e-11,7.815e-11,0.198873,0,4.56,8444,4.9685,1
229,0,0,24.58,4.00375e-11,7.6225e-11,0.198872,0,4.58,8444,4.96216,1
230,0,0,24.6,3.83625e-11,7.43e-11,0.198871,0,4.6,8444,4.95582,1
231,0,0,24.62,3.66874e-11,7.23749e-11,0.19887,0,4.62,8444,4.94948,1
232,0,0,24.64,3.50126e-11,7.04501e-11,0.198868,0,4.64,8444,4.94315,1
233,0,0,24.66,3.33375e-11,6.8525e-11,0.198867,0,4.66,8444,4.9368,1
234,0,0,24.68,3.16625e-11,6.66e-11,0.198866,0,4.68,8444,4.93046,1
235,0,0,24.7,2.99874e-11,6.46749e-11,0.198865,0,4.7,8444,4.92412,1
236,0,0,24.72,2.83126e-11,6.27501e-11,0.198863,0,4.72,8444,4.91779,1
237,0,0,24.74,2.66375e-11,6.0825e-11,0.198862,0,4.74,8444,4.91145,1
238,0,0,24.76,2.49625e-11,5.89e-11,0.198861,0,4.76,8444,4.9051,1
239,0,0,24.78,2.32874e-11,5.69749e-11,0.198859,0,4.78,8444,4.89876,1
240,0,0,24.8,2.16126e-11,5.50501e-11,0.198858,0,4.8,8444,4.89243,1
241,0,0,24.82,1.99375e-11,5.3125e-11,0.198857,0,4.82,8444,4.88609,1
242,0,0,24.84,1.82625e-11,5.12e-11,0.198856,0,4.84,8444,4.87975,1
243,0,0,24.86,1.65874e-11,4.92749e-11,0.198854,0,4.86,8444,4.8734,1
244,0,0,24.88,1.49126e-11,4.73501e-11,0.198853,0,4.88,8444,4.86706,1
245,0,0,24.9,1.32375e-11,4.5425e-11,0.198852,0,4.9,8444,4.86072,1
246,0,0,24.92,1.15625e-11,4.35e-11,0.198851,0,4.92,8444,4.85438,1
247,0,0,24.94,9.88746e-12,4.15749e-11,0.198849,0,4.94,8444,4.84804,1
248,0,0,24.96,8.21258e-12,3.96501e-11,0.198848,0,4.96,8444,4.84171,1
249,0,0,24.98,6.53754e-12,3.7725e-11,0.198847,0,4.98,8444,4.83536,1
250,0,0,25,4.8625e-12,3.58e-11,0.198846,0,5,8444,4.82902,1
251,0,0,25.02,3.97473e-12,3.46995e-11,0.198847,0,5.02,8544,4.82254,1
252,0,0,25.04,3.08696e-12,3.35989e-11,0.198848,0,5.04,8544,4.81606,1
253,0,0,25.06,2.19927e-12,3.24985e-11,0.198849,0,5.06,8544,4.80958,1
254,0,0,25.08,1.3115e-12,3.1398e-11,0.19885,0,5.08,8544,4.8031,1
255,0,0,25.1,4.23733e-13,3.02975e-11,0.198851,0,5.1,8544,4.79662,1
256,0,0,25.12,-4.64037e-13,2.9197e-11,0.198852,0,5.12,8544,4.79014,1
257,0,0,25.14,-1.35172e-12,2.80965e-11,0.198853,0,5.14,8544,4.78366,1
258,0,0,25.16,-2.23949e-12,2.6996e-11,0.198854,0,5.16,8544,4.77718,1
259,0,0,25.18,-3.12726e-12,2.58955e-11,0.198855,0,5.18,8544,4.7707,1
260,0,0,25.2,-4.01503e-12,2.4795e-11,0.198856,0,5.2,8544,4.76422,1
261,0,0,25.22,-4.90272e-12,2.36945e-11,0.198857,0,5.22,8544,4.75774,1
262,0,0,25.24,-5.79049e-12,2.2594e-11,0.198858,0,5.24,8544,4.75126,1
263,0,0,25.26,-6.67826e-12,2.14935e-11,0.198859,0,5.26,8544,4.74478,1
264,0,0,25.28,-7.56603e-12,2.0393e-11,0.19886,0,5.28,8544,4.7383,1
265,0,0,25.3,-8.45372e-12,1.92925e-11,0.198861,0,5.3,8544,4.73182,1
266,0,0,25.32,-9.34149e-12,1.8192e-11,0.198862,0,5.32,8544,4.72534,1
267,0,0,25.34,-1.02293e-11,1.70915e-11,0.198863,0,5.34,8544,4.71886,1
268,0,0,25.36,-1.1117e-11,1.5991e-11,0.198864,0,5.36,8544,4.71238,1
269,0,0,25.38,-1.20047e-11,1.48905e-11,0.198865,0,5.38,8544,4.7059,1
270,0,0,25.4,-1.28925e-11,1.379e-11,0.198866,0,5.4,8544,4.69942,1
271,0,0,25.42,-1.37803e-11,1.26895e-11,0.198867,0,5.42,8544,4.69294,1
272,0,0,25.44,-1.4668e-11,1.1589e-11,0.198868,0,5.44,8544,4.68646,1
273,0,0,25.46,-1.55557e-11,1.04885e-11,0.198869,0,5.46,8544,4.67998,1
274,0,0,25.48,-1.64435e-11,9.38802e-12,0.19887,0,5.48,8544,4.6735,1
275,0,0,25.5,-1.73313e-11,8.2875e-12,0.198871,0,5.5,8544,4.66702,1
276,0,0,25.52,-1.8219e-11,7.18697e-12,0.198873,0,5.52,8544,4.66053,1
277,0,0,25.54,-1.91068e-11,6.08645e-12,0.198874,0,5.54,8544,4.65405,1
278,0,0,25.56,-1.99945e-11,4.98603e-12,0.198875,0,5.56,8544,4.64757,1
279,0,0,25.58,-2.08822e-11,3.8855e-12,0.198876,0,5.58,8544,4.64109,1
280,0,0,25.6,-2.177e-11,2.78498e-12,0.198877,0,5.6,8544,4.63461,1
281,0,0,25.62,-2.26578e-11,1.68445e-12,0.198878,0,5.62,8544,4.62813,1
282,0,0,25.64,-2.35455e-11,5.84033e-13,0.198879,0,5.64,8544,4.62165,1
283,0,0,25.66,-2.44332e-11,-5.16492e-13,0.19888,0,5.66,8544,4.61517,1
284,0,0,25.68,-2.5321e-11,-1.61702e-12,0.198881,0,5.68,8544,4.60869,1
285,0,0,25.7,-2.62088e-11,-2.71754e-12,0.198882,0,5.7,8544,4.60221,1
286,0,0,25.72,-2.70965e-11,-3.81796e-12,0.198883,0,5.72,8544,4.59573,1
287,0,0,25.74,-2.79842e-11,-4.91849e-12,0.198884,0,5.74,8544,4.58925,1
288,0,0,25.76,-2.8872e-11,-6.01901e-12,0.198885,0,5.76,8544,4.58277,1
289,0,0,25.78,-2.97598e-11,-7.11954e-12,0.198886,0,5.78,8544,4.57629,1
290,0,0,25.8,-3.06475e-11,-8.21996e-12,0.198887,0,5.8,8544,4.56981,1
291,0,0,25.82,-3.15352e-11,-9.32048e-12,0.198888,0,5.82,8544,4.56333,1
292,0,0,25.84,-3.2423e-11,-1.0421e-11,0.198889,0,5.84,8544,4.55685,1
293,0,0,25.86,-3.33108e-11,-1.15215e-11,0.19889,0,5.86,8544,4.55037,1
294,0,0,25.88,-3.41985e-11,-1.2622e-11,0.198891,0,5.88,8544,4.54389,1
295,0,0,25.9,-3.50862e-11,-1.37225e-11,0.198892,0,5.9,8544,4.53741,1
296,0,0,25.92,-3.5974e-11,-1.4823e-11,0.198893,0,5.92,8544,4.53093,1
297,0,0,25.94,-3.68618e-11,-1.59235e-11,0.198894,0,5.94,8544,4.52445,1
298,0,0,25.96,-3.77495e-11,-1.70239e-11,0.198895,0,5.96,8544,4.51797,1
299,0,0,25.98,-3.86372e-11,-1.81245e-11,0.198896,0,5.98,8544,4.51149,1
300,0,0,26,-3.9525e-11,-1.9225e-11,0.198897,0,6,8544,4.505,1
301,0,0,26.02,-3.9755e-11,-1.95975e-11,0.198897,0,6.02,8644,4.49859,1
302,0,0,26.04,-3.9985e-11,-1.997e-11,0.198897,0,6.04,8644,4.49217,1
303,0,0,26.06,-4.0215e-11,-2.03425e-11,0.198897,0,6.06,8644,4.48576,1
304,0,0,26.08,-4.0445e-11,-2.0715e-11,0.198896,0,6.08,8644,4.47934,1
305,0,0,26.1,-4.0675e-11,-2.10875e-11,0.198896,0,6.1,8644,4.47292,1
306,0,0,26.12,-4.0905e-11,-2.146e-11,0.198896,0,6.12,8644,4.46651,1
307,0,0,26.14,-4.1135e-11,-2.18325e-11,0.198896,0,6.14,8644,4.46009,1
308,0,0,26.16,-4.1365e-11,-2.2205e-11,0.198895,0,6.16,8644,4.45367,1
309,0,0,26.18,-4.1595e-11,-2.25775e-11,0.198895,0,6.18,8644,4.44726,1
310,0,0,26.2,-4.1825e-11,-2.295e-11,0.198895,0,6.2,8644,4.44084,1
311,0,0,26.22,-4.2055e-11,-2.33225e-11,0.198894,0,6.22,8644,4.43442,1
312,0,0,26.24,-4.2285e-11,-2.3695e-11,0.198894,0,6.24,8644,4.42801,1
313,0,0,26.26,-4.2515e-11,-2.40675e-11,0.198894,0,6.26,8644,4.42159,1
314,0,0,26.28,-4.2745e-11,-2.444e-11,0.198894,0,6.28,8644,4.41517,1
315,0,0,26.3,-4.2975e-11,-2.48125e-11,0.198893,0,6.3,8644,4.40876,1
316,0,0,26.32,-4.3205e-11,-2.5185e-11,0.198893,0,6.32,8644,4.40234,1
317,0,0,26.34,-4.3435e-11,-2.55575e-11,0.198893,0,6.34,8644,4.39592,1
318,0,0,26.36,-4.3665e-11,-2.593e-11,0.198892,0,6.36,8644,4.38951,1
319,0,0,26.38,-4.3895e-11,-2.63025e-11,0.198892,0,6.38,8644,4.38309,1
320,0,0,26.4,-4.4125e-11,-2.6675e-11,0.198892,0,6.4,8644,4.37667,1
321,0,0,26.42,-4.4355e-11,-2.70475e-11,0.198892,0,6.42,8644,4.37026,1
322,0,0,26.44,-4.4585e-11,-2.742e-11,0.198891,0,6.44,8644,4.36384,1
323,0,0,26.46,-4.4815e-11,-2.77925e-11,0.198891,0,6.46,8644,4.35742,1
324,0,0,26.48,-4.5045e-11,-2.8165e-11,0.198891,0,6.48,8644,4.35101,1
325,0,0,26.5,-4.5275e-11,-2.85375e-11,0.198891,0,6.5,8644,4.34459,1
326,0,0,26.52,-4.5505e-11,-2.891e-11,0.19889,0,6.52,8644,4.33817,1
327,0,0,26.54,-4.5735e-11,-2.92825e-11,0.19889,0,6.54,8644,4.33176,1
328,0,0,26.56,-4.5965e-11,-2.9655e-11,0.19889,0,6.56,8644,4.32534,1
329,0,0,26.58,-4.6195e-11,-3.00275e-11,0.198889,0,6.58,8644,4.31892,1
330,0,0,26.6,-4.6425e-11,-3.04e-11,0.198889,0,6.6,8644,4.31251,1
331,0,0,26.62,-4.6655e-11,-3.07725e-11,0.198889,0,6.62,8644,4.30609,1
332,0,0,26.64,-4.6885e-11,-3.1145e-11,0.198889,0,6.64,8644,4.29967,1
333,0,0,26.66,-4.7115e-11,-3.15175e-11,0.198888,0,6.66,8644,4.29326,1
334,0,0,26.68,-4.7345e-11,-3.189e-11,0.198888,0,6.68,8644,4.28684,1
335,0,0,26.7,-4.7575e-11,-3.22625e-11,0.198888,0,6.7,8644,4.28042,1
336,0,0,26.72,-4.7805e-11,-3.2635e-11,0.198887,0,6.72,8644,4.27401,1
337,0,0,26.74,-4.8035e-11,-3.30075e-11,0.198887,0,6.74,8644,4.26759,1
338,0,0,26.76,-4.8265e-11,-3.338e-11,0.198887,0,6.76,8644,4.26117,1
339,0,0,26.78,-4.8495e-11,-3.37525e-11,0.198887,0,6.78,8644,4.25476,1
340,0,0,26.8,-4.8725e-11,-3.4125e-11,0.198886,0,6.8,8644,4.24834,1
341,0,0,26.82,-4.8955e-11,-3.44975e-11,0.198886,0,6.82,8644,4.24192,1
342,0,0,26.84,-4.9185e-11,-3.487e-11,0.198886,0,6.84,8644,4.23551,1
343,0,0,26.86,-4.9415e-11,-3.52425e-11,0.198885,0,6.86,8644,4.22909,1
344,0,0,26.88,-4.9645e-11,-3.5615e-11,0.198885,0,6.88,8644,4.22267,1
345,0,0,26.9,-4.9875e-11,-3.59875e-11,0.198885,0,6.9,8644,4.21626,1
346,0,0,26.92,-5.0105e-11,-3.636e-11,0.198885,0,6.92,8644,4.20984,1
347,0,0,26.94,-5.0335e-11,-3.67325e-11,0.198884,0,6.94,8644,4.20342,1
348,0,0,26.96,-5.0565e-11,-3.7105e-11,0.198884,0,6.96,8644,4.19701,1
349,0,0,26.98,-5.0795e-11,-3.74775e-11,0.198884,0,6.98,8644,4.19059,1
350,0,0,27,-5.1025e-11,-3.785e-11,0.198884,0,7,8644,4.18418,1
351,0,0,27.02,-5.0844e-11,-3.78007e-11,0.198884,0,7.02,8744,4.17773,1
352,0,0,27.04,-5.0663e-11,-3.77515e-11,0.198884,0,7.04,8744,4.17128,1
353,0,0,27.06,-5.0482e-11,-3.77023e-11,0.198884,0,7.06,8744,4.16484,1
354,0,0,27.08,-5.0301e-11,-3.7653e-11,0.198884,0,7.08,8744,4.15839,1
355,0,0,27.1,-5.012e-11,-3.76037e-11,0.198885,0,7.1,8744,4.15195,1
356,0,0,27.12,-4.9939e-11,-3.75545e-11,0.198885,0,7.12,8744,4.1455,1
357,0,0,27.14,-4.9758e-11,-3.75053e-11,0.198885,0,7.14,8744,4.13906,1
358,0,0,27.16,-4.9577e-11,-3.7456e-11,0.198885,0,7.16,8744,4.13261,1
359,0,0,27.18,-4.9396e-11,-3.74068e-11,0.198885,0,7.18,8744,4.12616,1
360,0,0,27.2,-4.9215e-11,-3.73575e-11,0.198886,0,7.2,8744,4.11972,1
361,0,0,27.22,-4.9034e-11,-3.73083e-11,0.198886,0,7.22,8744,4.11327,1
362,0,0,27.24,-4.8853e-11,-3.7259e-11,0.198886,0,7.24,8744,4.10683,1
363,0,0,27.26,-4.8672e-11,-3.72097e-11,0.198886,0,7.26,8744,4.10038,1
364,0,0,27.28,-4.8491e-11,-3.71605e-11,0.198886,0,7.28,8744,4.09394,1
365,0,0,27.3,-4.831e-11,-3.71113e-11,0.198887,0,7.3,8744,4.08749,1
366,0,0,27.32,-4.8129e-11,-3.7062e-11,0.198887,0,7.32,8744,4.08104,1
367,0,0,27.34,-4.7948e-11,-3.70128e-11,0.198887,0,7.34,8744,4.0746,1
368,0,0,27.36,-4.7767e-11,-3.69635e-11,0.198887,0,7.36,8744,4.06815,1
369,0,0,27.38,-4.7586e-11,-3.69143e-11,0.198887,0,7.38,8744,4.06171,1
370,0,0,27.4,-4.7405e-11,-3.6865e-11,0.198888,0,7.4,8744,4.05526,1
371,0,0,27.42,-4.7224e-11,-3.68157e-11,0.198888,0,7.42,8744,4.04882,1
372,0,0,27.44,-4.7043e-11,-3.67665e-11,0.198888,0,7.44,8744,4.04237,1
373,0,0,27.46,-4.6862e-11,-3.67173e-11,0.198888,0,7.46,8744,4.03592,1
374,0,0,27.48,-4.6681e-11,-3.6668e-11,0.198889,0,7.48,8744,4.02948,1
375,0,0,27.5,-4.65e-11,-3.66187e-11,0.198889,0,7.5,8744,4.02303,1
376,0,0,27.52,-4.6319e-11,-3.65695e-11,0.198889,0,7.52,8744,4.01659,1
377,0,0,27.54,-4.6138e-11,-3.65202e-11,0.198889,0,7.54,8744,4.01014,1
378,0,0,27.56,-4.5957e-11,-3.6471e-11,0.198889,0,7.56,8744,4.0037,1
379,0,0,27.58,-4.5776e-11,-3.64218e-11,0.19889,0,7.58,8744,3.99725,1
380,0,0,27.6,-4.5595e-11,-3.63725e-11,0.19889,0,7.6,8744,3.9908,1
381,0,0,27.62,-4.5414e-11,-3.63232e-11,0.19889,0,7.62,8744,3.98436,1
382,0,0,27.64,-4.5233e-11,-3.6274e-11,0.19889,0,7.64,8744,3.97791,1
383,0,0,27.66,-4.5052e-11,-3.62247e-11,0.19889,0,7.66,8744,3.97147,1
384,0,0,27.68,-4.4871e-11,-3.61755e-11,0.198891,0,7.68,8744,3.96502,1
385,0,0,27.7,-4.469e-11,-3.61262e-11,0.198891,0,7.7,8744,3.95858,1
386,0,0,27.72,-4.4509e-11,-3.6077e-11,0.198891,0,7.72,8744,3.95213,1
387,0,0,27.74,-4.4328e-11,-3.60278e-11,0.198891,0,7.74,8744,3.94568,1
388,0,0,27.76,-4.4147e-11,-3.59785e-11,0.198891,0,7.76,8744,3.93924,1
389,0,0,27.78,-4.3966e-11,-3.59292e-11,0.198892,0,7.78,8744,3.93279,1
390,0,0,27.8,-4.3785e-11,-3.588e-11,0.198892,0,7.8,8744,3.92635,1
391,0,0,27.82,-4.3604e-11,-3.58307e-11,0.198892,0,7.82,8744,3.9199,1
392,0,0,27.84,-4.3423e-11,-3.57815e-11,0.198892,0,7.84,8744,3.91346,1
393,0,0,27.86,-4.3242e-11,-3.57322e-11,0.198893,0,7.86,8744,3.90701,1
394,0,0,27.88,-4.3061e-11,-3.5683e-11,0.198893,0,7.88,8744,3.90056,1
395,0,0,27.9,-4.288e-11,-3.56337e-11,0.198893,0,7.9,8744,3.89412,1
396,0,0,27.92,-4.2699e-11,-3.55845e-11,0.198893,0,7.92,8744,3.88767,1
397,0,0,27.94,-4.2518e-11,-3.55352e-11,0.198893,0,7.94,8744,3.88123,1
398,0,0,27.96,-4.2337e-11,-3.5486e-11,0.198894,0,7.96,8744,3.87478,1
399,0,0,27.98,-4.2156e-11,-3.54368e-11,0.198894,0,7.98,8744,3.86834,1
400,0,0,28,-4.1975e-11,-3.53875e-11,0.198894,0,8,8744,3.86189,1
401,0,0,28.02,-4.17012e-11,-3.5172e-11,0.198894,0,8.02,8844,3.85546,1
402,0,0,28.04,-4.14275e-11,-3.49565e-11,0.198894,0,8.04,8844,3.84902,1
403,0,0,28.06,-4.11538e-11,-3.4741e-11,0.198894,0,8.06,8844,3.84259,1
404,0,0,28.08,-4.088e-11,-3.45255e-11,0.198894,0,8.08,8844,3.83616,1
405,0,0,28.1,-4.06062e-11,-3.431e-11,0.198894,0,8.1,8844,3.82973,1
406,0,0,28.12,-4.03325e-11,-3.40945e-11,0.198894,0,8.12,8844,3.82329,1
407,0,0,28.14,-4.00588e-11,-3.3879e-11,0.198894,0,8.14,8844,3.81686,1
408,0,0,28.16,-3.9785e-11,-3.36635e-11,0.198894,0,8.16,8844,3.81043,1
409,0,0,28.18,-3.95112e-11,-3.3448e-11,0.198893,0,8.18,8844,3.804,1
410,0,0,28.2,-3.92375e-11,-3.32325e-11,0.198893,0,8.2,8844,3.79756,1
411,0,0,28.22,-3.89638e-11,-3.3017e-11,0.198893,0,8.22,8844,3.79113,1
412,0,0,28.24,-3.869e-11,-3.28015e-11,0.198893,0,8.24,8844,3.7847,1
413,0,0,28.26,-3.84162e-11,-3.2586e-11,0.198893,0,8.26,8844,3.77826,1
414,0,0,28.28,-3.81425e-11,-3.23705e-11,0.198893,0,8.28,8844,3.77183,1
415,0,0,28.3,-3.78688e-11,-3.2155e-11,0.198893,0,8.3,8844,3.7654,1
416,0,0,28.32,-3.7595e-11,-3.19395e-11,0.198893,0,8.32,8844,3.75897,1
417,0,0,28.34,-3.73212e-11,-3.1724e-11,0.198893,0,8.34,8844,3.75253,1
418,0,0,28.36,-3.70475e-11,-3.15085e-11,0.198893,0,8.36,8844,3.7461,1
419,0,0,28.38,-3.67738e-11,-3.1293e-11,0.198893,0,8.38,8844,3.73967,1
420,0,0,28.4,-3.65e-11,-3.10775e-11,0.198893,0,8.4,8844,3.73324,1
421,0,0,28.42,-3.62262e-11,-3.0862e-11,0.198893,0,8.42,8844,3.7268,1
422,0,0,28.44,-3.59525e-11,-3.06465e-11,0.198893,0,8.44,8844,3.72037,1
423,0,0,28.46,-3.56788e-11,-3.0431e-11,0.198893,0,8.46,8844,3.71394,1
424,0,0,28.48,-3.5405e-11,-3.02155e-11,0.198893,0,8.48,8844,3.70751,1
425,0,0,28.5,-3.51313e-11,-3e-11,0.198893,0,8.5,8844,3.70107,1
426,0,0,28.52,-3.48575e-11,-2.97845e-11,0.198892,0,8.52,8844,3.69464,1
427,0,0,28.54,-3.45837e-11,-2.9569e-11,0.198892,0,8.54,8844,3.68821,1
428,0,0,28.56,-3.431e-11,-2.93535e-11,0.198892,0,8.56,8844,3.68177,1
429,0,0,28.58,-3.40363e-11,-2.9138e-11,0.198892,0,8.58,8844,3.67534,1
430,0,0,28.6,-3.37625e-11,-2.89225e-11,0.198892,0,8.6,8844,3.66891,1
431,0,0,28.62,-3.34887e-11,-2.8707e-11,0.198892,0,8.62,8844,3.66248,1
432,0,0,28.64,-3.3215e-11,-2.84915e-11,0.198892,0,8.64,8844,3.65604,1
433,0,0,28.66,-3.29413e-11,-2.8276e-11,0.198892,0,8.66,8844,3.64961,1
434,0,0,28.68,-3.26675e-11,-2.80605e-11,0.198892,0,8.68,8844,3.64318,1
435,0,0,28.7,-3.23937e-11,-2.7845e-11,0.198892,0,8.7,8844,3.63675,1
436,0,0,28.72,-3.212e-11,-2.76295e-11,0.198892,0,8.72,8844,3.63031,1
437,0,0,28.74,-3.18463e-11,-2.7414e-11,0.198892,0,8.74,8844,3.62388,1
438,0,0,28.76,-3.15725e-11,-2.71985e-11,0.198892,0,8.76,8844,3.61745,1
439,0,0,28.78,-3.12987e-11,-2.6983e-11,0.198892,0,8.78,8844,3.61101,1
440,0,0,28.8,-3.1025e-11,-2.67675e-11,0.198892,0,8.8,8844,3.60458,1
441,0,0,28.82,-3.07513e-11,-2.6552e-11,0.198892,0,8.82,8844,3.59815,1
442,0,0,28.84,-3.04775e-11,-2.63365e-11,0.198891,0,8.84,8844,3.59172,1
443,0,0,28.86,-3.02037e-11,-2.6121e-11,0.198891,0,8.86,8844,3.58528,1
444,0,0,28.88,-2.993e-11,-2.59055e-11,0.198891,0,8.88,8844,3.57885,1
445,0,0,28.9,-2.96563e-11,-2.569e-11,0.198891,0,8.9,8844,3.57242,1
446,0,0,28.92,-2.93825e-11,-2.54745e-11,0.198891,0,8.92,8844,3.56599,1
447,0,0,28.94,-2.91087e-11,-2.5259e-11,0.198891,0,8.94,8844,3.55955,1
448,0,0,28.96,-2.8835e-11,-2.50435e-11,0.198891,0,8.96,8844,3.55312,1
449,0,0,28.98,-2.85613e-11,-2.4828e-11,0.198891,0,8.98,8844,3.54669,1
450,0,0,29,-2.82875e-11,-2.46125e-11,0.198891,0,9,8844,3.54026,1
451,0,0,29.02,-2.7692e-11,-2.40595e-11,0.198891,0,9.02,8944,3.53382,1
452,0,0,29.04,-2.70965e-11,-2.35065e-11,0.198891,0,9.04,8944,3.52738,1
453,0,0,29.06,-2.6501e-11,-2.29535e-11,0.198891,0,9.06,8944,3.52094,1
454,0,0,29.08,-2.59055e-11,-2.24005e-11,0.198891,0,9.08,8944,3.5145,1
455,0,0,29.1,-2.531e-11,-2.18475e-11,0.198891,0,9.1,8944,3.50806,1
456,0,0,29.12,-2.47145e-11,-2.12945e-11,0.198891,0,9.12,8944,3.50162,1
457,0,0,29.14,-2.4119e-11,-2.07415e-11,0.198891,0,9.14,8944,3.49519,1
458,0,0,29.16,-2.35235e-11,-2.01885e-11,0.198891,0,9.16,8944,3.48875,1
459,0,0,29.18,-2.2928e-11,-1.96355e-11,0.198891,0,9.18,8944,3.48231,1
460,0,0,29.2,-2.23325e-11,-1.90825e-11,0.198891,0,9.2,8944,3.47587,1
461,0,0,29.22,-2.1737e-11,-1.85295e-11,0.198891,0,9.22,8944,3.46943,1
462,0,0,29.24,-2.11415e-11,-1.79765e-11,0.198891,0,9.24,8944,3.46299,1
463,0,0,29.26,-2.0546e-11,-1.74235e-11,0.198892,0,9.26,8944,3.45655,1
464,0,0,29.28,-1.99505e-11,-1.68705e-11,0.198892,0,9.28,8944,3.45012,1
465,0,0,29.3,-1.9355e-11,-1.63175e-11,0.198892,0,9.3,8944,3.44368,1
466,0,0,29.32,-1.87595e-11,-1.57645e-11,0.198892,0,9.32,8944,3.43724,1
467,0,0,29.34,-1.8164e-11,-1.52115e-11,0.198892,0,9.34,8944,3.4308,1
468,0,0,29.36,-1.75685e-11,-1.46585e-11,0.198892,0,9.36,8944,3.42436,1
469,0,0,29.38,-1.6973e-11,-1.41055e-11,0.198892,0,9.38,8944,3.41792,1
470,0,0,29.4,-1.63775e-11,-1.35525e-11,0.198892,0,9.4,8944,3.41149,1
471,0,0,29.42,-1.5782e-11,-1.29995e-11,0.198892,0,9.42,8944,3.40505,1
472,0,0,29.44,-1.51865e-11,-1.24465e-11,0.198892,0,9.44,8944,3.39861,1
473,0,0,29.46,-1.4591e-11,-1.18935e-11,0.198892,0,9.46,8944,3.39217,1
474,0,0,29.48,-1.39955e-11,-1.13405e-11,0.198892,0,9.48,8944,3.38573,1
475,0,0,29.5,-1.34e-11,-1.07875e-11,0.198892,0,9.5,8944,3.37929,1
476,0,0,29.52,-1.28045e-11,-1.02345e-11,0.198892,0,9.52,8944,3.37285,1
477,0,0,29.54,-1.2209e-11,-9.68147e-12,0.198892,0,9.54,8944,3.36642,1
478,0,0,29.56,-1.16135e-11,-9.12851e-12,0.198892,0,9.56,8944,3.35998,1
479,0,0,29.58,-1.1018e-11,-8.5755e-12,0.198892,0,9.58,8944,3.35354,1
480,0,0,29.6,-1.04225e-11,-8.02249e-12,0.198892,0,9.6,8944,3.3471,1
481,0,0,29.62,-9.82698e-12,-7.46948e-12,0.198892,0,9.62,8944,3.34066,1
482,0,0,29.64,-9.23152e-12,-6.91652e-12,0.198892,0,9.64,8944,3.33422,1
483,0,0,29.66,-8.63601e-12,-6.3635e-12,0.198892,0,9.66,8944,3.32778,1
484,0,0,29.68,-8.04049e-12,-5.81049e-12,0.198892,0,9.68,8944,3.32135,1
485,0,0,29.7,-7.44498e-12,-5.25748e-12,0.198892,0,9.7,8944,3.31491,1
486,0,0,29.72,-6.84952e-12,-4.70452e-12,0.198892,0,9.72,8944,3.30847,1
487,0,0,29.74,-6.25401e-12,-4.15151e-12,0.198892,0,9.74,8944,3.30203,1
488,0,0,29.76,-5.65849e-12,-3.59849e-12,0.198893,0,9.76,8944,3.29559,1
489,0,0,29.78,-5.06298e-12,-3.04548e-12,0.198893,0,9.78,8944,3.28915,1
490,0,0,29.8,-4.46752e-12,-2.49252e-12,0.198893,0,9.8,8944,3.28272,1
491,0,0,29.82,-3.87201e-12,-1.93951e-12,0.198893,0,9.82,8944,3.27628,1
492,0,0,29.84,-3.2765e-12,-1.3865e-12,0.198893,0,9.84,8944,3.26984,1
493,0,0,29.86,-2.68098e-12,-8.33483e-13,0.198893,0,9.86,8944,3.2634,1
494,0,0,29.88,-2.08553e-12,-2.80523e-13,0.198893,0,9.88,8944,3.25696,1
495,0,0,29.9,-1.49001e-12,2.72489e-13,0.198893,0,9.9,8944,3.25052,1
496,0,0,29.92,-8.94498e-13,8.25502e-13,0.198893,0,9.92,8944,3.24408,1
497,0,0,29.94,-2.98984e-13,1.37851e-12,0.198893,0,9.94,8944,3.23765,1
498,0,0,29.96,2.96473e-13,1.93147e-12,0.198893,0,9.96,8944,3.23121,1
499,0,0,29.98,8.91986e-13,2.48449e-12,0.198893,0,9.98,8944,3.22477,1
500,0,0,30,1.4875e-12,3.0375e-12,0.198893,0,10,8944,3.21833,1
501,0,0,30.02,2.29754e-12,3.84084e-12,0.198893,0,10.02,9044,3.21189,1
502,0,0,30.04,3.10759e-12,4.64419e-12,0.198893,0,10.04,9044,3.20546,1
503,0,0,30.06,3.91755e-12,5.44745e-12,0.198893,0,10.06,9044,3.19902,1
504,0,0,30.08,4.7276e-12,6.2508e-12,0.198893,0,10.08,9044,3.19259,1
505,0,0,30.1,5.53764e-12,7.05414e-12,0.198893,0,10.1,9044,3.18615,1
506,0,0,30.12,6.34768e-12,7.85748e-12,0.198893,0,10.12,9044,3.17971,1
507,0,0,30.14,7.15765e-12,8.66075e-12,0.198893,0,10.14,9044,3.17328,1
508,0,0,30.16,7.96769e-12,9.46409e-12,0.198893,0,10.16,9044,3.16684,1
509,0,0,30.18,8.77774e-12,1.02674e-11,0.198893,0,10.18,9044,3.16041,1
510,0,0,30.2,9.58778e-12,1.10708e-11,0.198893,0,10.2,9044,3.15397,1
511,0,0,30.22,1.03977e-11,1.1874e-11,0.198893,0,10.22,9044,3.14753,1
512,0,0,30.24,1.12078e-11,1.26774e-11,0.198893,0,10.24,9044,3.1411,1
513,0,0,30.26,1.20178e-11,1.34807e-11,0.198893,0,10.26,9044,3.13466,1
514,0,0,30.28,1.28279e-11,1.42841e-11,0.198893,0,10.28,9044,3.12823,1
515,0,0,30.3,1.36378e-11,1.50873e-11,0.198893,0,10.3,9044,3.12179,1
516,0,0,30.32,1.44479e-11,1.58907e-11,0.198893,0,10.32,9044,3.11535,1
517,0,0,30.34,1.52579e-11,1.6694e-11,0.198893,0,10.34,9044,3.10892,1
518,0,0,30.36,1.6068e-11,1.74974e-11,0.198893,0,10.36,9044,3.10248,1
519,0,0,30.38,1.68779e-11,1.83006e-11,0.198893,0,10.38,9044,3.09605,1
520,0,0,30.4,1.7688e-11,1.9104e-11,0.198893,0,10.4,9044,3.08961,1
521,0,0,30.42,1.8498e-11,1.99073e-11,0.198893,0,10.42,9044,3.08317,1
522,0,0,30.44,1.93081e-11,2.07107e-11,0.198893,0,10.44,9044,3.07674,1
523,0,0,30.46,2.0118e-11,2.15139e-11,0.198893,0,10.46,9044,3.0703,1
524,0,0,30.48,2.09281e-11,2.23173e-11,0.198893,0,10.48,9044,3.06387,1
525,0,0,30.5,2.17381e-11,2.31206e-11,0.198893,0,10.5,9044,3.05743,1
526,0,0,30.52,2.25482e-11,2.3924e-11,0.198893,0,10.52,9044,3.05099,1
527,0,0,30.54,2.33582e-11,2.47273e-11,0.198893,0,10.54,9044,3.04456,1
528,0,0,30.56,2.41682e-11,2.55306e-11,0.198893,0,10.56,9044,3.03812,1
529,0,0,30.58,2.49782e-11,2.63339e-11,0.198893,0,10.58,9044,3.03169,1
530,0,0,30.6,2.57883e-11,2.71373e-11,0.198893,0,10.6,9044,3.02525,1
531,0,0,30.62,2.65983e-11,2.79406e-11,0.198893,0,10.62,9044,3.01881,1
532,0,0,30.64,2.74083e-11,2.87439e-11,0.198893,0,10.64,9044,3.01238,1
533,0,0,30.66,2.82183e-11,2.95472e-11,0.198893,0,10.66,9044,3.00594,1
534,0,0,30.68,2.90284e-11,3.03506e-11,0.198893,0,10.68,9044,2.99951,1
535,0,0,30.7,2.98384e-11,3.11539e-11,0.198893,0,10.7,9044,2.99307,1
536,0,0,30.72,3.06484e-11,3.19572e-11,0.198893,0,10.72,9044,2.98663,1
537,0,0,30.74,3.14584e-11,3.27605e-11,0.198893,0,10.74,9044,2.9802,1
538,0,0,30.76,3.22685e-11,3.35639e-11,0.198893,0,10.76,9044,2.97376,1
539,0,0,30.78,3.30785e-11,3.43672e-11,0.198893,0,10.78,9044,2.96733,1
540,0,0,30.8,3.38885e-11,3.51705e-11,0.198893,0,10.8,9044,2.96089,1
541,0,0,30.82,3.46985e-11,3.59738e-11,0.198893,0,10.82,9044,2.95445,1
542,0,0,30.84,3.55086e-11,3.67772e-11,0.198893,0,10.84,9044,2.94802,1
543,0,0,30.86,3.63186e-11,3.75805e-11,0.198893,0,10.86,9044,2.94158,1
544,0,0,30.88,3.71286e-11,3.83838e-11,0.198893,0,10.88,9044,2.93515,1
545,0,0,30.9,3.79386e-11,3.91871e-11,0.198893,0,10.9,9044,2.92871,1
546,0,0,30.92,3.87487e-11,3.99905e-11,0.198893,0,10.92,9044,2.92227,1
547,0,0,30.94,3.95587e-11,4.07938e-11,0.198893,0,10.94,9044,2.91584,1
548,0,0,30.96,4.03687e-11,4.15971e-11,0.198893,0,10.96,9044,2.9094,1
549,0,0,30.98,4.11787e-11,4.24004e-11,0.198893,0,10.98,9044,2.90297,1
550,0,0,31,4.19887e-11,4.32037e-11,0.198893,0,11,9044,2.89653,1
551,0,0,31.02,4.30119e-11,4.4259e-11,0.198893,0,11.02,9144,2.89009,1
552,0,0,31.04,4.4035e-11,4.53143e-11,0.198893,0,11.04,9144,2.88366,1
553,0,0,31.06,4.5058e-11,4.63695e-11,0.198893,0,11.06,9144,2.87722,1
554,0,0,31.08,4.60811e-11,4.74247e-11,0.198893,0,11.08,9144,2.87078,1
555,0,0,31.1,4.71043e-11,4.848e-11,0.198893,0,11.1,9144,2.86434,1
556,0,0,31.12,4.81274e-11,4.95353e-11,0.198893,0,11.12,9144,2.85791,1
557,0,0,31.14,4.91504e-11,5.05905e-11,0.198893,0,11.14,9144,2.85147,1
558,0,0,31.16,5.01735e-11,5.16457e-11,0.198893,0,11.16,9144,2.84503,1
559,0,0,31.18,5.11967e-11,5.2701e-11,0.198893,0,11.18,9144,2.8386,1
560,0,0,31.2,5.22198e-11,5.37563e-11,0.198893,0,11.2,9144,2.83216,1
561,0,0,31.22,5.32428e-11,5.48115e-11,0.198893,0,11.22,9144,2.82572,1
562,0,0,31.24,5.42659e-11,5.58667e-11,0.198893,0,11.24,9144,2.81929,1
563,0,0,31.26,5.52891e-11,5.6922e-11,0.198893,0,11.26,9144,2.81285,1
564,0,0,31.28,5.63122e-11,5.79773e-11,0.198893,0,11.28,9144,2.80641,1
565,0,0,31.3,5.73352e-11,5.90325e-11,0.198893,0,11.3,9144,2.79998,1
566,0,0,31.32,5.83583e-11,6.00877e-11,0.198893,0,11.32,9144,2.79354,1
567,0,0,31.34,5.93815e-11,6.1143e-11,0.198893,0,11.34,9144,2.7871,1
568,0,0,31.36,6.04046e-11,6.21983e-11,0.198893,0,11.36,9144,2.78066,1
569,0,0,31.38,6.14276e-11,6.32535e-11,0.198893,0,11.38,9144,2.77423,1
570,0,0,31.4,6.24507e-11,6.43087e-11,0.198893,0,11.4,9144,2.76779,1
571,0,0,31.42,6.34739e-11,6.5364e-11,0.198893,0,11.42,9144,2.76135,1
572,0,0,31.44,6.4497e-11,6.64193e-11,0.198893,0,11.44,9144,2.75492,1
573,0,0,31.46,6.552e-11,6.74744e-11,0.198893,0,11.46,9144,2.74848,1
574,0,0,31.48,6.65431e-11,6.85297e-11,0.198893,0,11.48,9144,2.74204,1
575,0,0,31.5,6.75663e-11,6.9585e-11,0.198893,0,11.5,9144,2.73561,1
576,0,0,31.52,6.85894e-11,7.06403e-11,0.198893,0,11.52,9144,2.72917,1
577,0,0,31.54,6.96125e-11,7.16955e-11,0.198893,0,11.54,9144,2.72273,1
578,0,0,31.56,7.06355e-11,7.27507e-11,0.198893,0,11.56,9144,2.71629,1
579,0,0,31.58,7.16586e-11,7.3806e-11,0.198893,0,11.58,9144,2.70986,1
580,0,0,31.6,7.26818e-11,7.48613e-11,0.198893,0,11.6,9144,2.70342,1
581,0,0,31.62,7.37049e-11,7.59165e-11,0.198893,0,11.62,9144,2.69698,1
582,0,0,31.64,7.47279e-11,7.69717e-11,0.198893,0,11.64,9144,2.69055,1
583,0,0,31.66,7.5751e-11,7.8027e-11,0.198893,0,11.66,9144,2.68411,1
584,0,0,31.68,7.67742e-11,7.90823e-11,0.198893,0,11.68,9144,2.67767,1
585,0,0,31.7,7.77973e-11,8.01375e-11,0.198893,0,11.7,9144,2.67123,1
586,0,0,31.72,7.88203e-11,8.11927e-11,0.198893,0,11.72,9144,2.6648,1
587,0,0,31.74,7.98434e-11,8.2248e-11,0.198893,0,11.74,9144,2.65836,1
588,0,0,31.76,8.08666e-11,8.33033e-11,0.198893,0,11.76,9144,2.65192,1
589,0,0,31.78,8.18897e-11,8.43585e-11,0.198893,0,11.78,9144,2.64549,1
590,0,0,31.8,8.29127e-11,8.54137e-11,0.198893,0,11.8,9144,2.63905,1
591,0,0,31.82,8.39358e-11,8.6469e-11,0.198893,0,11.82,9144,2.63261,1
592,0,0,31.84,8.4959e-11,8.75243e-11,0.198893,0,11.84,9144,2.62618,1
593,0,0,31.86,8.59821e-11,8.85795e-11,0.198893,0,11.86,9144,2.61974,1
594,0,0,31.88,8.70051e-11,8.96347e-11,0.198893,0,11.88,9144,2.6133,1
595,0,0,31.9,8.80282e-11,9.069e-11,0.198893,0,11.9,9144,2.60687,1
596,0,0,31.92,8.90514e-11,9.17453e-11,0.198893,0,11.92,9144,2.60043,1
597,0,0,31.94,9.00745e-11,9.28005e-11,0.198893,0,11.94,9144,2.59399,1
598,0,0,31.96,9.10975e-11,9.38557e-11,0.198893,0,11.96,9144,2.58755,1
599,0,0,31.98,9.21206e-11,9.4911e-11,0.198893,0,11.98,9144,2.58112,1
600,0,0,32,9.31437e-11,9.59662e-11,0.198893,0,12,9144,2.57468,1
601,0,0,32.02,9.47077e-11,9.75795e-11,0.198892,0,12.02,9244,2.56824,1
602,0,0,32.04,9.62716e-11,9.91927e-11,0.198892,0,12.04,9244,2.56181,1
603,0,0,32.06,9.78355e-11,1.00806e-10,0.198892,0,12.06,9244,2.55537,1
604,0,0,32.08,9.93994e-11,1.02419e-10,0.198892,0,12.08,9244,2.54893,1
605,0,0,32.1,1.00963e-10,1.04032e-10,0.198892,0,12.1,9244,2.5425,1
606,0,0,32.12,1.02527e-10,1.05645e-10,0.198892,0,12.12,9244,2.53606,1
607,0,0,32.14,1.04091e-10,1.07259e-10,0.198892,0,12.14,9244,2.52962,1
608,0,0,32.16,1.05655e-10,1.08872e-10,0.198892,0,12.16,9244,2.52319,1
609,0,0,32.18,1.07219e-10,1.10485e-10,0.198892,0,12.18,9244,2.51675,1
610,0,0,32.2,1.08783e-10,1.12098e-10,0.198892,0,12.2,9244,2.51031,1
611,0,0,32.22,1.10346e-10,1.13712e-10,0.198892,0,12.22,9244,2.50388,1
612,0,0,32.24,1.1191e-10,1.15325e-10,0.198892,0,12.24,9244,2.49744,1
613,0,0,32.26,1.13474e-10,1.16938e-10,0.198892,0,12.26,9244,2.49101,1
614,0,0,32.28,1.15038e-10,1.18551e-10,0.198892,0,12.28,9244,2.48457,1
615,0,0,32.3,1.16602e-10,1.20164e-10,0.198892,0,12.3,9244,2.47813,1
616,0,0,32.32,1.18166e-10,1.21777e-10,0.198892,0,12.32,9244,2.4717,1
617,0,0,32.34,1.1973e-10,1.23391e-10,0.198892,0,12.34,9244,2.46526,1
618,0,0,32.36,1.21294e-10,1.25004e-10,0.198892,0,12.36,9244,2.45882,1
619,0,0,32.38,1.22857e-10,1.26617e-10,0.198892,0,12.38,9244,2.45239,1
620,0,0,32.4,1.24421e-10,1.2823e-10,0.198892,0,12.4,9244,2.44595,1
621,0,0,32.42,1.25985e-10,1.29843e-10,0.198892,0,12.42,9244,2.43951,1
622,0,0,32.44,1.27549e-10,1.31457e-10,0.198892,0,12.44,9244,2.43308,1
623,0,0,32.46,1.29113e-10,1.3307e-10,0.198892,0,12.46,9244,2.42664,1
624,0,0,32.48,1.30677e-10,1.34683e-10,0.198892,0,12.48,9244,2.4202,1
625,0,0,32.5,1.32241e-10,1.36296e-10,0.198892,0,12.5,9244,2.41377,1
626,0,0,32.52,1.33805e-10,1.37909e-10,0.198892,0,12.52,9244,2.40733,1
627,0,0,32.54,1.35368e-10,1.39523e-10,0.198892,0,12.54,9244,2.40089,1
628,0,0,32.56,1.36932e-10,1.41136e-10,0.198892,0,12.56,9244,2.39446,1
629,0,0,32.58,1.38496e-10,1.42749e-10,0.198892,0,12.58,9244,2.38802,1
630,0,0,32.6,1.4006e-10,1.44362e-10,0.198892,0,12.6,9244,2.38159,1
631,0,0,32.62,1.41624e-10,1.45975e-10,0.198892,0,12.62,9244,2.37515,1
632,0,0,32.64,1.43188e-10,1.47589e-10,0.198892,0,12.64,9244,2.36871,1
633,0,0,32.66,1.44752e-10,1.49202e-10,0.198892,0,12.66,9244,2.36228,1
634,0,0,32.68,1.46316e-10,1.50815e-10,0.198892,0,12.68,9244,2.35584,1
635,0,0,32.7,1.47879e-10,1.52428e-10,0.198892,0,12.7,9244,2.3494,1
636,0,0,32.72,1.49443e-10,1.54042e-10,0.198892,0,12.72,9244,2.34297,1
637,0,0,32.74,1.51007e-10,1.55655e-10,0.198892,0,12.74,9244,2.33653,1
638,0,0,32.76,1.52571e-10,1.57268e-10,0.198892,0,12.76,9244,2.33009,1
639,0,0,32.78,1.54135e-10,1.58881e-10,0.198892,0,12.78,9244,2.32366,1
640,0,0,32.8,1.55699e-10,1.60494e-10,0.198892,0,12.8,9244,2.31722,1
641,0,0,32.82,1.57263e-10,1.62107e-10,0.198892,0,12.82,9244,2.31078,1
642,0,0,32.84,1.58827e-10,1.63721e-10,0.198892,0,12.84,9244,2.30435,1
643,0,0,32.86,1.6039e-10,1.65334e-10,0.198892,0,12.86,9244,2.29791,1
644,0,0,32.88,1.61954e-10,1.66947e-10,0.198892,0,12.88,9244,2.29147,1
645,0,0,32.9,1.63518e-10,1.6856e-10,0.198892,0,12.9,9244,2.28504,1
646,0,0,32.92,1.65082e-10,1.70173e-10,0.198892,0,12.92,9244,2.2786,1
647,0,0,32.94,1.66646e-10,1.71787e-10,0.198892,0,12.94,9244,2.27217,1
648,0,0,32.96,1.6821e-10,1.734e-10,0.198892,0,12.96,9244,2.26573,1
649,0,0,32.98,1.69774e-10,1.75013e-10,0.198892,0,12.98,9244,2.25929,1
650,0,0,33,1.71337e-10,1.76626e-10,0.198892,0,13,9244,2.25286,1
651,0,0,33.02,1.73617e-10,1.78966e-10,0.198892,0,13.02,9344,2.24642,1
652,0,0,33.04,1.75897e-10,1.81306e-10,0.198892,0,13.04,9344,2.23998,1
653,0,0,33.06,1.78177e-10,1.83646e-10,0.198892,0,13.06,9344,2.23354,1
654,0,0,33.08,1.80457e-10,1.85985e-10,0.198892,0,13.08,9344,2.22711,1
655,0,0,33.1,1.82736e-10,1.88325e-10,0.198892,0,13.1,9344,2.22067,1
656,0,0,33.12,1.85016e-10,1.90665e-10,0.198892,0,13.12,9344,2.21423,1
657,0,0,33.14,1.87296e-10,1.93004e-10,0.198892,0,13.14,9344,2.2078,1
658,0,0,33.16,1.89576e-10,1.95344e-10,0.198892,0,13.16,9344,2.20136,1
659,0,0,33.18,1.91856e-10,1.97684e-10,0.198892,0,13.18,9344,2.19492,1
660,0,0,33.2,1.94136e-10,2.00024e-10,0.198892,0,13.2,9344,2.18849,1
661,0,0,33.22,1.96415e-10,2.02364e-10,0.198892,0,13.22,9344,2.18205,1
662,0,0,33.24,1.98695e-10,2.04703e-10,0.198892,0,13.24,9344,2.17561,1
663,0,0,33.26,2.00975e-10,2.07043e-10,0.198892,0,13.26,9344,2.16918,1
664,0,0,33.28,2.03255e-10,2.09383e-10,0.198892,0,13.28,9344,2.16274,1
665,0,0,33.3,2.05534e-10,2.11722e-10,0.198892,0,13.3,9344,2.1563,1
666,0,0,33.32,2.07814e-10,2.14062e-10,0.198892,0,13.32,9344,2.14987,1
667,0,0,33.34,2.10094e-10,2.16402e-10,0.198892,0,13.34,9344,2.14343,1
668,0,0,33.36,2.12374e-10,2.18742e-10,0.198892,0,13.36,9344,2.13699,1
669,0,0,33.38,2.14654e-10,2.21082e-10,0.198892,0,13.38,9344,2.13056,1
670,0,0,33.4,2.16934e-10,2.23421e-10,0.198892,0,13.4,9344,2.12412,1
671,0,0,33.42,2.19213e-10,2.25761e-10,0.198892,0,13.42,9344,2.11768,1
672,0,0,33.44,2.21493e-10,2.28101e-10,0.198892,0,13.44,9344,2.11125,1
673,0,0,33.46,2.23773e-10,2.3044e-10,0.198892,0,13.46,9344,2.10481,1
674,0,0,33.48,2.26053e-10,2.3278e-10,0.198892,0,13.48,9344,2.09837,1
675,0,0,33.5,2.28333e-10,2.3512e-10,0.198892,0,13.5,9344,2.09194,1
676,0,0,33.52,2.30612e-10,2.3746e-10,0.198892,0,13.52,9344,2.0855,1
677,0,0,33.54,2.32892e-10,2.398e-10,0.198892,0,13.54,9344,2.07906,1
678,0,0,33.56,2.35172e-10,2.42139e-10,0.198892,0,13.56,9344,2.07262,1
679,0,0,33.58,2.37452e-10,2.44479e-10,0.198892,0,13.58,9344,2.06619,1
680,0,0,33.6,2.39731e-10,2.46819e-10,0.198892,0,13.6,9344,2.05975,1
681,0,0,33.62,2.42011e-10,2.49158e-10,0.198892,0,13.62,9344,2.05331,1
682,0,0,33.64,2.44291e-10,2.51498e-10,0.198892,0,13.64,9344,2.04688,1
683,0,0,33.66,2.46571e-10,2.53838e-10,0.198892,0,13.66,9344,2.04044,1
684,0,0,33.68,2.48851e-10,2.56178e-10,0.198892,0,13.68,9344,2.034,1
685,0,0,33.7,2.51131e-10,2.58518e-10,0.198892,0,13.7,9344,2.02757,1
686,0,0,33.72,2.53411e-10,2.60857e-10,0.198892,0,13.72,9344,2.02113,1
687,0,0,33.74,2.5569e-10,2.63197e-10,0.198892,0,13.74,9344,2.01469,1
688,0,0,33.76,2.5797e-10,2.65536e-10,0.198892,0,13.76,9344,2.00826,1
689,0,0,33.78,2.6025e-10,2.67876e-10,0.198892,0,13.78,9344,2.00182,1
690,0,0,33.8,2.6253e-10,2.70216e-10,0.198892,0,13.8,9344,1.99538,1
691,0,0,33.82,2.64809e-10,2.72556e-10,0.198892,0,13.82,9344,1.98895,1
692,0,0,33.84,2.67089e-10,2.74896e-10,0.198892,0,13.84,9344,1.98251,1
693,0,0,33.86,2.69369e-10,2.77235e-10,0.198892,0,13.86,9344,1.97607,1
694,0,0,33.88,2.71649e-10,2.79575e-10,0.198892,0,13.88,9344,1.96964,1
695,0,0,33.9,2.73929e-10,2.81915e-10,0.198892,0,13.9,9344,1.9632,1
696,0,0,33.92,2.76208e-10,2.84254e-10,0.198892,0,13.92,9344,1.95676,1
697,0,0,33.94,2.78488e-10,2.86594e-10,0.198892,0,13.94,9344,1.95033,1
698,0,0,33.96,2.80768e-10,2.88934e-10,0.198892,0,13.96,9344,1.94389,1
699,0,0,33.98,2.83048e-10,2.91274e-10,0.198892,0,13.98,9344,1.93745,1
700,0,0,34,2.85328e-10,2.93614e-10,0.198892,0,14,9344,1.93102,1
701,0,0,34.02,2.88239e-10,2.96598e-10,0.198892,0,14.02,9444,1.92458,1
702,0,0,34.04,2.91151e-10,2.99583e-10,0.198892,0,14.04,9444,1.91814,1
703,0,0,34.06,2.94062e-10,3.02568e-10,0.198892,0,14.06,9444,1.9117,1
704,0,0,34.08,2.96974e-10,3.05553e-10,0.198892,0,14.08,9444,1.90527,1
705,0,0,34.1,2.99884e-10,3.08537e-10,0.198892,0,14.1,9444,1.89883,1
706,0,0,34.12,3.02796e-10,3.11522e-10,0.198892,0,14.12,9444,1.8924,1
707,0,0,34.14,3.05707e-10,3.14507e-10,0.198892,0,14.14,9444,1.88596,1
708,0,0,34.16,3.08619e-10,3.17492e-10,0.198892,0,14.16,9444,1.87952,1
709,0,0,34.18,3.1153e-10,3.20476e-10,0.198892,0,14.18,9444,1.87308,1
710,0,0,34.2,3.14442e-10,3.23461e-10,0.198892,0,14.2,9444,1.86665,1
711,0,0,34.22,3.17353e-10,3.26446e-10,0.198892,0,14.22,9444,1.86021,1
712,0,0,34.24,3.20264e-10,3.29431e-10,0.198892,0,14.24,9444,1.85377,1
713,0,0,34.26,3.23175e-10,3.32415e-10,0.198892,0,14.26,9444,1.84734,1
714,0,0,34.28,3.26087e-10,3.354e-10,0.198892,0,14.28,9444,1.8409,1
715,0,0,34.3,3.28998e-10,3.38385e-10,0.198892,0,14.3,9444,1.83446,1
716,0,0,34.32,3.3191e-10,3.41369e-10,0.198892,0,14.32,9444,1.82803,1
717,0,0,34.34,3.34821e-10,3.44354e-10,0.198892,0,14.34,9444,1.82159,1
718,0,0,34.36,3.37732e-10,3.47339e-10,0.198892,0,14.36,9444,1.81515,1
719,0,0,34.38,3.40644e-10,3.50324e-10,0.198892,0,14.38,9444,1.80872,1
720,0,0,34.4,3.43555e-10,3.53309e-10,0.198892,0,14.4,9444,1.80228,1
721,0,0,34.42,3.46466e-10,3.56293e-10,0.198892,0,14.42,9444,1.79584,1
722,0,0,34.44,3.49378e-10,3.59278e-10,0.198892,0,14.44,9444,1.78941,1
723,0,0,34.46,3.52289e-10,3.62263e-10,0.198892,0,14.46,9444,1.78297,1
724,0,0,34.48,3.55201e-10,3.65247e-10,0.198892,0,14.48,9444,1.77653,1
725,0,0,34.5,3.58112e-10,3.68232e-10,0.198892,0,14.5,9444,1.7701,1
726,0,0,34.52,3.61023e-10,3.71217e-10,0.198892,0,14.52,9444,1.76366,1
727,0,0,34.54,3.63935e-10,3.74202e-10,0.198892,0,14.54,9444,1.75722,1
728,0,0,34.56,3.66846e-10,3.77187e-10,0.198892,0,14.56,9444,1.75079,1
729,0,0,34.58,3.69758e-10,3.80171e-10,0.198892,0,14.58,9444,1.74435,1
730,0,0,34.6,3.72669e-10,3.83156e-10,0.198892,0,14.6,9444,1.73791,1
731,0,0,34.62,3.7558e-10,3.8614e-10,0.198892,0,14.62,9444,1.73148,1
732,0,0,34.64,3.78491e-10,3.89125e-10,0.198892,0,14.64,9444,1.72504,1
733,0,0,34.66,3.81403e-10,3.9211e-10,0.198892,0,14.66,9444,1.7186,1
734,0,0,34.68,3.84314e-10,3.95095e-10,0.198892,0,14.68,9444,1.71217,1
735,0,0,34.7,3.87226e-10,3.9808e-10,0.198892,0,14.7,9444,1.70573,1
736,0,0,34.72,3.90137e-10,4.01065e-10,0.198892,0,14.72,9444,1.69929,1
737,0,0,34.74,3.93049e-10,4.04049e-10,0.198892,0,14.74,9444,1.69286,1
738,0,0,34.76,3.95959e-10,4.07034e-10,0.198892,0,14.76,9444,1.68642,1
739,0,0,34.78,3.98871e-10,4.10018e-10,0.198892,0,14.78,9444,1.67998,1
740,0,0,34.8,4.01782e-10,4.13003e-10,0.198892,0,14.8,9444,1.67355,1
741,0,0,34.82,4.04694e-10,4.15988e-10,0.198892,0,14.82,9444,1.66711,1
742,0,0,34.84,4.07605e-10,4.18973e-10,0.198892,0,14.84,9444,1.66067,1
743,0,0,34.86,4.10517e-10,4.21958e-10,0.198892,0,14.86,9444,1.65424,1
744,0,0,34.88,4.13428e-10,4.24942e-10,0.198892,0,14.88,9444,1.6478,1
745,0,0,34.9,4.1634e-10,4.27927e-10,0.198892,0,14.9,9444,1.64136,1
746,0,0,34.92,4.1925e-10,4.30912e-10,0.198892,0,14.92,9444,1.63493,1
747,0,0,34.94,4.22162e-10,4.33896e-10,0.198892,0,14.94,9444,1.62849,1
748,0,0,34.96,4.25073e-10,4.36881e-10,0.198892,0,14.96,9444,1.62205,1
749,0,0,34.98,4.27985e-10,4.39866e-10,0.198892,0,14.98,9444,1.61562,1
750,0,0,35,4.30896e-10,4.42851e-10,0.198892,0,15,9444,1.60918,1
751,0,0,35.02,4.34446e-10,4.46491e-10,0.198892,0,15.02,9544,1.60274,1
752,0,0,35.04,4.37996e-10,4.50131e-10,0.198892,0,15.04,9544,1.59631,1
753,0,0,35.06,4.41546e-10,4.53772e-10,0.198892,0,15.06,9544,1.58987,1
754,0,0,35.08,4.45097e-10,4.57412e-10,0.198892,0,15.08,9544,1.58343,1
755,0,0,35.1,4.48646e-10,4.61052e-10,0.198892,0,15.1,9544,1.577,1
756,0,0,35.12,4.52196e-10,4.64692e-10,0.198892,0,15.12,9544,1.57056,1
757,0,0,35.14,4.55746e-10,4.68333e-10,0.198892,0,15.14,9544,1.56412,1
758,0,0,35.16,4.59296e-10,4.71973e-10,0.198892,0,15.16,9544,1.55769,1
759,0,0,35.18,4.62847e-10,4.75613e-10,0.198892,0,15.18,9544,1.55125,1
760,0,0,35.2,4.66397e-10,4.79254e-10,0.198892,0,15.2,9544,1.54481,1
761,0,0,35.22,4.69947e-10,4.82894e-10,0.198892,0,15.22,9544,1.53837,1
762,0,0,35.24,4.73497e-10,4.86534e-10,0.198892,0,15.24,9544,1.53194,1
763,0,0,35.26,4.77046e-10,4.90174e-10,0.198892,0,15.26,9544,1.5255,1
764,0,0,35.28,4.80597e-10,4.93814e-10,0.198892,0,15.28,9544,1.51907,1
765,0,0,35.3,4.84147e-10,4.97455e-10,0.198892,0,15.3,9544,1.51263,1
766,0,0,35.32,4.87697e-10,5.01095e-10,0.198892,0,15.32,9544,1.50619,1
767,0,0,35.34,4.91247e-10,5.04735e-10,0.198892,0,15.34,9544,1.49975,1
768,0,0,35.36,4.94797e-10,5.08376e-10,0.198892,0,15.36,9544,1.49332,1
769,0,0,35.38,4.98347e-10,5.12016e-10,0.198892,0,15.38,9544,1.48688,1
770,0,0,35.4,5.01897e-10,5.15656e-10,0.198892,0,15.4,9544,1.48044,1
771,0,0,35.42,5.05447e-10,5.19296e-10,0.198892,0,15.42,9544,1.47401,1
772,0,0,35.44,5.08997e-10,5.22937e-10,0.198892,0,15.44,9544,1.46757,1
773,0,0,35.46,5.12547e-10,5.26577e-10,0.198892,0,15.46,9544,1.46113,1
774,0,0,35.48,5.16097e-10,5.30217e-10,0.198892,0,15.48,9544,1.4547,1
775,0,0,35.5,5.19647e-10,5.33858e-10,0.198892,0,15.5,9544,1.44826,1
776,0,0,35.52,5.23197e-10,5.37498e-10,0.198892,0,15.52,9544,1.44182,1
777,0,0,35.54,5.26748e-10,5.41138e-10,0.198892,0,15.54,9544,1.43539,1
778,0,0,35.56,5.30298e-10,5.44779e-10,0.198892,0,15.56,9544,1.42895,1
779,0,0,35.58,5.33848e-10,5.48419e-10,0.198892,0,15.58,9544,1.42251,1
780,0,0,35.6,5.37397e-10,5.52059e-10,0.198892,0,15.6,9544,1.41608,1
781,0,0,35.62,5.40947e-10,5.55699e-10,0.198892,0,15.62,9544,1.40964,1
782,0,0,35.64,5.44497e-10,5.59339e-10,0.198892,0,15.64,9544,1.4032,1
783,0,0,35.66,5.48048e-10,5.6298e-10,0.198892,0,15.66,9544,1.39677,1
784,0,0,35.68,5.51598e-10,5.6662e-10,0.198892,0,15.68,9544,1.39033,1
785,0,0,35.7,5.55148e-10,5.7026e-10,0.198892,0,15.7,9544,1.38389,1
786,0,0,35.72,5.58698e-10,5.73901e-10,0.198892,0,15.72,9544,1.37745,1
787,0,0,35.74,5.62248e-10,5.77541e-10,0.198892,0,15.74,9544,1.37102,1
788,0,0,35.76,5.65798e-10,5.81181e-10,0.198892,0,15.76,9544,1.36458,1
789,0,0,35.78,5.69348e-10,5.84821e-10,0.198892,0,15.78,9544,1.35815,1
790,0,0,35.8,5.72898e-10,5.88462e-10,0.198892,0,15.8,9544,1.35171,1
791,0,0,35.82,5.76448e-10,5.92102e-10,0.198892,0,15.82,9544,1.34527,1
792,0,0,35.84,5.79998e-10,5.95742e-10,0.198892,0,15.84,9544,1.33883,1
793,0,0,35.86,5.83548e-10,5.99383e-10,0.198892,0,15.86,9544,1.3324,1
794,0,0,35.88,5.87098e-10,6.03023e-10,0.198892,0,15.88,9544,1.32596,1
795,0,0,35.9,5.90648e-10,6.06663e-10,0.198892,0,15.9,9544,1.31952,1
796,0,0,35.92,5.94198e-10,6.10303e-10,0.198892,0,15.92,9544,1.31309,1
797,0,0,35.94,5.97748e-10,6.13943e-10,0.198892,0,15.94,9544,1.30665,1
798,0,0,35.96,6.01298e-10,6.17584e-10,0.198892,0,15.96,9544,1.30021,1
799,0,0,35.98,6.04848e-10,6.21224e-10,0.198892,0,15.98,9544,1.29378,1
800,0,0,36,6.08398e-10,6.24864e-10,0.198892,0,16,9544,1.28734,1
801,0,0,36.02,6.12256e-10,6.28809e-10,0.198892,0,16.02,9644,1.2809,1
802,0,0,36.04,6.16114e-10,6.32754e-10,0.198892,0,16.04,9644,1.27447,1
803,0,0,36.06,6.19971e-10,6.36698e-10,0.198892,0,16.06,9644,1.26803,1
804,0,0,36.08,6.23829e-10,6.40643e-10,0.198892,0,16.08,9644,1.26159,1
805,0,0,36.1,6.27686e-10,6.44587e-10,0.198892,0,16.1,9644,1.25516,1
806,0,0,36.12,6.31544e-10,6.48532e-10,0.198892,0,16.12,9644,1.24872,1
807,0,0,36.14,6.35401e-10,6.52476e-10,0.198892,0,16.14,9644,1.24228,1
808,0,0,36.16,6.39259e-10,6.56421e-10,0.198892,0,16.16,9644,1.23585,1
809,0,0,36.18,6.43117e-10,6.60366e-10,0.198892,0,16.18,9644,1.22941,1
810,0,0,36.2,6.46974e-10,6.6431e-10,0.198892,0,16.2,9644,1.22297,1
811,0,0,36.22,6.50832e-10,6.68255e-10,0.198892,0,16.22,9644,1.21654,1
812,0,0,36.24,6.5469e-10,6.72199e-10,0.198892,0,16.24,9644,1.2101,1
813,0,0,36.26,6.58547e-10,6.76143e-10,0.198892,0,16.26,9644,1.20366,1
814,0,0,36.28,6.62404e-10,6.80088e-10,0.198892,0,16.28,9644,1.19723,1
815,0,0,36.3,6.66262e-10,6.84033e-10,0.198892,0,16.3,9644,1.19079,1
816,0,0,36.32,6.7012e-10,6.87977e-10,0.198892,0,16.32,9644,1.18435,1
817,0,0,36.34,6.73978e-10,6.91922e-10,0.198892,0,16.34,9644,1.17792,1
818,0,0,36.36,6.77835e-10,6.95867e-10,0.198892,0,16.36,9644,1.17148,1
819,0,0,36.38,6.81693e-10,6.99811e-10,0.198892,0,16.38,9644,1.16504,1
820,0,0,36.4,6.85551e-10,7.03756e-10,0.198892,0,16.4,9644,1.15861,1
821,0,0,36.42,6.89408e-10,7.077e-10,0.198892,0,16.42,9644,1.15217,1
822,0,0,36.44,6.93265e-10,7.11645e-10,0.198892,0,16.44,9644,1.14573,1
823,0,0,36.46,6.97123e-10,7.15589e-10,0.198892,0,16.46,9644,1.1393,1
824,0,0,36.48,7.00981e-10,7.19534e-10,0.198892,0,16.48,9644,1.13286,1
825,0,0,36.5,7.04838e-10,7.23478e-10,0.198892,0,16.5,9644,1.12642,1
826,0,0,36.52,7.08696e-10,7.27423e-10,0.198892,0,16.52,9644,1.11999,1
827,0,0,36.54,7.12554e-10,7.31368e-10,0.198892,0,16.54,9644,1.11355,1
828,0,0,36.56,7.16411e-10,7.35312e-10,0.198892,0,16.56,9644,1.10711,1
829,0,0,36.58,7.20269e-10,7.39257e-10,0.198892,0,16.58,9644,1.10067,1
830,0,0,36.6,7.24126e-10,7.43201e-10,0.198892,0,16.6,9644,1.09424,1
831,0,0,36.62,7.27984e-10,7.47146e-10,0.198892,0,16.62,9644,1.0878,1
832,0,0,36.64,7.31841e-10,7.5109e-10,0.198892,0,16.64,9644,1.08137,1
833,0,0,36.66,7.35699e-10,7.55035e-10,0.198892,0,16.66,9644,1.07493,1
834,0,0,36.68,7.39557e-10,7.5898e-10,0.198892,0,16.68,9644,1.06849,1
835,0,0,36.7,7.43414e-10,7.62924e-10,0.198892,0,16.7,9644,1.06205,1
836,0,0,36.72,7.47272e-10,7.66869e-10,0.198892,0,16.72,9644,1.05562,1
837,0,0,36.74,7.5113e-10,7.70814e-10,0.198892,0,16.74,9644,1.04918,1
838,0,0,36.76,7.54987e-10,7.74758e-10,0.198892,0,16.76,9644,1.04275,1
839,0,0,36.78,7.58844e-10,7.78702e-10,0.198892,0,16.78,9644,1.03631,1
840,0,0,36.8,7.62702e-10,7.82647e-10,0.198892,0,16.8,9644,1.02987,1
841,0,0,36.82,7.6656e-10,7.86591e-10,0.198892,0,16.82,9644,1.02343,1
842,0,0,36.84,7.70417e-10,7.90536e-10,0.198892,0,16.84,9644,1.017,1
843,0,0,36.86,7.74275e-10,7.94481e-10,0.198892,0,16.86,9644,1.01056,1
844,0,0,36.88,7.78133e-10,7.98425e-10,0.198892,0,16.88,9644,1.00412,1
845,0,0,36.9,7.8199e-10,8.0237e-10,0.198892,0,16.9,9644,0.997688,1
846,0,0,36.92,7.85847e-10,8.06314e-10,0.198892,0,16.92,9644,0.991252,1
847,0,0,36.94,7.89705e-10,8.10259e-10,0.198892,0,16.94,9644,0.984815,1
848,0,0,36.96,7.93563e-10,8.14203e-10,0.198892,0,16.96,9644,0.978378,1
849,0,0,36.98,7.9742e-10,8.18148e-10,0.198892,0,16.98,9644,0.971941,1
850,0,0,37,8.01278e-10,8.22093e-10,0.198892,0,17,9644,0.965505,1
851,0,0,37.02,8.05636e-10,8.26519e-10,0.198892,0,17.02,9744,0.959068,1
852,0,0,37.04,8.09995e-10,8.30944e-10,0.198892,0,17.04,9744,0.952631,1
853,0,0,37.06,8.14353e-10,8.3537e-10,0.198892,0,17.06,9744,0.946194,1
854,0,0,37.08,8.18711e-10,8.39796e-10,0.198892,0,17.08,9744,0.939757,1
855,0,0,37.1,8.23069e-10,8.44221e-10,0.198892,0,17.1,9744,0.933322,1
856,0,0,37.12,8.27427e-10,8.48647e-10,0.198892,0,17.12,9744,0.926885,1
857,0,0,37.14,8.31785e-10,8.53073e-10,0.198892,0,17.14,9744,0.920448,1
858,0,0,37.16,8.36143e-10,8.57499e-10,0.198892,0,17.16,9744,0.914011,1
859,0,0,37.18,8.40502e-10,8.61925e-10,0.198892,0,17.18,9744,0.907574,1
860,0,0,37.2,8.4486e-10,8.66351e-10,0.198892,0,17.2,9744,0.901138,1
861,0,0,37.22,8.49218e-10,8.70776e-10,0.198892,0,17.22,9744,0.894701,1
862,0,0,37.24,8.53577e-10,8.75202e-10,0.198892,0,17.24,9744,0.888264,1
863,0,0,37.26,8.57934e-10,8.79627e-10,0.198892,0,17.26,9744,0.881828,1
864,0,0,37.28,8.62292e-10,8.84053e-10,0.198892,0,17.28,9744,0.875392,1
865,0,0,37.3,8.66651e-10,8.88479e-10,0.198892,0,17.3,9744,0.868955,1
866,0,0,37.32,8.71009e-10,8.92905e-10,0.198892,0,17.32,9744,0.862518,1
867,0,0,37.34,8.75367e-10,8.97331e-10,0.198892,0,17.34,9744,0.856081,1
868,0,0,37.36,8.79725e-10,9.01757e-10,0.198892,0,17.36,9744,0.849644,1
869,0,0,37.38,8.84084e-10,9.06183e-10,0.198892,0,17.38,9744,0.843207,1
870,0,0,37.4,8.88442e-10,9.10608e-10,0.198892,0,17.4,9744,0.836771,1
871,0,0,37.42,8.92799e-10,9.15034e-10,0.198892,0,17.42,9744,0.830335,1
872,0,0,37.44,8.97158e-10,9.19459e-10,0.198892,0,17.44,9744,0.823898,1
873,0,0,37.46,9.01516e-10,9.23885e-10,0.198892,0,17.46,9744,0.817461,1
874,0,0,37.48,9.05874e-10,9.28311e-10,0.198892,0,17.48,9744,0.811025,1
875,0,0,37.5,9.10232e-10,9.32737e-10,0.198892,0,17.5,9744,0.804588,1
876,0,0,37.52,9.14591e-10,9.37163e-10,0.198892,0,17.52,9744,0.798151,1
877,0,0,37.54,9.18949e-10,9.41589e-10,0.198892,0,17.54,9744,0.791714,1
878,0,0,37.56,9.23307e-10,9.46015e-10,0.198892,0,17.56,9744,0.785277,1
879,0,0,37.58,9.27665e-10,9.50441e-10,0.198892,0,17.58,9744,0.77884,1
880,0,0,37.6,9.32023e-10,9.54866e-10,0.198892,0,17.6,9744,0.772405,1
881,0,0,37.62,9.36381e-10,9.59292e-10,0.198892,0,17.62,9744,0.765968,1
882,0,0,37.64,9.40739e-10,9.63717e-10,0.198892,0,17.64,9744,0.759531,1
883,0,0,37.66,9.45098e-10,9.68143e-10,0.198892,0,17.66,9744,0.753094,1
884,0,0,37.68,9.49456e-10,9.72569e-10,0.198892,0,17.68,9744,0.746658,1
885,0,0,37.7,9.53814e-10,9.76995e-10,0.198892,0,17.7,9744,0.740221,1
886,0,0,37.72,9.58173e-10,9.81421e-10,0.198892,0,17.72,9744,0.733784,1
887,0,0,37.74,9.62531e-10,9.85847e-10,0.198892,0,17.74,9744,0.727347,1
888,0,0,37.76,9.66888e-10,9.90272e-10,0.198892,0,17.76,9744,0.720912,1
889,0,0,37.78,9.71247e-10,9.94698e-10,0.198892,0,17.78,9744,0.714475,1
890,0,0,37.8,9.75605e-10,9.99124e-10,0.198892,0,17.8,9744,0.708038,1
891,0,0,37.82,9.79963e-10,1.00355e-09,0.198892,0,17.82,9744,0.701601,1
892,0,0,37.84,9.84321e-10,1.00798e-09,0.198892,0,17.84,9744,0.695164,1
893,0,0,37.86,9.8868e-10,1.0124e-09,0.198892,0,17.86,9744,0.688727,1
894,0,0,37.88,9.93038e-10,1.01683e-09,0.198892,0,17.88,9744,0.682291,1
895,0,0,37.9,9.97396e-10,1.02125e-09,0.198892,0,17.9,9744,0.675854,1
896,0,0,37.92,1.00175e-09,1.02568e-09,0.198892,0,17.92,9744,0.669418,1
897,0,0,37.94,1.00611e-09,1.0301e-09,0.198892,0,17.94,9744,0.662981,1
898,0,0,37.96,1.01047e-09,1.03453e-09,0.198892,0,17.96,9744,0.656545,1
899,0,0,37.98,1.01483e-09,1.03896e-09,0.198892,0,17.98,9744,0.650108,1
900,0,0,38,1.01919e-09,1.04338e-09,0.198892,0,18,9744,0.643671,1
901,0,0,38.02,1.02009e-09,1.04429e-09,0.198892,0,18.02,9844,0.637234,1
902,0,0,38.04,1.021e-09,1.0452e-09,0.198892,0,18.04,9844,0.630797,1
903,0,0,38.06,1.0219e-09,1.04611e-09,0.198892,0,18.06,9844,0.62436,1
904,0,0,38.08,1.02281e-09,1.04702e-09,0.198892,0,18.08,9844,0.617924,1
905,0,0,38.1,1.02372e-09,1.04793e-09,0.198892,0,18.1,9844,0.611488,1
906,0,0,38.12,1.02462e-09,1.04884e-09,0.198892,0,18.12,9844,0.605051,1
907,0,0,38.14,1.02553e-09,1.04975e-09,0.198892,0,18.14,9844,0.598614,1
908,0,0,38.16,1.02643e-09,1.05066e-09,0.198892,0,18.16,9844,0.592177,1
909,0,0,38.18,1.02734e-09,1.05157e-09,0.198892,0,18.18,9844,0.585741,1
910,0,0,38.2,1.02825e-09,1.05248e-09,0.198892,0,18.2,9844,0.579304,1
911,0,0,38.22,1.02915e-09,1.05339e-09,0.198892,0,18.22,9844,0.572867,1
912,0,0,38.24,1.03006e-09,1.0543e-09,0.198892,0,18.24,9844,0.56643,1
913,0,0,38.26,1.03096e-09,1.05521e-09,0.198892,0,18.26,9844,0.559994,1
914,0,0,38.28,1.03187e-09,1.05612e-09,0.198892,0,18.28,9844,0.553557,1
915,0,0,38.3,1.03277e-09,1.05703e-09,0.198892,0,18.3,9844,0.547121,1
916,0,0,38.32,1.03368e-09,1.05794e-09,0.198892,0,18.32,9844,0.540684,1
917,0,0,38.34,1.03459e-09,1.05885e-09,0.198892,0,18.34,9844,0.534247,1
918,0,0,38.36,1.03549e-09,1.05976e-09,0.198892,0,18.36,9844,0.52781,1
919,0,0,38.38,1.0364e-09,1.06067e-09,0.198892,0,18.38,9844,0.521373,1
920,0,0,38.4,1.0373e-09,1.06158e-09,0.198892,0,18.4,9844,0.514936,1
921,0,0,38.42,1.03821e-09,1.06249e-09,0.198892,0,18.42,9844,0.508501,1
922,0,0,38.44,1.03912e-09,1.0634e-09,0.198892,0,18.44,9844,0.502064,1
923,0,0,38.46,1.04002e-09,1.06431e-09,0.198892,0,18.46,9844,0.495627,1
924,0,0,38.48,1.04093e-09,1.06522e-09,0.198892,0,18.48,9844,0.48919,1
925,0,0,38.5,1.04183e-09,1.06612e-09,0.198892,0,18.5,9844,0.482753,1
926,0,0,38.52,1.04274e-09,1.06703e-09,0.198892,0,18.52,9844,0.476316,1
927,0,0,38.54,1.04365e-09,1.06794e-09,0.198892,0,18.54,9844,0.46988,1
928,0,0,38.56,1.04455e-09,1.06885e-09,0.198892,0,18.56,9844,0.463443,1
929,0,0,38.58,1.04546e-09,1.06976e-09,0.198892,0,18.58,9844,0.457006,1
930,0,0,38.6,1.04636e-09,1.07067e-09,0.198892,0,18.6,9844,0.45057,1
931,0,0,38.62,1.04727e-09,1.07158e-09,0.198892,0,18.62,9844,0.444133,1
932,0,0,38.64,1.04817e-09,1.07249e-09,0.198892,0,18.64,9844,0.437696,1
933,0,0,38.66,1.04908e-09,1.0734e-09,0.198892,0,18.66,9844,0.43126,1
934,0,0,38.68,1.04999e-09,1.07431e-09,0.198892,0,18.68,9844,0.424823,1
935,0,0,38.7,1.05089e-09,1.07522e-09,0.198892,0,18.7,9844,0.418386,1
936,0,0,38.72,1.0518e-09,1.07613e-09,0.198892,0,18.72,9844,0.411949,1
937,0,0,38.74,1.0527e-09,1.07704e-09,0.198892,0,18.74,9844,0.405512,1
938,0,0,38.76,1.05361e-09,1.07795e-09,0.198892,0,18.76,9844,0.399077,1
939,0,0,38.78,1.05452e-09,1.07886e-09,0.198892,0,18.78,9844,0.39264,1
940,0,0,38.8,1.05542e-09,1.07977e-09,0.198892,0,18.8,9844,0.386203,1
941,0,0,38.82,1.05633e-09,1.08068e-09,0.198892,0,18.82,9844,0.379766,1
942,0,0,38.84,1.05723e-09,1.08159e-09,0.198892,0,18.84,9844,0.373329,1
943,0,0,38.86,1.05814e-09,1.0825e-09,0.198892,0,18.86,9844,0.366892,1
944,0,0,38.88,1.05905e-09,1.08341e-09,0.198892,0,18.88,9844,0.360455,1
945,0,0,38.9,1.05995e-09,1.08432e-09,0.198892,0,18.9,9844,0.354019,1
946,0,0,38.92,1.06086e-09,1.08523e-09,0.198892,0,18.92,9844,0.347583,1
947,0,0,38.94,1.06176e-09,1.08614e-09,0.198892,0,18.94,9844,0.341146,1
948,0,0,38.96,1.06267e-09,1.08705e-09,0.198892,0,18.96,9844,0.334709,1
949,0,0,38.98,1.06357e-09,1.08796e-09,0.198892,0,18.98,9844,0.328272,1
950,0,0,39,1.06448e-09,1.08887e-09,0.198892,0,19,9844,0.321835,1
951,0,0,39.02,1.06293e-09,1.08729e-09,0.198892,0,19.02,9944,0.315399,1
952,0,0,39.04,1.06137e-09,1.08571e-09,0.198892,0,19.04,9944,0.308962,1
953,0,0,39.06,1.05982e-09,1.08413e-09,0.198892,0,19.06,9944,0.302525,1
954,0,0,39.08,1.05826e-09,1.08255e-09,0.198892,0,19.08,9944,0.296088,1
955,0,0,39.1,1.05671e-09,1.08097e-09,0.198892,0,19.1,9944,0.289652,1
956,0,0,39.12,1.05515e-09,1.07939e-09,0.198892,0,19.12,9944,0.283216,1
957,0,0,39.14,1.0536e-09,1.07781e-09,0.198892,0,19.14,9944,0.276779,1
958,0,0,39.16,1.05204e-09,1.07623e-09,0.198892,0,19.16,9944,0.270342,1
959,0,0,39.18,1.05049e-09,1.07465e-09,0.198892,0,19.18,9944,0.263905,1
960,0,0,39.2,1.04893e-09,1.07307e-09,0.198892,0,19.2,9944,0.257468,1
961,0,0,39.22,1.04738e-09,1.07149e-09,0.198892,0,19.22,9944,0.251031,1
962,0,0,39.24,1.04582e-09,1.06991e-09,0.198892,0,19.24,9944,0.244594,1
963,0,0,39.26,1.04427e-09,1.06833e-09,0.198892,0,19.26,9944,0.238159,1
964,0,0,39.28,1.04272e-09,1.06675e-09,0.198892,0,19.28,9944,0.231722,1
965,0,0,39.3,1.04116e-09,1.06516e-09,0.198892,0,19.3,9944,0.225285,1
966,0,0,39.32,1.03961e-09,1.06358e-09,0.198892,0,19.32,9944,0.218848,1
967,0,0,39.34,1.03805e-09,1.062e-09,0.198892,0,19.34,9944,0.212411,1
968,0,0,39.36,1.0365e-09,1.06042e-09,0.198892,0,19.36,9944,0.205975,1
969,0,0,39.38,1.03494e-09,1.05884e-09,0.198892,0,19.38,9944,0.199538,1
970,0,0,39.4,1.03339e-09,1.05726e-09,0.198892,0,19.4,9944,0.193101,1
971,0,0,39.42,1.03183e-09,1.05568e-09,0.198892,0,19.42,9944,0.186665,1
972,0,0,39.44,1.03028e-09,1.0541e-09,0.198892,0,19.44,9944,0.180228,1
973,0,0,39.46,1.02872e-09,1.05252e-09,0.198892,0,19.46,9944,0.173791,1
974,0,0,39.48,1.02717e-09,1.05094e-09,0.198892,0,19.48,9944,0.167355,1
975,0,0,39.5,1.02561e-09,1.04936e-09,0.198892,0,19.5,9944,0.160918,1
976,0,0,39.52,1.02406e-09,1.04778e-09,0.198892,0,19.52,9944,0.154481,1
977,0,0,39.54,1.02251e-09,1.0462e-09,0.198892,0,19.54,9944,0.148044,1
978,0,0,39.56,1.02095e-09,1.04462e-09,0.198892,0,19.56,9944,0.141607,1
979,0,0,39.58,1.0194e-09,1.04304e-09,0.198892,0,19.58,9944,0.13517,1
980,0,0,39.6,1.01784e-09,1.04146e-09,0.198892,0,19.6,9944,0.128735,1
981,0,0,39.62,1.01629e-09,1.03988e-09,0.198892,0,19.62,9944,0.122298,1
982,0,0,39.64,1.01473e-09,1.0383e-09,0.198892,0,19.64,9944,0.115861,1
983,0,0,39.66,1.01318e-09,1.03672e-09,0.198892,0,19.66,9944,0.109424,1
984,0,0,39.68,1.01162e-09,1.03514e-09,0.198892,0,19.68,9944,0.102987,1
985,0,0,39.7,1.01007e-09,1.03356e-09,0.198892,0,19.7,9944,0.0965504,1
986,0,0,39.72,1.00851e-09,1.03198e-09,0.198892,0,19.72,9944,0.0901135,1
987,0,0,39.74,1.00696e-09,1.0304e-09,0.198892,0,19.74,9944,0.0836767,1
988,0,0,39.76,1.0054e-09,1.02882e-09,0.198892,0,19.76,9944,0.0772411,1
989,0,0,39.78,1.00385e-09,1.02724e-09,0.198892,0,19.78,9944,0.0708042,1
990,0,0,39.8,1.0023e-09,1.02566e-09,0.198892,0,19.8,9944,0.0643673,1
991,0,0,39.82,1.00074e-09,1.02408e-09,0.198892,0,19.82,9944,0.0579305,1
992,0,0,39.84,9.99186e-10,1.0225e-09,0.198892,0,19.84,9944,0.0514936,1
993,0,0,39.86,9.97631e-10,1.02092e-09,0.198892,0,19.86,9944,0.0450568,1
994,0,0,39.88,9.96077e-10,1.01934e-09,0.198892,0,19.88,9944,0.0386199,1
995,0,0,39.9,9.94522e-10,1.01776e-09,0.198892,0,19.9,9944,0.0321831,1
996,0,0,39.92,9.92968e-10,1.01618e-09,0.198892,0,19.92,9944,0.0257474,1
997,0,0,39.94,9.91413e-10,1.0146e-09,0.198892,0,19.94,9944,0.0193106,1
998,0,0,39.96,9.89858e-10,1.01302e-09,0.198892,0,19.96,9944,0.0128737,1
999,0,0,39.98,9.88304e-10,1.01144e-09,0.198892,0,19.98,9944,0.00643686,1
1000,0,0,40,9.86749e-10,1.00986e-09,0.198892,0,20,9944,0,1
