0,0,0,0,0,0,0.1,0,0,8044,12.1567,1
1,0,0,0.02,-1.50056e-10,-1.50056e-10,0.100442,0,0.02,8044,12.1564,1
2,0,0,0.04,-3.00112e-10,-3.00112e-10,0.100883,0,0.04,8044,12.1561,1
3,0,0,0.06,-4.50168e-10,-4.50168e-10,0.101325,0,0.06,8044,12.1557,1
4,0,0,0.08,-6.00224e-10,-6.00224e-10,0.101767,0,0.08,8044,12.1554,1
5,0,0,0.1,-7.5028e-10,-7.5028e-10,0.102208,0,0.1,8044,12.1551,1
6,0,0,0.12,-9.00336e-10,-9.00336e-10,0.10265,0,0.12,8044,12.1548,1
7,0,0,0.14,-1.05039e-09,-1.05039e-09,0.103092,0,0.14,8044,12.1545,1
8,0,0,0.16,-1.20045e-09,-1.20045e-09,0.103533,0,0.16,8044,12.1542,1
9,0,0,0.18,-1.3505e-09,-1.3505e-09,0.103975,0,0.18,8044,12.1538,1
10,0,0,0.2,-1.50056e-09,-1.50056e-09,0.104417,0,0.2,8044,12.1535,1
11,0,0,0.22,-1.65062e-09,-1.65062e-09,0.104858,0,0.22,8044,12.1532,1
12,0,0,0.24,-1.80067e-09,-1.80067e-09,0.1053,0,0.24,8044,12.1529,1
13,0,0,0.26,-1.95073e-09,-1.95073e-09,0.105742,0,0.26,8044,12.1526,1
14,0,0,0.28,-2.10078e-09,-2.10078e-09,0.106183,0,0.28,8044,12.1523,1
15,0,0,0.3,-2.25084e-09,-2.25084e-09,0.106625,0,0.3,8044,12.1519,1
16,0,0,0.32,-2.4009e-09,-2.4009e-09,0.107067,0,0.32,8044,12.1516,1
17,0,0,0.34,-2.55095e-09,-2.55095e-09,0.107508,0,0.34,8044,12.1513,1
18,0,0,0.36,-2.70101e-09,-2.70101e-09,0.10795,0,0.36,8044,12.151,1
19,0,0,0.38,-2.85106e-09,-2.85106e-09,0.108392,0,0.38,8044,12.1507,1
20,0,0,0.4,-3.00112e-09,-3.00112e-09,0.108833,0,0.4,8044,12.1504,1
21,0,0,0.42,-3.15118e-09,-3.15118e-09,0.109275,0,0.42,8044,12.15,1
22,0,0,0.44,-3.30123e-09,-3.30123e-09,0.109717,0,0.44,8044,12.1497,1
23,0,0,0.46,-3.45129e-09,-3.45129e-09,0.110158,0,0.46,8044,12.1494,1
24,0,0,0.48,-3.60134e-09,-3.60134e-09,0.1106,0,0.48,8044,12.1491,1
25,0,0,0.5,-3.7514e-09,-3.7514e-09,0.111042,0,0.5,8044,12.1488,1
26,0,0,0.52,-3.90146e-09,-3.90146e-09,0.111483,0,0.52,8044,12.1485,1
27,0,0,0.54,-4.05151e-09,-4.05151e-09,0.111925,0,0.54,8044,12.1481,1
28,0,0,0.56,-4.20157e-09,-4.20157e-09,0.112367,0,0.56,8044,12.1478,1
29,0,0,0.58,-4.35162e-09,-4.35162e-09,0.112808,0,0.58,8044,12.1475,1
30,0,0,0.6,-4.50168e-09,-4.50168e-09,0.11325,0,0.6,8044,12.1472,1
31,0,0,0.62,-4.65174e-09,-4.65174e-09,0.113692,0,0.62,8044,12.1469,1
32,0,0,0.64,-4.80179e-09,-4.80179e-09,0.114133,0,0.64,8044,12.1466,1
33,0,0,0.66,-4.95185e-09,-4.95185e-09,0.114575,0,0.66,8044,12.1462,1
34,0,0,0.68,-5.10191e-09,-5.10191e-09,0.115017,0,0.68,8044,12.1459,1
35,0,0,0.7,-5.25196e-09,-5.25196e-09,0.115458,0,0.7,8044,12.1456,1
36,0,0,0.72,-5.40202e-09,-5.40202e-09,0.1159,0,0.72,8044,12.1453,1
37,0,0,0.74,-5.55207e-09,-5.55207e-09,0.116342,0,0.74,8044,12.145,1
38,0,0,0.76,-5.70213e-09,-5.70213e-09,0.116783,0,0.76,8044,12.1447,1
39,0,0,0.78,-5.85218e-09,-5.85218e-09,0.117225,0,0.78,8044,12.1443,1
40,0,0,0.8,-6.00224e-09,-6.00224e-09,0.117667,0,0.8,8044,12.144,1
41,0,0,0.82,-6.1523e-09,-6.1523e-09,0.118108,0,0.82,8044,12.1437,1
42,0,0,0.84,-6.30235e-09,-6.30235e-09,0.11855,0,0.84,8044,12.1434,1
43,0,0,0.86,-6.45241e-09,-6.45241e-09,0.118992,0,0.86,8044,12.1431,1
44,0,0,0.88,-6.60247e-09,-6.60247e-09,0.119433,0,0.88,8044,12.1428,1
45,0,0,0.9,-6.75252e-09,-6.75252e-09,0.119875,0,0.9,8044,12.1424,1
46,0,0,0.92,-6.90258e-09,-6.90258e-09,0.120317,0,0.92,8044,12.1421,1
47,0,0,0.94,-7.05263e-09,-7.05263e-09,0.120758,0,0.94,8044,12.1418,1
48,0,0,0.96,-7.20269e-09,-7.20269e-09,0.1212,0,0.96,8044,12.1415,1
49,0,0,0.98,-7.35275e-09,-7.35275e-09,0.121642,0,0.98,8044,12.1412,1
50,0,0,1,-7.5028e-09,-7.5028e-09,0.122084,0,1,8044,12.1409,1
51,0,0,1.02,-7.5528e-09,-7.5528e-09,0.12264,0,1.02,8144,12.1398,1
52,0,0,1.04,-7.6028e-09,-7.6028e-09,0.123196,0,1.04,8144,12.1387,1
53,0,0,1.06,-7.6528e-09,-7.6528e-09,0.123752,0,1.06,8144,12.1377,1
54,0,0,1.08,-7.7028e-09,-7.7028e-09,0.124308,0,1.08,8144,12.1366,1
55,0,0,1.1,-7.7528e-09,-7.7528e-09,0.124865,0,1.1,8144,12.1355,1
56,0,0,1.12,-7.8028e-09,-7.8028e-09,0.125421,0,1.12,8144,12.1345,1
57,0,0,1.14,-7.8528e-09,-7.8528e-09,0.125977,0,1.14,8144,12.1334,1
58,0,0,1.16,-7.9028e-09,-7.9028e-09,0.126533,0,1.16,8144,12.1323,1
59,0,0,1.18,-7.9528e-09,-7.9528e-09,0.12709,0,1.18,8144,12.1313,1
60,0,0,1.2,-8.0028e-09,-8.0028e-09,0.127646,0,1.2,8144,12.1302,1
61,0,0,1.22,-8.0528e-09,-8.0528e-09,0.128202,0,1.22,8144,12.1291,1
62,0,0,1.24,-8.1028e-09,-8.1028e-09,0.128758,0,1.24,8144,12.1281,1
63,0,0,1.26,-8.1528e-09,-8.1528e-09,0.129315,0,1.26,8144,12.127,1
64,0,0,1.28,-8.2028e-09,-8.2028e-09,0.129871,0,1.28,8144,12.126,1
65,0,0,1.3,-8.2528e-09,-8.2528e-09,0.130427,0,1.3,8144,12.1249,1
66,0,0,1.32,-8.3028e-09,-8.3028e-09,0.130983,0,1.32,8144,12.1238,1
67,0,0,1.34,-8.3528e-09,-8.3528e-09,0.13154,0,1.34,8144,12.1228,1
68,0,0,1.36,-8.4028e-09,-8.4028e-09,0.132096,0,1.36,8144,12.1217,1
69,0,0,1.38,-8.4528e-09,-8.4528e-09,0.132652,0,1.38,8144,12.1206,1
70,0,0,1.4,-8.5028e-09,-8.5028e-09,0.133208,0,1.4,8144,12.1196,1
71,0,0,1.42,-8.5528e-09,-8.5528e-09,0.133765,0,1.42,8144,12.1185,1
72,0,0,1.44,-8.6028e-09,-8.6028e-09,0.134321,0,1.44,8144,12.1174,1
73,0,0,1.46,-8.6528e-09,-8.6528e-09,0.134877,0,1.46,8144,12.1164,1
74,0,0,1.48,-8.7028e-09,-8.7028e-09,0.135433,0,1.48,8144,12.1153,1
75,0,0,1.5,-8.7528e-09,-8.7528e-09,0.13599,0,1.5,8144,12.1143,1
76,0,0,1.52,-8.8028e-09,-8.8028e-09,0.136546,0,1.52,8144,12.1132,1
77,0,0,1.54,-8.8528e-09,-8.8528e-09,0.137102,0,1.54,8144,12.1121,1
78,0,0,1.56,-8.9028e-09,-8.9028e-09,0.137658,0,1.56,8144,12.1111,1
79,0,0,1.58,-8.9528e-09,-8.9528e-09,0.138214,0,1.58,8144,12.11,1
80,0,0,1.6,-9.0028e-09,-9.0028e-09,0.138771,0,1.6,8144,12.1089,1
81,0,0,1.62,-9.0528e-09,-9.0528e-09,0.139327,0,1.62,8144,12.1079,1
82,0,0,1.64,-9.1028e-09,-9.1028e-09,0.139883,0,1.64,8144,12.1068,1
83,0,0,1.66,-9.1528e-09,-9.1528e-09,0.140439,0,1.66,8144,12.1057,1
84,0,0,1.68,-9.2028e-09,-9.2028e-09,0.140996,0,1.68,8144,12.1047,1
85,0,0,1.7,-9.2528e-09,-9.2528e-09,0.141552,0,1.7,8144,12.1036,1
86,0,0,1.72,-9.3028e-09,-9.3028e-09,0.142108,0,1.72,8144,12.1025,1
87,0,0,1.74,-9.3528e-09,-9.3528e-09,0.142664,0,1.74,8144,12.1015,1
88,0,0,1.76,-9.4028e-09,-9.4028e-09,0.143221,0,1.76,8144,12.1004,1
89,0,0,1.78,-9.4528e-09,-9.4528e-09,0.143777,0,1.78,8144,12.0994,1
90,0,0,1.8,-9.5028e-09,-9.5028e-09,0.144333,0,1.8,8144,12.0983,1
91,0,0,1.82,-9.5528e-09,-9.5528e-09,0.144889,0,1.82,8144,12.0972,1
92,0,0,1.84,-9.6028e-09,-9.6028e-09,0.145446,0,1.84,8144,12.0962,1
93,0,0,1.86,-9.6528e-09,-9.6528e-09,0.146002,0,1.86,8144,12.0951,1
94,0,0,1.88,-9.7028e-09,-9.7028e-09,0.146558,0,1.88,8144,12.094,1
95,0,0,1.9,-9.7528e-09,-9.7528e-09,0.147114,0,1.9,8144,12.093,1
96,0,0,1.92,-9.8028e-09,-9.8028e-09,0.147671,0,1.92,8144,12.0919,1
97,0,0,1.94,-9.8528e-09,-9.8528e-09,0.148227,0,1.94,8144,12.0908,1
98,0,0,1.96,-9.9028e-09,-9.9028e-09,0.148783,0,1.96,8144,12.0898,1
99,0,0,1.98,-9.9528e-09,-9.9528e-09,0.149339,0,1.98,8144,12.0887,1
100,0,0,2,-1.00028e-08,-1.00028e-08,0.149896,0,2,8144,12.0877,1
101,0,0,2.02,-9.95278e-09,-9.95278e-09,0.150332,0,2.02,8244,12.084,1
102,0,0,2.04,-9.90277e-09,-9.90277e-09,0.150769,0,2.04,8244,12.0803,1
103,0,0,2.06,-9.85275e-09,-9.85275e-09,0.151205,0,2.06,8244,12.0766,1
104,0,0,2.08,-9.80274e-09,-9.80274e-09,0.151642,0,2.08,8244,12.0729,1
105,0,0,2.1,-9.75272e-09,-9.75272e-09,0.152079,0,2.1,8244,12.0692,1
106,0,0,2.12,-9.7027e-09,-9.7027e-09,0.152515,0,2.12,8244,12.0656,1
107,0,0,2.14,-9.65269e-09,-9.65269e-09,0.152952,0,2.14,8244,12.0619,1
108,0,0,2.16,-9.60267e-09,-9.60267e-09,0.153388,0,2.16,8244,12.0582,1
109,0,0,2.18,-9.55266e-09,-9.55266e-09,0.153825,0,2.18,8244,12.0545,1
110,0,0,2.2,-9.50264e-09,-9.50264e-09,0.154262,0,2.2,8244,12.0508,1
111,0,0,2.22,-9.45262e-09,-9.45262e-09,0.154698,0,2.22,8244,12.0472,1
112,0,0,2.24,-9.40261e-09,-9.40261e-09,0.155135,0,2.24,8244,12.0435,1
113,0,0,2.26,-9.35259e-09,-9.35259e-09,0.155572,0,2.26,8244,12.0398,1
114,0,0,2.28,-9.30258e-09,-9.30258e-09,0.156008,0,2.28,8244,12.0361,1
115,0,0,2.3,-9.25256e-09,-9.25256e-09,0.156445,0,2.3,8244,12.0324,1
116,0,0,2.32,-9.20254e-09,-9.20254e-09,0.156881,0,2.32,8244,12.0288,1
117,0,0,2.34,-9.15253e-09,-9.15253e-09,0.157318,0,2.34,8244,12.0251,1
118,0,0,2.36,-9.10251e-09,-9.10251e-09,0.157755,0,2.36,8244,12.0214,1
119,0,0,2.38,-9.0525e-09,-9.0525e-09,0.158191,0,2.38,8244,12.0177,1
120,0,0,2.4,-9.00248e-09,-9.00248e-09,0.158628,0,2.4,8244,12.014,1
121,0,0,2.42,-8.95246e-09,-8.95246e-09,0.159065,0,2.42,8244,12.0103,1
122,0,0,2.44,-8.90245e-09,-8.90245e-09,0.159501,0,2.44,8244,12.0067,1
123,0,0,2.46,-8.85243e-09,-8.85243e-09,0.159938,0,2.46,8244,12.003,1
124,0,0,2.48,-8.80242e-09,-8.80242e-09,0.160374,0,2.48,8244,11.9993,1
125,0,0,2.5,-8.7524e-09,-8.7524e-09,0.160811,0,2.5,8244,11.9956,1
126,0,0,2.52,-8.70238e-09,-8.70238e-09,0.161248,0,2.52,8244,11.9919,1
127,0,0,2.54,-8.65237e-09,-8.65237e-09,0.161684,0,2.54,8244,11.9883,1
128,0,0,2.56,-8.60235e-09,-8.60235e-09,0.162121,0,2.56,8244,11.9846,1
129,0,0,2.58,-8.55234e-09,-8.55234e-09,0.162557,0,2.58,8244,11.9809,1
130,0,0,2.6,-8.50232e-09,-8.50232e-09,0.162994,0,2.6,8244,11.9772,1
131,0,0,2.62,-8.4523e-09,-8.4523e-09,0.163431,0,2.62,8244,11.9735,1
132,0,0,2.64,-8.40229e-09,-8.40229e-09,0.163867,0,2.64,8244,11.9699,1
133,0,0,2.66,-8.35227e-09,-8.35227e-09,0.164304,0,2.66,8244,11.9662,1
134,0,0,2.68,-8.30226e-09,-8.30226e-09,0.164741,0,2.68,8244,11.9625,1
135,0,0,2.7,-8.25224e-09,-8.25224e-09,0.165177,0,2.7,8244,11.9588,1
136,0,0,2.72,-8.20222e-09,-8.20222e-09,0.165614,0,2.72,8244,11.9551,1
137,0,0,2.74,-8.15221e-09,-8.15221e-09,0.16605,0,2.74,8244,11.9515,1
138,0,0,2.76,-8.10219e-09,-8.10219e-09,0.166487,0,2.76,8244,11.9478,1
139,0,0,2.78,-8.05218e-09,-8.05218e-09,0.166924,0,2.78,8244,11.9441,1
140,0,0,2.8,-8.00216e-09,-8.00216e-09,0.16736,0,2.8,8244,11.9404,1
141,0,0,2.82,-7.95214e-09,-7.95214e-09,0.167797,0,2.82,8244,11.9367,1
142,0,0,2.84,-7.90213e-09,-7.90213e-09,0.168234,0,2.84,8244,11.933,1
143,0,0,2.86,-7.85211e-09,-7.85211e-09,0.16867,0,2.86,8244,11.9294,1
144,0,0,2.88,-7.80209e-09,-7.80209e-09,0.169107,0,2.88,8244,11.9257,1
145,0,0,2.9,-7.75208e-09,-7.75208e-09,0.169543,0,2.9,8244,11.922,1
146,0,0,2.92,-7.70206e-09,-7.70206e-09,0.16998,0,2.92,8244,11.9183,1
147,0,0,2.94,-7.65205e-09,-7.65205e-09,0.170417,0,2.94,8244,11.9146,1
148,0,0,2.96,-7.60203e-09,-7.60203e-09,0.170853,0,2.96,8244,11.911,1
149,0,0,2.98,-7.55202e-09,-7.55202e-09,0.17129,0,2.98,8244,11.9073,1
150,0,0,3,-7.502e-09,-7.502e-09,0.171726,0,3,8244,11.9036,1
151,0,0,3.02,-7.47698e-09,-7.48448e-09,0.172,0,3.02,8344,11.898,1
152,0,0,3.04,-7.45197e-09,-7.46697e-09,0.172273,0,3.04,8344,11.8924,1
153,0,0,3.06,-7.42695e-09,-7.44945e-09,0.172547,0,3.06,8344,11.8868,1
154,0,0,3.08,-7.40193e-09,-7.43193e-09,0.17282,0,3.08,8344,11.8811,1
155,0,0,3.1,-7.37692e-09,-7.41442e-09,0.173093,0,3.1,8344,11.8755,1
156,0,0,3.12,-7.3519e-09,-7.3969e-09,0.173367,0,3.12,8344,11.8699,1
157,0,0,3.14,-7.32688e-09,-7.37938e-09,0.17364,0,3.14,8344,11.8643,1
158,0,0,3.16,-7.30187e-09,-7.36187e-09,0.173913,0,3.16,8344,11.8587,1
159,0,0,3.18,-7.27685e-09,-7.34435e-09,0.174187,0,3.18,8344,11.8531,1
160,0,0,3.2,-7.25183e-09,-7.32683e-09,0.17446,0,3.2,8344,11.8474,1
161,0,0,3.22,-7.22682e-09,-7.30932e-09,0.174733,0,3.22,8344,11.8418,1
162,0,0,3.24,-7.2018e-09,-7.2918e-09,0.175007,0,3.24,8344,11.8362,1
163,0,0,3.26,-7.17678e-09,-7.27428e-09,0.17528,0,3.26,8344,11.8306,1
164,0,0,3.28,-7.15177e-09,-7.25677e-09,0.175554,0,3.28,8344,11.825,1
165,0,0,3.3,-7.12675e-09,-7.23925e-09,0.175827,0,3.3,8344,11.8194,1
166,0,0,3.32,-7.10173e-09,-7.22173e-09,0.1761,0,3.32,8344,11.8137,1
167,0,0,3.34,-7.07672e-09,-7.20422e-09,0.176374,0,3.34,8344,11.8081,1
168,0,0,3.36,-7.0517e-09,-7.1867e-09,0.176647,0,3.36,8344,11.8025,1
169,0,0,3.38,-7.02668e-09,-7.16918e-09,0.17692,0,3.38,8344,11.7969,1
170,0,0,3.4,-7.00167e-09,-7.15167e-09,0.177194,0,3.4,8344,11.7913,1
171,0,0,3.42,-6.97665e-09,-7.13415e-09,0.177467,0,3.42,8344,11.7857,1
172,0,0,3.44,-6.95163e-09,-7.11663e-09,0.17774,0,3.44,8344,11.78,1
173,0,0,3.46,-6.92662e-09,-7.09912e-09,0.178014,0,3.46,8344,11.7744,1
174,0,0,3.48,-6.9016e-09,-7.0816e-09,0.178287,0,3.48,8344,11.7688,1
175,0,0,3.5,-6.87658e-09,-7.06408e-09,0.17856,0,3.5,8344,11.7632,1
176,0,0,3.52,-6.85157e-09,-7.04657e-09,0.178834,0,3.52,8344,11.7576,1
177,0,0,3.54,-6.82655e-09,-7.02905e-09,0.179107,0,3.54,8344,11.752,1
178,0,0,3.56,-6.80153e-09,-7.01153e-09,0.179381,0,3.56,8344,11.7464,1
179,0,0,3.58,-6.77652e-09,-6.99402e-09,0.179654,0,3.58,8344,11.7407,1
180,0,0,3.6,-6.7515e-09,-6.9765e-09,0.179927,0,3.6,8344,11.7351,1
181,0,0,3.62,-6.72648e-09,-6.95898e-09,0.180201,0,3.62,8344,11.7295,1
182,0,0,3.64,-6.70147e-09,-6.94147e-09,0.180474,0,3.64,8344,11.7239,1
183,0,0,3.66,-6.67645e-09,-6.92395e-09,0.180747,0,3.66,8344,11.7183,1
184,0,0,3.68,-6.65143e-09,-6.90643e-09,0.181021,0,3.68,8344,11.7127,1
185,0,0,3.7,-6.62642e-09,-6.88892e-09,0.181294,0,3.7,8344,11.707,1
186,0,0,3.72,-6.6014e-09,-6.8714e-09,0.181567,0,3.72,8344,11.7014,1
187,0,0,3.74,-6.57638e-09,-6.85388e-09,0.181841,0,3.74,8344,11.6958,1
188,0,0,3.76,-6.55137e-09,-6.83637e-09,0.182114,0,3.76,8344,11.6902,1
189,0,0,3.78,-6.52635e-09,-6.81885e-09,0.182388,0,3.78,8344,11.6846,1
190,0,0,3.8,-6.50133e-09,-6.80133e-09,0.182661,0,3.8,8344,11.679,1
191,0,0,3.82,-6.47632e-09,-6.78382e-09,0.182934,0,3.82,8344,11.6733,1
192,0,0,3.84,-6.4513e-09,-6.7663e-09,0.183208,0,3.84,8344,11.6677,1
193,0,0,3.86,-6.42628e-09,-6.74878e-09,0.183481,0,3.86,8344,11.6621,1
194,0,0,3.88,-6.40127e-09,-6.73127e-09,0.183754,0,3.88,8344,11.6565,1
195,0,0,3.9,-6.37625e-09,-6.71375e-09,0.184028,0,3.9,8344,11.6509,1
196,0,0,3.92,-6.35123e-09,-6.69623e-09,0.184301,0,3.92,8344,11.6453,1
197,0,0,3.94,-6.32622e-09,-6.67872e-09,0.184574,0,3.94,8344,11.6396,1
198,0,0,3.96,-6.3012e-09,-6.6612e-09,0.184848,0,3.96,8344,11.634,1
199,0,0,3.98,-6.27618e-09,-6.64368e-09,0.185121,0,3.98,8344,11.6284,1
200,0,0,4,-6.25117e-09,-6.62617e-09,0.185394,0,4,8344,11.6228,1
201,0,0,4.02,-6.26866e-09,-6.64616e-09,0.185538,0,4.02,8444,11.6169,1
202,0,0,4.04,-6.28615e-09,-6.66615e-09,0.185682,0,4.04,8444,11.6109,1
203,0,0,4.06,-6.30363e-09,-6.68613e-09,0.185826,0,4.06,8444,11.605,1
204,0,0,4.08,-6.32112e-09,-6.70612e-09,0.18597,0,4.08,8444,11.5991,1
205,0,0,4.1,-6.33861e-09,-6.72611e-09,0.186114,0,4.1,8444,11.5931,1
206,0,0,4.12,-6.3561e-09,-6.7461e-09,0.186257,0,4.12,8444,11.5872,1
207,0,0,4.14,-6.37359e-09,-6.76609e-09,0.186401,0,4.14,8444,11.5812,1
208,0,0,4.16,-6.39108e-09,-6.78608e-09,0.186545,0,4.16,8444,11.5753,1
209,0,0,4.18,-6.40857e-09,-6.80607e-09,0.186689,0,4.18,8444,11.5694,1
210,0,0,4.2,-6.42606e-09,-6.82606e-09,0.186833,0,4.2,8444,11.5634,1
211,0,0,4.22,-6.44355e-09,-6.84605e-09,0.186977,0,4.22,8444,11.5575,1
212,0,0,4.24,-6.46103e-09,-6.86603e-09,0.18712,0,4.24,8444,11.5516,1
213,0,0,4.26,-6.47852e-09,-6.88602e-09,0.187264,0,4.26,8444,11.5456,1
214,0,0,4.28,-6.49601e-09,-6.90601e-09,0.187408,0,4.28,8444,11.5397,1
215,0,0,4.3,-6.5135e-09,-6.926e-09,0.187552,0,4.3,8444,11.5338,1
216,0,0,4.32,-6.53099e-09,-6.94599e-09,0.187696,0,4.32,8444,11.5278,1
217,0,0,4.34,-6.54848e-09,-6.96598e-09,0.18784,0,4.34,8444,11.5219,1
218,0,0,4.36,-6.56597e-09,-6.98597e-09,0.187983,0,4.36,8444,11.516,1
219,0,0,4.38,-6.58346e-09,-7.00596e-09,0.188127,0,4.38,8444,11.51,1
220,0,0,4.4,-6.60095e-09,-7.02595e-09,0.188271,0,4.4,8444,11.5041,1
221,0,0,4.42,-6.61843e-09,-7.04593e-09,0.188415,0,4.42,8444,11.4981,1
222,0,0,4.44,-6.63592e-09,-7.06592e-09,0.188559,0,4.44,8444,11.4922,1
223,0,0,4.46,-6.65341e-09,-7.08591e-09,0.188703,0,4.46,8444,11.4863,1
224,0,0,4.48,-6.6709e-09,-7.1059e-09,0.188846,0,4.48,8444,11.4803,1
225,0,0,4.5,-6.68839e-09,-7.12589e-09,0.18899,0,4.5,8444,11.4744,1
226,0,0,4.52,-6.70588e-09,-7.14588e-09,0.189134,0,4.52,8444,11.4685,1
227,0,0,4.54,-6.72337e-09,-7.16587e-09,0.189278,0,4.54,8444,11.4625,1
228,0,0,4.56,-6.74086e-09,-7.18586e-09,0.189422,0,4.56,8444,11.4566,1
229,0,0,4.58,-6.75834e-09,-7.20584e-09,0.189566,0,4.58,8444,11.4507,1
230,0,0,4.6,-6.77583e-09,-7.22583e-09,0.189709,0,4.6,8444,11.4447,1
231,0,0,4.62,-6.79332e-09,-7.24582e-09,0.189853,0,4.62,8444,11.4388,1
232,0,0,4.64,-6.81081e-09,-7.26581e-09,0.189997,0,4.64,8444,11.4328,1
233,0,0,4.66,-6.8283e-09,-7.2858e-09,0.190141,0,4.66,8444,11.4269,1
234,0,0,4.68,-6.84579e-09,-7.30579e-09,0.190285,0,4.68,8444,11.421,1
235,0,0,4.7,-6.86328e-09,-7.32578e-09,0.190429,0,4.7,8444,11.415,1
236,0,0,4.72,-6.88077e-09,-7.34577e-09,0.190572,0,4.72,8444,11.4091,1
237,0,0,4.74,-6.89825e-09,-7.36576e-09,0.190716,0,4.74,8444,11.4032,1
238,0,0,4.76,-6.91574e-09,-7.38574e-09,0.19086,0,4.76,8444,11.3972,1
239,0,0,4.78,-6.93323e-09,-7.40573e-09,0.191004,0,4.78,8444,11.3913,1
240,0,0,4.8,-6.95072e-09,-7.42572e-09,0.191148,0,4.8,8444,11.3854,1
241,0,0,4.82,-6.96821e-09,-7.44571e-09,0.191292,0,4.82,8444,11.3794,1
242,0,0,4.84,-6.9857e-09,-7.4657e-09,0.191435,0,4.84,8444,11.3735,1
243,0,0,4.86,-7.00319e-09,-7.48569e-09,0.191579,0,4.86,8444,11.3676,1
244,0,0,4.88,-7.02068e-09,-7.50568e-09,0.191723,0,4.88,8444,11.3616,1
245,0,0,4.9,-7.03817e-09,-7.52567e-09,0.191867,0,4.9,8444,11.3557,1
246,0,0,4.92,-7.05565e-09,-7.54565e-09,0.192011,0,4.92,8444,11.3497,1
247,0,0,4.94,-7.07314e-09,-7.56564e-09,0.192155,0,4.94,8444,11.3438,1
248,0,0,4.96,-7.09063e-09,-7.58563e-09,0.192298,0,4.96,8444,11.3379,1
249,0,0,4.98,-7.10812e-09,-7.60562e-09,0.192442,0,4.98,8444,11.3319,1
250,0,0,5,-7.12561e-09,-7.62561e-09,0.192586,0,5,8444,11.326,1
251,0,0,5.02,-7.1056e-09,-7.5981e-09,0.192658,0,5.02,8544,11.3196,1
252,0,0,5.04,-7.0856e-09,-7.5706e-09,0.192731,0,5.04,8544,11.3132,1
253,0,0,5.06,-7.06559e-09,-7.54309e-09,0.192803,0,5.06,8544,11.3069,1
254,0,0,5.08,-7.04558e-09,-7.51558e-09,0.192876,0,5.08,8544,11.3005,1
255,0,0,5.1,-7.02558e-09,-7.48808e-09,0.192948,0,5.1,8544,11.2941,1
256,0,0,5.12,-7.00557e-09,-7.46057e-09,0.193021,0,5.12,8544,11.2877,1
257,0,0,5.14,-6.98557e-09,-7.43307e-09,0.193093,0,5.14,8544,11.2813,1
258,0,0,5.16,-6.96556e-09,-7.40556e-09,0.193166,0,5.16,8544,11.2749,1
259,0,0,5.18,-6.94555e-09,-7.37805e-09,0.193238,0,5.18,8544,11.2686,1
260,0,0,5.2,-6.92555e-09,-7.35055e-09,0.19331,0,5.2,8544,11.2622,1
261,0,0,5.22,-6.90554e-09,-7.32304e-09,0.193383,0,5.22,8544,11.2558,1
262,0,0,5.24,-6.88553e-09,-7.29553e-09,0.193455,0,5.24,8544,11.2494,1
263,0,0,5.26,-6.86553e-09,-7.26803e-09,0.193528,0,5.26,8544,11.243,1
264,0,0,5.28,-6.84552e-09,-7.24052e-09,0.1936,0,5.28,8544,11.2366,1
265,0,0,5.3,-6.82551e-09,-7.21301e-09,0.193673,0,5.3,8544,11.2303,1
266,0,0,5.32,-6.80551e-09,-7.18551e-09,0.193745,0,5.32,8544,11.2239,1
267,0,0,5.34,-6.7855e-09,-7.158e-09,0.193817,0,5.34,8544,11.2175,1
268,0,0,5.36,-6.7655e-09,-7.1305e-09,0.19389,0,5.36,8544,11.2111,1
269,0,0,5.38,-6.74549e-09,-7.10299e-09,0.193962,0,5.38,8544,11.2047,1
270,0,0,5.4,-6.72548e-09,-7.07548e-09,0.194035,0,5.4,8544,11.1983,1
271,0,0,5.42,-6.70548e-09,-7.04798e-09,0.194107,0,5.42,8544,11.192,1
272,0,0,5.44,-6.68547e-09,-7.02047e-09,0.19418,0,5.44,8544,11.1856,1
273,0,0,5.46,-6.66546e-09,-6.99296e-09,0.194252,0,5.46,8544,11.1792,1
274,0,0,5.48,-6.64546e-09,-6.96546e-09,0.194325,0,5.48,8544,11.1728,1
275,0,0,5.5,-6.62545e-09,-6.93795e-09,0.194397,0,5.5,8544,11.1664,1
276,0,0,5.52,-6.60544e-09,-6.91044e-09,0.194469,0,5.52,8544,11.16,1
277,0,0,5.54,-6.58544e-09,-6.88294e-09,0.194542,0,5.54,8544,11.1537,1
278,0,0,5.56,-6.56543e-09,-6.85543e-09,0.194614,0,5.56,8544,11.1473,1
279,0,0,5.58,-6.54543e-09,-6.82793e-09,0.194687,0,5.58,8544,11.1409,1
280,0,0,5.6,-6.52542e-09,-6.80042e-09,0.194759,0,5.6,8544,11.1345,1
281,0,0,5.62,-6.50541e-09,-6.77291e-09,0.194832,0,5.62,8544,11.1281,1
282,0,0,5.64,-6.48541e-09,-6.74541e-09,0.194904,0,5.64,8544,11.1217,1
283,0,0,5.66,-6.4654e-09,-6.7179e-09,0.194977,0,5.66,8544,11.1154,1
284,0,0,5.68,-6.44539e-09,-6.69039e-09,0.195049,0,5.68,8544,11.109,1
285,0,0,5.7,-6.42539e-09,-6.66289e-09,0.195121,0,5.7,8544,11.1026,1
286,0,0,5.72,-6.40538e-09,-6.63538e-09,0.195194,0,5.72,8544,11.0962,1
287,0,0,5.74,-6.38537e-09,-6.60787e-09,0.195266,0,5.74,8544,11.0898,1
288,0,0,5.76,-6.36537e-09,-6.58037e-09,0.195339,0,5.76,8544,11.0834,1
289,0,0,5.78,-6.34536e-09,-6.55286e-09,0.195411,0,5.78,8544,11.0771,1
290,0,0,5.8,-6.32535e-09,-6.52535e-09,0.195484,0,5.8,8544,11.0707,1
291,0,0,5.82,-6.30535e-09,-6.49785e-09,0.195556,0,5.82,8544,11.0643,1
292,0,0,5.84,-6.28534e-09,-6.47034e-09,0.195628,0,5.84,8544,11.0579,1
293,0,0,5.86,-6.26534e-09,-6.44284e-09,0.195701,0,5.86,8544,11.0515,1
294,0,0,5.88,-6.24533e-09,-6.41533e-09,0.195773,0,5.88,8544,11.0451,1
295,0,0,5.9,-6.22532e-09,-6.38782e-09,0.195846,0,5.9,8544,11.0388,1
296,0,0,5.92,-6.20532e-09,-6.36032e-09,0.195918,0,5.92,8544,11.0324,1
297,0,0,5.94,-6.18531e-09,-6.33281e-09,0.195991,0,5.94,8544,11.026,1
298,0,0,5.96,-6.1653e-09,-6.3053e-09,0.196063,0,5.96,8544,11.0196,1
299,0,0,5.98,-6.1453e-09,-6.2778e-09,0.196136,0,5.98,8544,11.0132,1
300,0,0,6,-6.12529e-09,-6.25029e-09,0.196208,0,6,8544,11.0069,1
301,0,0,6.02,-6.09854e-09,-6.22329e-09,0.19624,0,6.02,8644,11.0005,1
302,0,0,6.04,-6.07178e-09,-6.19628e-09,0.196271,0,6.04,8644,10.9941,1
303,0,0,6.06,-6.04503e-09,-6.16928e-09,0.196303,0,6.06,8644,10.9877,1
304,0,0,6.08,-6.01828e-09,-6.14228e-09,0.196335,0,6.08,8644,10.9814,1
305,0,0,6.1,-5.99153e-09,-6.11528e-09,0.196367,0,6.1,8644,10.975,1
306,0,0,6.12,-5.96477e-09,-6.08827e-09,0.196398,0,6.12,8644,10.9686,1
307,0,0,6.14,-5.93802e-09,-6.06127e-09,0.19643,0,6.14,8644,10.9622,1
308,0,0,6.16,-5.91127e-09,-6.03427e-09,0.196462,0,6.16,8644,10.9559,1
309,0,0,6.18,-5.88451e-09,-6.00726e-09,0.196494,0,6.18,8644,10.9495,1
310,0,0,6.2,-5.85776e-09,-5.98026e-09,0.196525,0,6.2,8644,10.9431,1
311,0,0,6.22,-5.83101e-09,-5.95326e-09,0.196557,0,6.22,8644,10.9367,1
312,0,0,6.24,-5.80425e-09,-5.92625e-09,0.196589,0,6.24,8644,10.9304,1
313,0,0,6.26,-5.7775e-09,-5.89925e-09,0.196621,0,6.26,8644,10.924,1
314,0,0,6.28,-5.75075e-09,-5.87225e-09,0.196652,0,6.28,8644,10.9176,1
315,0,0,6.3,-5.72399e-09,-5.84524e-09,0.196684,0,6.3,8644,10.9112,1
316,0,0,6.32,-5.69724e-09,-5.81824e-09,0.196716,0,6.32,8644,10.9049,1
317,0,0,6.34,-5.67049e-09,-5.79124e-09,0.196748,0,6.34,8644,10.8985,1
318,0,0,6.36,-5.64373e-09,-5.76423e-09,0.196779,0,6.36,8644,10.8921,1
319,0,0,6.38,-5.61698e-09,-5.73723e-09,0.196811,0,6.38,8644,10.8857,1
320,0,0,6.4,-5.59023e-09,-5.71023e-09,0.196843,0,6.4,8644,10.8794,1
321,0,0,6.42,-5.56347e-09,-5.68322e-09,0.196875,0,6.42,8644,10.873,1
322,0,0,6.44,-5.53672e-09,-5.65622e-09,0.196906,0,6.44,8644,10.8666,1
323,0,0,6.46,-5.50997e-09,-5.62922e-09,0.196938,0,6.46,8644,10.8602,1
324,0,0,6.48,-5.48321e-09,-5.60221e-09,0.19697,0,6.48,8644,10.8539,1
325,0,0,6.5,-5.45646e-09,-5.57521e-09,0.197002,0,6.5,8644,10.8475,1
326,0,0,6.52,-5.42971e-09,-5.54821e-09,0.197033,0,6.52,8644,10.8411,1
327,0,0,6.54,-5.40295e-09,-5.5212e-09,0.197065,0,6.54,8644,10.8348,1
328,0,0,6.56,-5.3762e-09,-5.4942e-09,0.197097,0,6.56,8644,10.8284,1
329,0,0,6.58,-5.34945e-09,-5.4672e-09,0.197128,0,6.58,8644,10.822,1
330,0,0,6.6,-5.32269e-09,-5.44019e-09,0.19716,0,6.6,8644,10.8156,1
331,0,0,6.62,-5.29594e-09,-5.41319e-09,0.197192,0,6.62,8644,10.8093,1
332,0,0,6.64,-5.26919e-09,-5.38619e-09,0.197224,0,6.64,8644,10.8029,1
333,0,0,6.66,-5.24243e-09,-5.35918e-09,0.197255,0,6.66,8644,10.7965,1
334,0,0,6.68,-5.21568e-09,-5.33218e-09,0.197287,0,6.68,8644,10.7901,1
335,0,0,6.7,-5.18893e-09,-5.30518e-09,0.197319,0,6.7,8644,10.7838,1
336,0,0,6.72,-5.16218e-09,-5.27817e-09,0.197351,0,6.72,8644,10.7774,1
337,0,0,6.74,-5.13542e-09,-5.25117e-09,0.197382,0,6.74,8644,10.771,1
338,0,0,6.76,-5.10867e-09,-5.22417e-09,0.197414,0,6.76,8644,10.7646,1
339,0,0,6.78,-5.08191e-09,-5.19716e-09,0.197446,0,6.78,8644,10.7583,1
340,0,0,6.8,-5.05516e-09,-5.17016e-09,0.197478,0,6.8,8644,10.7519,1
341,0,0,6.82,-5.02841e-09,-5.14316e-09,0.197509,0,6.82,8644,10.7455,1
342,0,0,6.84,-5.00166e-09,-5.11616e-09,0.197541,0,6.84,8644,10.7391,1
343,0,0,6.86,-4.9749e-09,-5.08915e-09,0.197573,0,6.86,8644,10.7328,1
344,0,0,6.88,-4.94815e-09,-5.06215e-09,0.197605,0,6.88,8644,10.7264,1
345,0,0,6.9,-4.9214e-09,-5.03515e-09,0.197636,0,6.9,8644,10.72,1
346,0,0,6.92,-4.89464e-09,-5.00814e-09,0.197668,0,6.92,8644,10.7136,1
347,0,0,6.94,-4.86789e-09,-4.98114e-09,0.1977,0,6.94,8644,10.7073,1
348,0,0,6.96,-4.84114e-09,-4.95414e-09,0.197732,0,6.96,8644,10.7009,1
349,0,0,6.98,-4.81438e-09,-4.92713e-09,0.197763,0,6.98,8644,10.6945,1
350,0,0,7,-4.78763e-09,-4.90013e-09,0.197795,0,7,8644,10.6882,1
351,0,0,7.02,-4.76263e-09,-4.87713e-09,0.197809,0,7.02,8744,10.6817,1
352,0,0,7.04,-4.73763e-09,-4.85413e-09,0.197823,0,7.04,8744,10.6752,1
353,0,0,7.06,-4.71262e-09,-4.83112e-09,0.197837,0,7.06,8744,10.6688,1
354,0,0,7.08,-4.68762e-09,-4.80812e-09,0.197851,0,7.08,8744,10.6623,1
355,0,0,7.1,-4.66262e-09,-4.78512e-09,0.197865,0,7.1,8744,10.6559,1
356,0,0,7.12,-4.63762e-09,-4.76212e-09,0.197879,0,7.12,8744,10.6494,1
357,0,0,7.14,-4.61262e-09,-4.73912e-09,0.197893,0,7.14,8744,10.643,1
358,0,0,7.16,-4.58762e-09,-4.71612e-09,0.197907,0,7.16,8744,10.6365,1
359,0,0,7.18,-4.56262e-09,-4.69312e-09,0.197921,0,7.18,8744,10.6301,1
360,0,0,7.2,-4.53761e-09,-4.67011e-09,0.197935,0,7.2,8744,10.6236,1
361,0,0,7.22,-4.51261e-09,-4.64711e-09,0.197949,0,7.22,8744,10.6172,1
362,0,0,7.24,-4.48761e-09,-4.62411e-09,0.197963,0,7.24,8744,10.6107,1
363,0,0,7.26,-4.46261e-09,-4.60111e-09,0.197977,0,7.26,8744,10.6043,1
364,0,0,7.28,-4.43761e-09,-4.57811e-09,0.197991,0,7.28,8744,10.5978,1
365,0,0,7.3,-4.41261e-09,-4.55511e-09,0.198005,0,7.3,8744,10.5914,1
366,0,0,7.32,-4.3876e-09,-4.5321e-09,0.198019,0,7.32,8744,10.5849,1
367,0,0,7.34,-4.3626e-09,-4.5091e-09,0.198033,0,7.34,8744,10.5785,1
368,0,0,7.36,-4.3376e-09,-4.4861e-09,0.198047,0,7.36,8744,10.572,1
369,0,0,7.38,-4.3126e-09,-4.4631e-09,0.198061,0,7.38,8744,10.5656,1
370,0,0,7.4,-4.2876e-09,-4.4401e-09,0.198075,0,7.4,8744,10.5591,1
371,0,0,7.42,-4.2626e-09,-4.4171e-09,0.198089,0,7.42,8744,10.5527,1
372,0,0,7.44,-4.2376e-09,-4.3941e-09,0.198103,0,7.44,8744,10.5462,1
373,0,0,7.46,-4.21259e-09,-4.37109e-09,0.198117,0,7.46,8744,10.5398,1
374,0,0,7.48,-4.18759e-09,-4.34809e-09,0.198131,0,7.48,8744,10.5333,1
375,0,0,7.5,-4.16259e-09,-4.32509e-09,0.198145,0,7.5,8744,10.5268,1
376,0,0,7.52,-4.13759e-09,-4.30209e-09,0.198159,0,7.52,8744,10.5204,1
377,0,0,7.54,-4.11259e-09,-4.27909e-09,0.198173,0,7.54,8744,10.5139,1
378,0,0,7.56,-4.08759e-09,-4.25609e-09,0.198187,0,7.56,8744,10.5075,1
379,0,0,7.58,-4.06259e-09,-4.23309e-09,0.198201,0,7.58,8744,10.501,1
380,0,0,7.6,-4.03758e-09,-4.21008e-09,0.198215,0,7.6,8744,10.4946,1
381,0,0,7.62,-4.01258e-09,-4.18708e-09,0.198229,0,7.62,8744,10.4881,1
382,0,0,7.64,-3.98758e-09,-4.16408e-09,0.198243,0,7.64,8744,10.4817,1
383,0,0,7.66,-3.96258e-09,-4.14108e-09,0.198257,0,7.66,8744,10.4752,1
384,0,0,7.68,-3.93758e-09,-4.11808e-09,0.198271,0,7.68,8744,10.4688,1
385,0,0,7.7,-3.91258e-09,-4.09508e-09,0.198285,0,7.7,8744,10.4623,1
386,0,0,7.72,-3.88758e-09,-4.07208e-09,0.198299,0,7.72,8744,10.4559,1
387,0,0,7.74,-3.86257e-09,-4.04907e-09,0.198313,0,7.74,8744,10.4494,1
388,0,0,7.76,-3.83757e-09,-4.02607e-09,0.198327,0,7.76,8744,10.443,1
389,0,0,7.78,-3.81257e-09,-4.00307e-09,0.198341,0,7.78,8744,10.4365,1
390,0,0,7.8,-3.78757e-09,-3.98007e-09,0.198355,0,7.8,8744,10.4301,1
391,0,0,7.82,-3.76257e-09,-3.95707e-09,0.198369,0,7.82,8744,10.4236,1
392,0,0,7.84,-3.73757e-09,-3.93407e-09,0.198383,0,7.84,8744,10.4172,1
393,0,0,7.86,-3.71256e-09,-3.91106e-09,0.198397,0,7.86,8744,10.4107,1
394,0,0,7.88,-3.68756e-09,-3.88806e-09,0.198411,0,7.88,8744,10.4043,1
395,0,0,7.9,-3.66256e-09,-3.86506e-09,0.198425,0,7.9,8744,10.3978,1
396,0,0,7.92,-3.63756e-09,-3.84206e-09,0.198439,0,7.92,8744,10.3914,1
397,0,0,7.94,-3.61256e-09,-3.81906e-09,0.198453,0,7.94,8744,10.3849,1
398,0,0,7.96,-3.58756e-09,-3.79606e-09,0.198467,0,7.96,8744,10.3785,1
399,0,0,7.98,-3.56256e-09,-3.77306e-09,0.198481,0,7.98,8744,10.372,1
400,0,0,8,-3.53755e-09,-3.75005e-09,0.198494,0,8,8744,10.3656,1
401,0,0,8.02,-3.5181e-09,-3.72973e-09,0.1985,0,8.02,8844,10.3591,1
402,0,0,8.04,-3.49865e-09,-3.7094e-09,0.198505,0,8.04,8844,10.3527,1
403,0,0,8.06,-3.4792e-09,-3.68908e-09,0.19851,0,8.06,8844,10.3462,1
404,0,0,8.08,-3.45975e-09,-3.66875e-09,0.198516,0,8.08,8844,10.3398,1
405,0,0,8.1,-3.4403e-09,-3.64842e-09,0.198521,0,8.1,8844,10.3334,1
406,0,0,8.12,-3.42085e-09,-3.6281e-09,0.198526,0,8.12,8844,10.3269,1
407,0,0,8.14,-3.4014e-09,-3.60777e-09,0.198532,0,8.14,8844,10.3205,1
408,0,0,8.16,-3.38195e-09,-3.58745e-09,0.198537,0,8.16,8844,10.3141,1
409,0,0,8.18,-3.3625e-09,-3.56712e-09,0.198542,0,8.18,8844,10.3076,1
410,0,0,8.2,-3.34305e-09,-3.5468e-09,0.198547,0,8.2,8844,10.3012,1
411,0,0,8.22,-3.3236e-09,-3.52647e-09,0.198553,0,8.22,8844,10.2948,1
412,0,0,8.24,-3.30415e-09,-3.50615e-09,0.198558,0,8.24,8844,10.2883,1
413,0,0,8.26,-3.28469e-09,-3.48582e-09,0.198563,0,8.26,8844,10.2819,1
414,0,0,8.28,-3.26524e-09,-3.46549e-09,0.198569,0,8.28,8844,10.2755,1
415,0,0,8.3,-3.24579e-09,-3.44517e-09,0.198574,0,8.3,8844,10.269,1
416,0,0,8.32,-3.22634e-09,-3.42484e-09,0.198579,0,8.32,8844,10.2626,1
417,0,0,8.34,-3.20689e-09,-3.40452e-09,0.198584,0,8.34,8844,10.2562,1
418,0,0,8.36,-3.18744e-09,-3.38419e-09,0.19859,0,8.36,8844,10.2497,1
419,0,0,8.38,-3.16799e-09,-3.36387e-09,0.198595,0,8.38,8844,10.2433,1
420,0,0,8.4,-3.14854e-09,-3.34354e-09,0.1986,0,8.4,8844,10.2369,1
421,0,0,8.42,-3.12909e-09,-3.32321e-09,0.198606,0,8.42,8844,10.2304,1
422,0,0,8.44,-3.10964e-09,-3.30289e-09,0.198611,0,8.44,8844,10.224,1
423,0,0,8.46,-3.09019e-09,-3.28256e-09,0.198616,0,8.46,8844,10.2176,1
424,0,0,8.48,-3.07074e-09,-3.26224e-09,0.198621,0,8.48,8844,10.2111,1
425,0,0,8.5,-3.05129e-09,-3.24191e-09,0.198627,0,8.5,8844,10.2047,1
426,0,0,8.52,-3.03184e-09,-3.22159e-09,0.198632,0,8.52,8844,10.1983,1
427,0,0,8.54,-3.01239e-09,-3.20126e-09,0.198637,0,8.54,8844,10.1918,1
428,0,0,8.56,-2.99294e-09,-3.18093e-09,0.198643,0,8.56,8844,10.1854,1
429,0,0,8.58,-2.97348e-09,-3.16061e-09,0.198648,0,8.58,8844,10.179,1
430,0,0,8.6,-2.95403e-09,-3.14028e-09,0.198653,0,8.6,8844,10.1725,1
431,0,0,8.62,-2.93458e-09,-3.11996e-09,0.198658,0,8.62,8844,10.1661,1
432,0,0,8.64,-2.91513e-09,-3.09963e-09,0.198664,0,8.64,8844,10.1597,1
433,0,0,8.66,-2.89568e-09,-3.07931e-09,0.198669,0,8.66,8844,10.1532,1
434,0,0,8.68,-2.87623e-09,-3.05898e-09,0.198674,0,8.68,8844,10.1468,1
435,0,0,8.7,-2.85678e-09,-3.03866e-09,0.19868,0,8.7,8844,10.1404,1
436,0,0,8.72,-2.83733e-09,-3.01833e-09,0.198685,0,8.72,8844,10.1339,1
437,0,0,8.74,-2.81788e-09,-2.998e-09,0.19869,0,8.74,8844,10.1275,1
438,0,0,8.76,-2.79843e-09,-2.97768e-09,0.198696,0,8.76,8844,10.1211,1
439,0,0,8.78,-2.77898e-09,-2.95735e-09,0.198701,0,8.78,8844,10.1146,1
440,0,0,8.8,-2.75953e-09,-2.93703e-09,0.198706,0,8.8,8844,10.1082,1
441,0,0,8.82,-2.74008e-09,-2.9167e-09,0.198711,0,8.82,8844,10.1018,1
442,0,0,8.84,-2.72063e-09,-2.89638e-09,0.198717,0,8.84,8844,10.0953,1
443,0,0,8.86,-2.70118e-09,-2.87605e-09,0.198722,0,8.86,8844,10.0889,1
444,0,0,8.88,-2.68172e-09,-2.85572e-09,0.198727,0,8.88,8844,10.0824,1
445,0,0,8.9,-2.66227e-09,-2.8354e-09,0.198733,0,8.9,8844,10.076,1
446,0,0,8.92,-2.64282e-09,-2.81507e-09,0.198738,0,8.92,8844,10.0696,1
447,0,0,8.94,-2.62337e-09,-2.79475e-09,0.198743,0,8.94,8844,10.0631,1
448,0,0,8.96,-2.60392e-09,-2.77442e-09,0.198748,0,8.96,8844,10.0567,1
449,0,0,8.98,-2.58447e-09,-2.7541e-09,0.198754,0,8.98,8844,10.0503,1
450,0,0,9,-2.56502e-09,-2.73377e-09,0.198759,0,9,8844,10.0438,1
451,0,0,9.02,-2.5493e-09,-2.717e-09,0.198761,0,9.02,8944,10.0374,1
452,0,0,9.04,-2.53357e-09,-2.70022e-09,0.198763,0,9.04,8944,10.031,1
453,0,0,9.06,-2.51784e-09,-2.68344e-09,0.198765,0,9.06,8944,10.0245,1
454,0,0,9.08,-2.50212e-09,-2.66667e-09,0.198767,0,9.08,8944,10.0181,1
455,0,0,9.1,-2.48639e-09,-2.64989e-09,0.198769,0,9.1,8944,10.0116,1
456,0,0,9.12,-2.47067e-09,-2.63312e-09,0.198771,0,9.12,8944,10.0052,1
457,0,0,9.14,-2.45494e-09,-2.61634e-09,0.198773,0,9.14,8944,9.99873,1
458,0,0,9.16,-2.43922e-09,-2.59957e-09,0.198775,0,9.16,8944,9.99229,1
459,0,0,9.18,-2.42349e-09,-2.58279e-09,0.198777,0,9.18,8944,9.98584,1
460,0,0,9.2,-2.40777e-09,-2.56602e-09,0.19878,0,9.2,8944,9.9794,1
461,0,0,9.22,-2.39204e-09,-2.54924e-09,0.198782,0,9.22,8944,9.97296,1
462,0,0,9.24,-2.37632e-09,-2.53247e-09,0.198784,0,9.24,8944,9.96651,1
463,0,0,9.26,-2.36059e-09,-2.51569e-09,0.198786,0,9.26,8944,9.96007,1
464,0,0,9.28,-2.34487e-09,-2.49892e-09,0.198788,0,9.28,8944,9.95362,1
465,0,0,9.3,-2.32914e-09,-2.48214e-09,0.19879,0,9.3,8944,9.94718,1
466,0,0,9.32,-2.31342e-09,-2.46537e-09,0.198792,0,9.32,8944,9.94073,1
467,0,0,9.34,-2.29769e-09,-2.44859e-09,0.198794,0,9.34,8944,9.93429,1
468,0,0,9.36,-2.28197e-09,-2.43182e-09,0.198796,0,9.36,8944,9.92784,1
469,0,0,9.38,-2.26624e-09,-2.41504e-09,0.198798,0,9.38,8944,9.9214,1
470,0,0,9.4,-2.25052e-09,-2.39827e-09,0.1988,0,9.4,8944,9.91496,1
471,0,0,9.42,-2.23479e-09,-2.38149e-09,0.198802,0,9.42,8944,9.90851,1
472,0,0,9.44,-2.21907e-09,-2.36472e-09,0.198804,0,9.44,8944,9.90207,1
473,0,0,9.46,-2.20334e-09,-2.34794e-09,0.198806,0,9.46,8944,9.89562,1
474,0,0,9.48,-2.18761e-09,-2.33116e-09,0.198808,0,9.48,8944,9.88918,1
475,0,0,9.5,-2.17189e-09,-2.31439e-09,0.19881,0,9.5,8944,9.88273,1
476,0,0,9.52,-2.15616e-09,-2.29761e-09,0.198812,0,9.52,8944,9.87629,1
477,0,0,9.54,-2.14044e-09,-2.28084e-09,0.198814,0,9.54,8944,9.86984,1
478,0,0,9.56,-2.12471e-09,-2.26406e-09,0.198816,0,9.56,8944,9.8634,1
479,0,0,9.58,-2.10899e-09,-2.24729e-09,0.198818,0,9.58,8944,9.85695,1
480,0,0,9.6,-2.09326e-09,-2.23051e-09,0.198821,0,9.6,8944,9.85051,1
481,0,0,9.62,-2.07754e-09,-2.21374e-09,0.198823,0,9.62,8944,9.84407,1
482,0,0,9.64,-2.06181e-09,-2.19696e-09,0.198825,0,9.64,8944,9.83762,1
483,0,0,9.66,-2.04609e-09,-2.18019e-09,0.198827,0,9.66,8944,9.83118,1
484,0,0,9.68,-2.03036e-09,-2.16341e-09,0.198829,0,9.68,8944,9.82473,1
485,0,0,9.7,-2.01464e-09,-2.14664e-09,0.198831,0,9.7,8944,9.81829,1
486,0,0,9.72,-1.99891e-09,-2.12986e-09,0.198833,0,9.72,8944,9.81184,1
487,0,0,9.74,-1.98319e-09,-2.11309e-09,0.198835,0,9.74,8944,9.8054,1
488,0,0,9.76,-1.96746e-09,-2.09631e-09,0.198837,0,9.76,8944,9.79895,1
489,0,0,9.78,-1.95174e-09,-2.07954e-09,0.198839,0,9.78,8944,9.79251,1
490,0,0,9.8,-1.93601e-09,-2.06276e-09,0.198841,0,9.8,8944,9.78607,1
491,0,0,9.82,-1.92029e-09,-2.04598e-09,0.198843,0,9.82,8944,9.77962,1
492,0,0,9.84,-1.90456e-09,-2.02921e-09,0.198845,0,9.84,8944,9.77318,1
493,0,0,9.86,-1.88883e-09,-2.01243e-09,0.198847,0,9.86,8944,9.76673,1
494,0,0,9.88,-1.87311e-09,-1.99566e-09,0.198849,0,9.88,8944,9.76029,1
495,0,0,9.9,-1.85738e-09,-1.97888e-09,0.198851,0,9.9,8944,9.75384,1
496,0,0,9.92,-1.84166e-09,-1.96211e-09,0.198853,0,9.92,8944,9.7474,1
497,0,0,9.94,-1.82593e-09,-1.94533e-09,0.198855,0,9.94,8944,9.74095,1
498,0,0,9.96,-1.81021e-09,-1.92856e-09,0.198857,0,9.96,8944,9.73451,1
499,0,0,9.98,-1.79448e-09,-1.91178e-09,0.198859,0,9.98,8944,9.72806,1
500,0,0,10,-1.77876e-09,-1.89501e-09,0.198861,0,10,8944,9.72162,1
501,0,0,10.02,-1.76648e-09,-1.88197e-09,0.198862,0,10.02,9044,9.71518,1
502,0,0,10.04,-1.7542e-09,-1.86894e-09,0.198863,0,10.04,9044,9.70874,1
503,0,0,10.06,-1.74192e-09,-1.85591e-09,0.198863,0,10.06,9044,9.70231,1
504,0,0,10.08,-1.72964e-09,-1.84288e-09,0.198864,0,10.08,9044,9.69587,1
505,0,0,10.1,-1.71736e-09,-1.82984e-09,0.198865,0,10.1,9044,9.68943,1
506,0,0,10.12,-1.70508e-09,-1.81681e-09,0.198865,0,10.12,9044,9.68299,1
507,0,0,10.14,-1.6928e-09,-1.80378e-09,0.198866,0,10.14,9044,9.67655,1
508,0,0,10.16,-1.68052e-09,-1.79075e-09,0.198866,0,10.16,9044,9.67012,1
509,0,0,10.18,-1.66824e-09,-1.77771e-09,0.198867,0,10.18,9044,9.66368,1
510,0,0,10.2,-1.65596e-09,-1.76468e-09,0.198868,0,10.2,9044,9.65724,1
511,0,0,10.22,-1.64368e-09,-1.75165e-09,0.198868,0,10.22,9044,9.6508,1
512,0,0,10.24,-1.6314e-09,-1.73862e-09,0.198869,0,10.24,9044,9.64436,1
513,0,0,10.26,-1.61912e-09,-1.72558e-09,0.19887,0,10.26,9044,9.63793,1
514,0,0,10.28,-1.60684e-09,-1.71255e-09,0.19887,0,10.28,9044,9.63149,1
515,0,0,10.3,-1.59456e-09,-1.69952e-09,0.198871,0,10.3,9044,9.62505,1
516,0,0,10.32,-1.58228e-09,-1.68649e-09,0.198871,0,10.32,9044,9.61861,1
517,0,0,10.34,-1.57e-09,-1.67345e-09,0.198872,0,10.34,9044,9.61217,1
518,0,0,10.36,-1.55772e-09,-1.66042e-09,0.198873,0,10.36,9044,9.60574,1
519,0,0,10.38,-1.54544e-09,-1.64739e-09,0.198873,0,10.38,9044,9.5993,1
520,0,0,10.4,-1.53316e-09,-1.63436e-09,0.198874,0,10.4,9044,9.59286,1
521,0,0,10.42,-1.52088e-09,-1.62132e-09,0.198875,0,10.42,9044,9.58642,1
522,0,0,10.44,-1.5086e-09,-1.60829e-09,0.198875,0,10.44,9044,9.57998,1
523,0,0,10.46,-1.49632e-09,-1.59526e-09,0.198876,0,10.46,9044,9.57355,1
524,0,0,10.48,-1.48404e-09,-1.58223e-09,0.198876,0,10.48,9044,9.56711,1
525,0,0,10.5,-1.47175e-09,-1.56919e-09,0.198877,0,10.5,9044,9.56067,1
526,0,0,10.52,-1.45947e-09,-1.55616e-09,0.198878,0,10.52,9044,9.55423,1
527,0,0,10.54,-1.44719e-09,-1.54313e-09,0.198878,0,10.54,9044,9.54779,1
528,0,0,10.56,-1.43491e-09,-1.53009e-09,0.198879,0,10.56,9044,9.54136,1
529,0,0,10.58,-1.42263e-09,-1.51706e-09,0.198879,0,10.58,9044,9.53492,1
530,0,0,10.6,-1.41035e-09,-1.50403e-09,0.19888,0,10.6,9044,9.52848,1
531,0,0,10.62,-1.39807e-09,-1.491e-09,0.198881,0,10.62,9044,9.52204,1
532,0,0,10.64,-1.38579e-09,-1.47796e-09,0.198881,0,10.64,9044,9.5156,1
533,0,0,10.66,-1.37351e-09,-1.46493e-09,0.198882,0,10.66,9044,9.50917,1
534,0,0,10.68,-1.36123e-09,-1.4519e-09,0.198883,0,10.68,9044,9.50273,1
535,0,0,10.7,-1.34895e-09,-1.43887e-09,0.198883,0,10.7,9044,9.49629,1
536,0,0,10.72,-1.33667e-09,-1.42583e-09,0.198884,0,10.72,9044,9.48985,1
537,0,0,10.74,-1.32439e-09,-1.4128e-09,0.198884,0,10.74,9044,9.48341,1
538,0,0,10.76,-1.31211e-09,-1.39977e-09,0.198885,0,10.76,9044,9.47698,1
539,0,0,10.78,-1.29983e-09,-1.38674e-09,0.198886,0,10.78,9044,9.47054,1
540,0,0,10.8,-1.28755e-09,-1.3737e-09,0.198886,0,10.8,9044,9.4641,1
541,0,0,10.82,-1.27527e-09,-1.36067e-09,0.198887,0,10.82,9044,9.45766,1
542,0,0,10.84,-1.26299e-09,-1.34764e-09,0.198888,0,10.84,9044,9.45122,1
543,0,0,10.86,-1.25071e-09,-1.33461e-09,0.198888,0,10.86,9044,9.44479,1
544,0,0,10.88,-1.23843e-09,-1.32157e-09,0.198889,0,10.88,9044,9.43835,1
545,0,0,10.9,-1.22615e-09,-1.30854e-09,0.198889,0,10.9,9044,9.43191,1
546,0,0,10.92,-1.21387e-09,-1.29551e-09,0.19889,0,10.92,9044,9.42547,1
547,0,0,10.94,-1.20159e-09,-1.28248e-09,0.198891,0,10.94,9044,9.41903,1
548,0,0,10.96,-1.18931e-09,-1.26944e-09,0.198891,0,10.96,9044,9.4126,1
549,0,0,10.98,-1.17703e-09,-1.25641e-09,0.198892,0,10.98,9044,9.40616,1
550,0,0,11,-1.16475e-09,-1.24338e-09,0.198893,0,11,9044,9.39972,1
551,0,0,11.02,-1.15571e-09,-1.2338e-09,0.198893,0,11.02,9144,9.39328,1
552,0,0,11.04,-1.14667e-09,-1.22423e-09,0.198893,0,11.04,9144,9.38684,1
553,0,0,11.06,-1.13763e-09,-1.21465e-09,0.198893,0,11.06,9144,9.3804,1
554,0,0,11.08,-1.12859e-09,-1.20508e-09,0.198893,0,11.08,9144,9.37396,1
555,0,0,11.1,-1.11955e-09,-1.1955e-09,0.198894,0,11.1,9144,9.36752,1
556,0,0,11.12,-1.11051e-09,-1.18593e-09,0.198894,0,11.12,9144,9.36109,1
557,0,0,11.14,-1.10147e-09,-1.17635e-09,0.198894,0,11.14,9144,9.35465,1
558,0,0,11.16,-1.09243e-09,-1.16678e-09,0.198894,0,11.16,9144,9.34821,1
559,0,0,11.18,-1.08339e-09,-1.1572e-09,0.198894,0,11.18,9144,9.34177,1
560,0,0,11.2,-1.07435e-09,-1.14763e-09,0.198895,0,11.2,9144,9.33533,1
561,0,0,11.22,-1.06531e-09,-1.13805e-09,0.198895,0,11.22,9144,9.32889,1
562,0,0,11.24,-1.05627e-09,-1.12848e-09,0.198895,0,11.24,9144,9.32245,1
563,0,0,11.26,-1.04723e-09,-1.1189e-09,0.198895,0,11.26,9144,9.31601,1
564,0,0,11.28,-1.03819e-09,-1.10933e-09,0.198895,0,11.28,9144,9.30957,1
565,0,0,11.3,-1.02915e-09,-1.09975e-09,0.198895,0,11.3,9144,9.30313,1
566,0,0,11.32,-1.02011e-09,-1.09018e-09,0.198896,0,11.32,9144,9.29669,1
567,0,0,11.34,-1.01107e-09,-1.0806e-09,0.198896,0,11.34,9144,9.29026,1
568,0,0,11.36,-1.00203e-09,-1.07103e-09,0.198896,0,11.36,9144,9.28382,1
569,0,0,11.38,-9.92992e-10,-1.06145e-09,0.198896,0,11.38,9144,9.27738,1
570,0,0,11.4,-9.83952e-10,-1.05188e-09,0.198896,0,11.4,9144,9.27094,1
571,0,0,11.42,-9.74912e-10,-1.0423e-09,0.198897,0,11.42,9144,9.2645,1
572,0,0,11.44,-9.65872e-10,-1.03273e-09,0.198897,0,11.44,9144,9.25806,1
573,0,0,11.46,-9.56832e-10,-1.02315e-09,0.198897,0,11.46,9144,9.25162,1
574,0,0,11.48,-9.47792e-10,-1.01358e-09,0.198897,0,11.48,9144,9.24518,1
575,0,0,11.5,-9.38752e-10,-1.004e-09,0.198898,0,11.5,9144,9.23874,1
576,0,0,11.52,-9.29711e-10,-9.94426e-10,0.198898,0,11.52,9144,9.2323,1
577,0,0,11.54,-9.20671e-10,-9.84851e-10,0.198898,0,11.54,9144,9.22586,1
578,0,0,11.56,-9.11631e-10,-9.75276e-10,0.198898,0,11.56,9144,9.21943,1
579,0,0,11.58,-9.02591e-10,-9.65701e-10,0.198898,0,11.58,9144,9.21299,1
580,0,0,11.6,-8.93551e-10,-9.56126e-10,0.198899,0,11.6,9144,9.20655,1
581,0,0,11.62,-8.84511e-10,-9.46551e-10,0.198899,0,11.62,9144,9.20011,1
582,0,0,11.64,-8.75471e-10,-9.36976e-10,0.198899,0,11.64,9144,9.19367,1
583,0,0,11.66,-8.66431e-10,-9.27401e-10,0.198899,0,11.66,9144,9.18723,1
584,0,0,11.68,-8.57391e-10,-9.17826e-10,0.198899,0,11.68,9144,9.18079,1
585,0,0,11.7,-8.48351e-10,-9.08251e-10,0.1989,0,11.7,9144,9.17435,1
586,0,0,11.72,-8.39311e-10,-8.98676e-10,0.1989,0,11.72,9144,9.16791,1
587,0,0,11.74,-8.30271e-10,-8.89101e-10,0.1989,0,11.74,9144,9.16147,1
588,0,0,11.76,-8.21231e-10,-8.79526e-10,0.1989,0,11.76,9144,9.15503,1
589,0,0,11.78,-8.12191e-10,-8.69951e-10,0.1989,0,11.78,9144,9.1486,1
590,0,0,11.8,-8.03151e-10,-8.60376e-10,0.198901,0,11.8,9144,9.14216,1
591,0,0,11.82,-7.94111e-10,-8.50801e-10,0.198901,0,11.82,9144,9.13572,1
592,0,0,11.84,-7.85071e-10,-8.41226e-10,0.198901,0,11.84,9144,9.12928,1
593,0,0,11.86,-7.76031e-10,-8.31651e-10,0.198901,0,11.86,9144,9.12284,1
594,0,0,11.88,-7.66991e-10,-8.22076e-10,0.198901,0,11.88,9144,9.1164,1
595,0,0,11.9,-7.57951e-10,-8.12501e-10,0.198902,0,11.9,9144,9.10996,1
596,0,0,11.92,-7.48911e-10,-8.02926e-10,0.198902,0,11.92,9144,9.10352,1
597,0,0,11.94,-7.39871e-10,-7.93351e-10,0.198902,0,11.94,9144,9.09708,1
598,0,0,11.96,-7.30831e-10,-7.83776e-10,0.198902,0,11.96,9144,9.09064,1
599,0,0,11.98,-7.21791e-10,-7.74201e-10,0.198902,0,11.98,9144,9.0842,1
600,0,0,12,-7.12751e-10,-7.64626e-10,0.198903,0,12,9144,9.07777,1
601,0,0,12.02,-7.06086e-10,-7.57626e-10,0.198903,0,12.02,9244,9.07133,1
602,0,0,12.04,-6.99421e-10,-7.50626e-10,0.198903,0,12.04,9244,9.06489,1
603,0,0,12.06,-6.92756e-10,-7.43625e-10,0.198903,0,12.06,9244,9.05845,1
604,0,0,12.08,-6.86091e-10,-7.36626e-10,0.198903,0,12.08,9244,9.05202,1
605,0,0,12.1,-6.79426e-10,-7.29626e-10,0.198903,0,12.1,9244,9.04558,1
606,0,0,12.12,-6.72761e-10,-7.22626e-10,0.198903,0,12.12,9244,9.03914,1
607,0,0,12.14,-6.66096e-10,-7.15626e-10,0.198903,0,12.14,9244,9.0327,1
608,0,0,12.16,-6.59431e-10,-7.08626e-10,0.198903,0,12.16,9244,9.02627,1
609,0,0,12.18,-6.52766e-10,-7.01626e-10,0.198903,0,12.18,9244,9.01983,1
610,0,0,12.2,-6.46101e-10,-6.94626e-10,0.198903,0,12.2,9244,9.01339,1
611,0,0,12.22,-6.39436e-10,-6.87626e-10,0.198903,0,12.22,9244,9.00696,1
612,0,0,12.24,-6.32771e-10,-6.80626e-10,0.198903,0,12.24,9244,9.00052,1
613,0,0,12.26,-6.26106e-10,-6.73625e-10,0.198903,0,12.26,9244,8.99408,1
614,0,0,12.28,-6.19441e-10,-6.66626e-10,0.198903,0,12.28,9244,8.98764,1
615,0,0,12.3,-6.12776e-10,-6.59626e-10,0.198903,0,12.3,9244,8.98121,1
616,0,0,12.32,-6.06111e-10,-6.52626e-10,0.198903,0,12.32,9244,8.97477,1
617,0,0,12.34,-5.99446e-10,-6.45625e-10,0.198903,0,12.34,9244,8.96833,1
618,0,0,12.36,-5.92781e-10,-6.38626e-10,0.198903,0,12.36,9244,8.96189,1
619,0,0,12.38,-5.86116e-10,-6.31626e-10,0.198903,0,12.38,9244,8.95546,1
620,0,0,12.4,-5.79451e-10,-6.24626e-10,0.198904,0,12.4,9244,8.94902,1
621,0,0,12.42,-5.72786e-10,-6.17626e-10,0.198904,0,12.42,9244,8.94258,1
622,0,0,12.44,-5.66121e-10,-6.10626e-10,0.198904,0,12.44,9244,8.93614,1
623,0,0,12.46,-5.59456e-10,-6.03626e-10,0.198904,0,12.46,9244,8.92971,1
624,0,0,12.48,-5.52791e-10,-5.96626e-10,0.198904,0,12.48,9244,8.92327,1
625,0,0,12.5,-5.46126e-10,-5.89626e-10,0.198904,0,12.5,9244,8.91683,1
626,0,0,12.52,-5.3946e-10,-5.82625e-10,0.198904,0,12.52,9244,8.9104,1
627,0,0,12.54,-5.32796e-10,-5.75626e-10,0.198904,0,12.54,9244,8.90396,1
628,0,0,12.56,-5.2613e-10,-5.68625e-10,0.198904,0,12.56,9244,8.89752,1
629,0,0,12.58,-5.19466e-10,-5.61626e-10,0.198904,0,12.58,9244,8.89108,1
630,0,0,12.6,-5.128e-10,-5.54625e-10,0.198904,0,12.6,9244,8.88465,1
631,0,0,12.62,-5.06136e-10,-5.47626e-10,0.198904,0,12.62,9244,8.87821,1
632,0,0,12.64,-4.9947e-10,-5.40625e-10,0.198904,0,12.64,9244,8.87177,1
633,0,0,12.66,-4.92806e-10,-5.33626e-10,0.198904,0,12.66,9244,8.86533,1
634,0,0,12.68,-4.8614e-10,-5.26625e-10,0.198904,0,12.68,9244,8.8589,1
635,0,0,12.7,-4.79476e-10,-5.19626e-10,0.198904,0,12.7,9244,8.85246,1
636,0,0,12.72,-4.7281e-10,-5.12625e-10,0.198904,0,12.72,9244,8.84602,1
637,0,0,12.74,-4.66146e-10,-5.05626e-10,0.198904,0,12.74,9244,8.83959,1
638,0,0,12.76,-4.5948e-10,-4.98625e-10,0.198904,0,12.76,9244,8.83315,1
639,0,0,12.78,-4.52816e-10,-4.91626e-10,0.198904,0,12.78,9244,8.82671,1
640,0,0,12.8,-4.4615e-10,-4.84625e-10,0.198904,0,12.8,9244,8.82027,1
641,0,0,12.82,-4.39486e-10,-4.77626e-10,0.198905,0,12.82,9244,8.81384,1
642,0,0,12.84,-4.3282e-10,-4.70625e-10,0.198905,0,12.84,9244,8.8074,1
643,0,0,12.86,-4.26156e-10,-4.63626e-10,0.198905,0,12.86,9244,8.80096,1
644,0,0,12.88,-4.1949e-10,-4.56625e-10,0.198905,0,12.88,9244,8.79452,1
645,0,0,12.9,-4.12826e-10,-4.49626e-10,0.198905,0,12.9,9244,8.78809,1
646,0,0,12.92,-4.0616e-10,-4.42625e-10,0.198905,0,12.92,9244,8.78165,1
647,0,0,12.94,-3.99496e-10,-4.35626e-10,0.198905,0,12.94,9244,8.77521,1
648,0,0,12.96,-3.9283e-10,-4.28625e-10,0.198905,0,12.96,9244,8.76877,1
649,0,0,12.98,-3.86166e-10,-4.21626e-10,0.198905,0,12.98,9244,8.76234,1
650,0,0,13,-3.795e-10,-4.14625e-10,0.198905,0,13,9244,8.7559,1
651,0,0,13.02,-3.74688e-10,-4.0959e-10,0.198905,0,13.02,9344,8.74946,1
652,0,0,13.04,-3.69875e-10,-4.04555e-10,0.198905,0,13.04,9344,8.74302,1
653,0,0,13.06,-3.65063e-10,-3.9952e-10,0.198905,0,13.06,9344,8.73659,1
654,0,0,13.08,-3.6025e-10,-3.94485e-10,0.198905,0,13.08,9344,8.73015,1
655,0,0,13.1,-3.55438e-10,-3.8945e-10,0.198905,0,13.1,9344,8.72371,1
656,0,0,13.12,-3.50625e-10,-3.84415e-10,0.198905,0,13.12,9344,8.71727,1
657,0,0,13.14,-3.45813e-10,-3.7938e-10,0.198905,0,13.14,9344,8.71084,1
658,0,0,13.16,-3.41e-10,-3.74345e-10,0.198906,0,13.16,9344,8.7044,1
659,0,0,13.18,-3.36188e-10,-3.6931e-10,0.198906,0,13.18,9344,8.69796,1
660,0,0,13.2,-3.31375e-10,-3.64275e-10,0.198906,0,13.2,9344,8.69152,1
661,0,0,13.22,-3.26563e-10,-3.5924e-10,0.198906,0,13.22,9344,8.68509,1
662,0,0,13.24,-3.2175e-10,-3.54205e-10,0.198906,0,13.24,9344,8.67865,1
663,0,0,13.26,-3.16938e-10,-3.4917e-10,0.198906,0,13.26,9344,8.67221,1
664,0,0,13.28,-3.12126e-10,-3.44136e-10,0.198906,0,13.28,9344,8.66577,1
665,0,0,13.3,-3.07313e-10,-3.391e-10,0.198906,0,13.3,9344,8.65934,1
666,0,0,13.32,-3.02501e-10,-3.34066e-10,0.198906,0,13.32,9344,8.6529,1
667,0,0,13.34,-2.97688e-10,-3.2903e-10,0.198906,0,13.34,9344,8.64646,1
668,0,0,13.36,-2.92876e-10,-3.23996e-10,0.198906,0,13.36,9344,8.64002,1
669,0,0,13.38,-2.88063e-10,-3.1896e-10,0.198906,0,13.38,9344,8.63358,1
670,0,0,13.4,-2.83251e-10,-3.13926e-10,0.198906,0,13.4,9344,8.62715,1
671,0,0,13.42,-2.78438e-10,-3.0889e-10,0.198906,0,13.42,9344,8.62071,1
672,0,0,13.44,-2.73626e-10,-3.03856e-10,0.198907,0,13.44,9344,8.61427,1
673,0,0,13.46,-2.68813e-10,-2.9882e-10,0.198907,0,13.46,9344,8.60783,1
674,0,0,13.48,-2.64001e-10,-2.93786e-10,0.198907,0,13.48,9344,8.6014,1
675,0,0,13.5,-2.59188e-10,-2.88751e-10,0.198907,0,13.5,9344,8.59496,1
676,0,0,13.52,-2.54375e-10,-2.83715e-10,0.198907,0,13.52,9344,8.58852,1
677,0,0,13.54,-2.49563e-10,-2.78681e-10,0.198907,0,13.54,9344,8.58208,1
678,0,0,13.56,-2.4475e-10,-2.73645e-10,0.198907,0,13.56,9344,8.57564,1
679,0,0,13.58,-2.39938e-10,-2.68611e-10,0.198907,0,13.58,9344,8.56921,1
680,0,0,13.6,-2.35125e-10,-2.63575e-10,0.198907,0,13.6,9344,8.56277,1
681,0,0,13.62,-2.30313e-10,-2.58541e-10,0.198907,0,13.62,9344,8.55633,1
682,0,0,13.64,-2.255e-10,-2.53505e-10,0.198907,0,13.64,9344,8.54989,1
683,0,0,13.66,-2.20688e-10,-2.48471e-10,0.198907,0,13.66,9344,8.54346,1
684,0,0,13.68,-2.15876e-10,-2.43436e-10,0.198907,0,13.68,9344,8.53702,1
685,0,0,13.7,-2.11063e-10,-2.38401e-10,0.198907,0,13.7,9344,8.53058,1
686,0,0,13.72,-2.06251e-10,-2.33366e-10,0.198908,0,13.72,9344,8.52414,1
687,0,0,13.74,-2.01438e-10,-2.28331e-10,0.198908,0,13.74,9344,8.51771,1
688,0,0,13.76,-1.96626e-10,-2.23296e-10,0.198908,0,13.76,9344,8.51127,1
689,0,0,13.78,-1.91813e-10,-2.18261e-10,0.198908,0,13.78,9344,8.50483,1
690,0,0,13.8,-1.87001e-10,-2.13226e-10,0.198908,0,13.8,9344,8.49839,1
691,0,0,13.82,-1.82188e-10,-2.08191e-10,0.198908,0,13.82,9344,8.49195,1
692,0,0,13.84,-1.77376e-10,-2.03156e-10,0.198908,0,13.84,9344,8.48552,1
693,0,0,13.86,-1.72563e-10,-1.98121e-10,0.198908,0,13.86,9344,8.47908,1
694,0,0,13.88,-1.67751e-10,-1.93086e-10,0.198908,0,13.88,9344,8.47264,1
695,0,0,13.9,-1.62938e-10,-1.88051e-10,0.198908,0,13.9,9344,8.4662,1
696,0,0,13.92,-1.58126e-10,-1.83016e-10,0.198908,0,13.92,9344,8.45977,1
697,0,0,13.94,-1.53313e-10,-1.77981e-10,0.198908,0,13.94,9344,8.45333,1
698,0,0,13.96,-1.48501e-10,-1.72946e-10,0.198908,0,13.96,9344,8.44689,1
699,0,0,13.98,-1.43688e-10,-1.67911e-10,0.198908,0,13.98,9344,8.44045,1
700,0,0,14,-1.38876e-10,-1.62876e-10,0.198908,0,14,9344,8.43402,1
701,0,0,14.02,-1.35621e-10,-1.59533e-10,0.198909,0,14.02,9444,8.42758,1
702,0,0,14.04,-1.32366e-10,-1.56191e-10,0.198909,0,14.04,9444,8.42114,1
703,0,0,14.06,-1.29111e-10,-1.52848e-10,0.198909,0,14.06,9444,8.4147,1
704,0,0,14.08,-1.25856e-10,-1.49506e-10,0.198909,0,14.08,9444,8.40827,1
705,0,0,14.1,-1.22601e-10,-1.46163e-10,0.198909,0,14.1,9444,8.40183,1
706,0,0,14.12,-1.19346e-10,-1.42821e-10,0.19891,0,14.12,9444,8.39539,1
707,0,0,14.14,-1.16091e-10,-1.39478e-10,0.19891,0,14.14,9444,8.38896,1
708,0,0,14.16,-1.12836e-10,-1.36136e-10,0.19891,0,14.16,9444,8.38252,1
709,0,0,14.18,-1.09581e-10,-1.32793e-10,0.19891,0,14.18,9444,8.37608,1
710,0,0,14.2,-1.06326e-10,-1.29451e-10,0.19891,0,14.2,9444,8.36965,1
711,0,0,14.22,-1.03071e-10,-1.26108e-10,0.198911,0,14.22,9444,8.36321,1
712,0,0,14.24,-9.98159e-11,-1.22766e-10,0.198911,0,14.24,9444,8.35677,1
713,0,0,14.26,-9.65609e-11,-1.19423e-10,0.198911,0,14.26,9444,8.35034,1
714,0,0,14.28,-9.3306e-11,-1.16081e-10,0.198911,0,14.28,9444,8.3439,1
715,0,0,14.3,-9.00509e-11,-1.12738e-10,0.198911,0,14.3,9444,8.33746,1
716,0,0,14.32,-8.6796e-11,-1.09396e-10,0.198912,0,14.32,9444,8.33103,1
717,0,0,14.34,-8.3541e-11,-1.06053e-10,0.198912,0,14.34,9444,8.32459,1
718,0,0,14.36,-8.02861e-11,-1.02711e-10,0.198912,0,14.36,9444,8.31815,1
719,0,0,14.38,-7.7031e-11,-9.93685e-11,0.198912,0,14.38,9444,8.31171,1
720,0,0,14.4,-7.37761e-11,-9.60261e-11,0.198912,0,14.4,9444,8.30528,1
721,0,0,14.42,-7.0521e-11,-9.26836e-11,0.198912,0,14.42,9444,8.29884,1
722,0,0,14.44,-6.72662e-11,-8.93412e-11,0.198913,0,14.44,9444,8.2924,1
723,0,0,14.46,-6.40111e-11,-8.59986e-11,0.198913,0,14.46,9444,8.28597,1
724,0,0,14.48,-6.07562e-11,-8.26562e-11,0.198913,0,14.48,9444,8.27953,1
725,0,0,14.5,-5.75011e-11,-7.93136e-11,0.198913,0,14.5,9444,8.27309,1
726,0,0,14.52,-5.42461e-11,-7.59711e-11,0.198913,0,14.52,9444,8.26666,1
727,0,0,14.54,-5.09912e-11,-7.26287e-11,0.198914,0,14.54,9444,8.26022,1
728,0,0,14.56,-4.77361e-11,-6.92861e-11,0.198914,0,14.56,9444,8.25378,1
729,0,0,14.58,-4.44812e-11,-6.59437e-11,0.198914,0,14.58,9444,8.24734,1
730,0,0,14.6,-4.12262e-11,-6.26012e-11,0.198914,0,14.6,9444,8.24091,1
731,0,0,14.62,-3.79713e-11,-5.92588e-11,0.198914,0,14.62,9444,8.23447,1
732,0,0,14.64,-3.47162e-11,-5.59162e-11,0.198915,0,14.64,9444,8.22803,1
733,0,0,14.66,-3.14613e-11,-5.25738e-11,0.198915,0,14.66,9444,8.2216,1
734,0,0,14.68,-2.82062e-11,-4.92312e-11,0.198915,0,14.68,9444,8.21516,1
735,0,0,14.7,-2.49513e-11,-4.58888e-11,0.198915,0,14.7,9444,8.20872,1
736,0,0,14.72,-2.16963e-11,-4.25463e-11,0.198915,0,14.72,9444,8.20229,1
737,0,0,14.74,-1.84414e-11,-3.92039e-11,0.198916,0,14.74,9444,8.19585,1
738,0,0,14.76,-1.51863e-11,-3.58613e-11,0.198916,0,14.76,9444,8.18941,1
739,0,0,14.78,-1.19314e-11,-3.25189e-11,0.198916,0,14.78,9444,8.18298,1
740,0,0,14.8,-8.67637e-12,-2.91764e-11,0.198916,0,14.8,9444,8.17654,1
741,0,0,14.82,-5.42147e-12,-2.5834e-11,0.198916,0,14.82,9444,8.1701,1
742,0,0,14.84,-2.16641e-12,-2.24914e-11,0.198916,0,14.84,9444,8.16367,1
743,0,0,14.86,1.08849e-12,-1.9149e-11,0.198917,0,14.86,9444,8.15723,1
744,0,0,14.88,4.34355e-12,-1.58065e-11,0.198917,0,14.88,9444,8.15079,1
745,0,0,14.9,7.59845e-12,-1.24641e-11,0.198917,0,14.9,9444,8.14435,1
746,0,0,14.92,1.08535e-11,-9.12149e-12,0.198917,0,14.92,9444,8.13792,1
747,0,0,14.94,1.41084e-11,-5.77909e-12,0.198917,0,14.94,9444,8.13148,1
748,0,0,14.96,1.73635e-11,-2.43653e-12,0.198918,0,14.96,9444,8.12504,1
749,0,0,14.98,2.06184e-11,9.05866e-13,0.198918,0,14.98,9444,8.11861,1
750,0,0,15,2.38734e-11,4.24843e-12,0.198918,0,15,9444,8.11217,1
751,0,0,15.02,2.60959e-11,6.51344e-12,0.198918,0,15.02,9544,8.10573,1
752,0,0,15.04,2.83183e-11,8.77835e-12,0.198919,0,15.04,9544,8.09929,1
753,0,0,15.06,3.05409e-11,1.10434e-11,0.198919,0,15.06,9544,8.09285,1
754,0,0,15.08,3.27633e-11,1.33083e-11,0.198919,0,15.08,9544,8.08641,1
755,0,0,15.1,3.49858e-11,1.55733e-11,0.19892,0,15.1,9544,8.07997,1
756,0,0,15.12,3.72082e-11,1.78382e-11,0.19892,0,15.12,9544,8.07353,1
757,0,0,15.14,3.94307e-11,2.01032e-11,0.198921,0,15.14,9544,8.06709,1
758,0,0,15.16,4.16531e-11,2.23681e-11,0.198921,0,15.16,9544,8.06066,1
759,0,0,15.18,4.38756e-11,2.46331e-11,0.198921,0,15.18,9544,8.05422,1
760,0,0,15.2,4.6098e-11,2.6898e-11,0.198922,0,15.2,9544,8.04778,1
761,0,0,15.22,4.83206e-11,2.91631e-11,0.198922,0,15.22,9544,8.04134,1
762,0,0,15.24,5.0543e-11,3.1428e-11,0.198922,0,15.24,9544,8.0349,1
763,0,0,15.26,5.27655e-11,3.3693e-11,0.198923,0,15.26,9544,8.02846,1
764,0,0,15.28,5.49879e-11,3.59579e-11,0.198923,0,15.28,9544,8.02202,1
765,0,0,15.3,5.72104e-11,3.82229e-11,0.198924,0,15.3,9544,8.01558,1
766,0,0,15.32,5.94328e-11,4.04878e-11,0.198924,0,15.32,9544,8.00914,1
767,0,0,15.34,6.16553e-11,4.27528e-11,0.198924,0,15.34,9544,8.0027,1
768,0,0,15.36,6.38778e-11,4.50177e-11,0.198925,0,15.36,9544,7.99626,1
769,0,0,15.38,6.61003e-11,4.72828e-11,0.198925,0,15.38,9544,7.98982,1
770,0,0,15.4,6.83227e-11,4.95477e-11,0.198925,0,15.4,9544,7.98338,1
771,0,0,15.42,7.05452e-11,5.18127e-11,0.198926,0,15.42,9544,7.97694,1
772,0,0,15.44,7.27676e-11,5.40776e-11,0.198926,0,15.44,9544,7.97051,1
773,0,0,15.46,7.49901e-11,5.63426e-11,0.198927,0,15.46,9544,7.96407,1
774,0,0,15.48,7.72125e-11,5.86075e-11,0.198927,0,15.48,9544,7.95763,1
775,0,0,15.5,7.9435e-11,6.08725e-11,0.198927,0,15.5,9544,7.95119,1
776,0,0,15.52,8.16576e-11,6.31376e-11,0.198928,0,15.52,9544,7.94475,1
777,0,0,15.54,8.388e-11,6.54025e-11,0.198928,0,15.54,9544,7.93831,1
778,0,0,15.56,8.61025e-11,6.76675e-11,0.198928,0,15.56,9544,7.93187,1
779,0,0,15.58,8.83249e-11,6.99324e-11,0.198929,0,15.58,9544,7.92543,1
780,0,0,15.6,9.05474e-11,7.21974e-11,0.198929,0,15.6,9544,7.91899,1
781,0,0,15.62,9.27698e-11,7.44623e-11,0.198929,0,15.62,9544,7.91255,1
782,0,0,15.64,9.49923e-11,7.67273e-11,0.19893,0,15.64,9544,7.90611,1
783,0,0,15.66,9.72147e-11,7.89922e-11,0.19893,0,15.66,9544,7.89967,1
784,0,0,15.68,9.94373e-11,8.12573e-11,0.198931,0,15.68,9544,7.89323,1
785,0,0,15.7,1.0166e-10,8.35222e-11,0.198931,0,15.7,9544,7.88679,1
786,0,0,15.72,1.03882e-10,8.57872e-11,0.198931,0,15.72,9544,7.88036,1
787,0,0,15.74,1.06105e-10,8.80521e-11,0.198932,0,15.74,9544,7.87392,1
788,0,0,15.76,1.08327e-10,9.03171e-11,0.198932,0,15.76,9544,7.86748,1
789,0,0,15.78,1.1055e-10,9.2582e-11,0.198932,0,15.78,9544,7.86104,1
790,0,0,15.8,1.12772e-10,9.4847e-11,0.198933,0,15.8,9544,7.8546,1
791,0,0,15.82,1.14994e-10,9.71119e-11,0.198933,0,15.82,9544,7.84816,1
792,0,0,15.84,1.17217e-10,9.9377e-11,0.198934,0,15.84,9544,7.84172,1
793,0,0,15.86,1.19439e-10,1.01642e-10,0.198934,0,15.86,9544,7.83528,1
794,0,0,15.88,1.21662e-10,1.03907e-10,0.198934,0,15.88,9544,7.82884,1
795,0,0,15.9,1.23884e-10,1.06172e-10,0.198935,0,15.9,9544,7.8224,1
796,0,0,15.92,1.26107e-10,1.08437e-10,0.198935,0,15.92,9544,7.81596,1
797,0,0,15.94,1.28329e-10,1.10702e-10,0.198935,0,15.94,9544,7.80952,1
798,0,0,15.96,1.30552e-10,1.12967e-10,0.198936,0,15.96,9544,7.80308,1
799,0,0,15.98,1.32774e-10,1.15232e-10,0.198936,0,15.98,9544,7.79664,1
800,0,0,16,1.34997e-10,1.17497e-10,0.198937,0,16,9544,7.79021,1
801,0,0,16.02,1.36147e-10,1.18647e-10,0.198937,0,16.02,9644,7.78377,1
802,0,0,16.04,1.37297e-10,1.19797e-10,0.198938,0,16.04,9644,7.77733,1
803,0,0,16.06,1.38446e-10,1.20946e-10,0.198939,0,16.06,9644,7.77089,1
804,0,0,16.08,1.39596e-10,1.22096e-10,0.19894,0,16.08,9644,7.76446,1
805,0,0,16.1,1.40746e-10,1.23246e-10,0.198941,0,16.1,9644,7.75802,1
806,0,0,16.12,1.41896e-10,1.24396e-10,0.198942,0,16.12,9644,7.75158,1
807,0,0,16.14,1.43046e-10,1.25546e-10,0.198942,0,16.14,9644,7.74515,1
808,0,0,16.16,1.44196e-10,1.26696e-10,0.198943,0,16.16,9644,7.73871,1
809,0,0,16.18,1.45346e-10,1.27846e-10,0.198944,0,16.18,9644,7.73227,1
810,0,0,16.2,1.46496e-10,1.28996e-10,0.198945,0,16.2,9644,7.72583,1
811,0,0,16.22,1.47646e-10,1.30146e-10,0.198946,0,16.22,9644,7.7194,1
812,0,0,16.24,1.48796e-10,1.31296e-10,0.198947,0,16.24,9644,7.71296,1
813,0,0,16.26,1.49946e-10,1.32446e-10,0.198947,0,16.26,9644,7.70652,1
814,0,0,16.28,1.51096e-10,1.33596e-10,0.198948,0,16.28,9644,7.70009,1
815,0,0,16.3,1.52246e-10,1.34746e-10,0.198949,0,16.3,9644,7.69365,1
816,0,0,16.32,1.53396e-10,1.35896e-10,0.19895,0,16.32,9644,7.68721,1
817,0,0,16.34,1.54546e-10,1.37046e-10,0.198951,0,16.34,9644,7.68078,1
818,0,0,16.36,1.55696e-10,1.38196e-10,0.198952,0,16.36,9644,7.67434,1
819,0,0,16.38,1.56846e-10,1.39346e-10,0.198952,0,16.38,9644,7.6679,1
820,0,0,16.4,1.57996e-10,1.40496e-10,0.198953,0,16.4,9644,7.66147,1
821,0,0,16.42,1.59146e-10,1.41646e-10,0.198954,0,16.42,9644,7.65503,1
822,0,0,16.44,1.60295e-10,1.42795e-10,0.198955,0,16.44,9644,7.64859,1
823,0,0,16.46,1.61445e-10,1.43945e-10,0.198956,0,16.46,9644,7.64215,1
824,0,0,16.48,1.62595e-10,1.45095e-10,0.198957,0,16.48,9644,7.63572,1
825,0,0,16.5,1.63745e-10,1.46245e-10,0.198958,0,16.5,9644,7.62928,1
826,0,0,16.52,1.64895e-10,1.47395e-10,0.198958,0,16.52,9644,7.62284,1
827,0,0,16.54,1.66045e-10,1.48545e-10,0.198959,0,16.54,9644,7.61641,1
828,0,0,16.56,1.67195e-10,1.49695e-10,0.19896,0,16.56,9644,7.60997,1
829,0,0,16.58,1.68345e-10,1.50845e-10,0.198961,0,16.58,9644,7.60353,1
830,0,0,16.6,1.69495e-10,1.51995e-10,0.198962,0,16.6,9644,7.5971,1
831,0,0,16.62,1.70645e-10,1.53145e-10,0.198963,0,16.62,9644,7.59066,1
832,0,0,16.64,1.71795e-10,1.54295e-10,0.198963,0,16.64,9644,7.58422,1
833,0,0,16.66,1.72945e-10,1.55445e-10,0.198964,0,16.66,9644,7.57778,1
834,0,0,16.68,1.74095e-10,1.56595e-10,0.198965,0,16.68,9644,7.57135,1
835,0,0,16.7,1.75245e-10,1.57745e-10,0.198966,0,16.7,9644,7.56491,1
836,0,0,16.72,1.76395e-10,1.58895e-10,0.198967,0,16.72,9644,7.55847,1
837,0,0,16.74,1.77545e-10,1.60045e-10,0.198968,0,16.74,9644,7.55204,1
838,0,0,16.76,1.78695e-10,1.61195e-10,0.198968,0,16.76,9644,7.5456,1
839,0,0,16.78,1.79845e-10,1.62345e-10,0.198969,0,16.78,9644,7.53916,1
840,0,0,16.8,1.80994e-10,1.63494e-10,0.19897,0,16.8,9644,7.53273,1
841,0,0,16.82,1.82144e-10,1.64644e-10,0.198971,0,16.82,9644,7.52629,1
842,0,0,16.84,1.83294e-10,1.65794e-10,0.198972,0,16.84,9644,7.51985,1
843,0,0,16.86,1.84444e-10,1.66944e-10,0.198973,0,16.86,9644,7.51341,1
844,0,0,16.88,1.85594e-10,1.68094e-10,0.198973,0,16.88,9644,7.50698,1
845,0,0,16.9,1.86744e-10,1.69244e-10,0.198974,0,16.9,9644,7.50054,1
846,0,0,16.92,1.87894e-10,1.70394e-10,0.198975,0,16.92,9644,7.4941,1
847,0,0,16.94,1.89044e-10,1.71544e-10,0.198976,0,16.94,9644,7.48767,1
848,0,0,16.96,1.90194e-10,1.72694e-10,0.198977,0,16.96,9644,7.48123,1
849,0,0,16.98,1.91344e-10,1.73844e-10,0.198978,0,16.98,9644,7.47479,1
850,0,0,17,1.92494e-10,1.74994e-10,0.198978,0,17,9644,7.46836,1
851,0,0,17.02,1.93869e-10,1.76144e-10,0.19898,0,17.02,9744,7.4619,1
852,0,0,17.04,1.95244e-10,1.77294e-10,0.198981,0,17.04,9744,7.45545,1
853,0,0,17.06,1.96619e-10,1.78444e-10,0.198982,0,17.06,9744,7.449,1
854,0,0,17.08,1.97994e-10,1.79594e-10,0.198984,0,17.08,9744,7.44255,1
855,0,0,17.1,1.99369e-10,1.80744e-10,0.198985,0,17.1,9744,7.4361,1
856,0,0,17.12,2.00744e-10,1.81894e-10,0.198986,0,17.12,9744,7.42965,1
857,0,0,17.14,2.02118e-10,1.83043e-10,0.198987,0,17.14,9744,7.4232,1
858,0,0,17.16,2.03493e-10,1.84193e-10,0.198989,0,17.16,9744,7.41675,1
859,0,0,17.18,2.04868e-10,1.85343e-10,0.19899,0,17.18,9744,7.4103,1
860,0,0,17.2,2.06243e-10,1.86493e-10,0.198991,0,17.2,9744,7.40385,1
861,0,0,17.22,2.07618e-10,1.87643e-10,0.198992,0,17.22,9744,7.3974,1
862,0,0,17.24,2.08993e-10,1.88793e-10,0.198994,0,17.24,9744,7.39095,1
863,0,0,17.26,2.10368e-10,1.89943e-10,0.198995,0,17.26,9744,7.3845,1
864,0,0,17.28,2.11743e-10,1.91093e-10,0.198996,0,17.28,9744,7.37805,1
865,0,0,17.3,2.13118e-10,1.92243e-10,0.198997,0,17.3,9744,7.37159,1
866,0,0,17.32,2.14493e-10,1.93393e-10,0.198999,0,17.32,9744,7.36514,1
867,0,0,17.34,2.15868e-10,1.94543e-10,0.199,0,17.34,9744,7.35869,1
868,0,0,17.36,2.17243e-10,1.95693e-10,0.199001,0,17.36,9744,7.35224,1
869,0,0,17.38,2.18617e-10,1.96842e-10,0.199002,0,17.38,9744,7.34579,1
870,0,0,17.4,2.19992e-10,1.97992e-10,0.199004,0,17.4,9744,7.33934,1
871,0,0,17.42,2.21367e-10,1.99142e-10,0.199005,0,17.42,9744,7.33289,1
872,0,0,17.44,2.22742e-10,2.00292e-10,0.199006,0,17.44,9744,7.32644,1
873,0,0,17.46,2.24117e-10,2.01442e-10,0.199007,0,17.46,9744,7.31999,1
874,0,0,17.48,2.25492e-10,2.02592e-10,0.199009,0,17.48,9744,7.31354,1
875,0,0,17.5,2.26867e-10,2.03742e-10,0.19901,0,17.5,9744,7.30709,1
876,0,0,17.52,2.28242e-10,2.04892e-10,0.199011,0,17.52,9744,7.30064,1
877,0,0,17.54,2.29617e-10,2.06042e-10,0.199013,0,17.54,9744,7.29419,1
878,0,0,17.56,2.30992e-10,2.07192e-10,0.199014,0,17.56,9744,7.28774,1
879,0,0,17.58,2.32367e-10,2.08342e-10,0.199015,0,17.58,9744,7.28128,1
880,0,0,17.6,2.33741e-10,2.09491e-10,0.199016,0,17.6,9744,7.27483,1
881,0,0,17.62,2.35116e-10,2.10641e-10,0.199018,0,17.62,9744,7.26838,1
882,0,0,17.64,2.36491e-10,2.11791e-10,0.199019,0,17.64,9744,7.26193,1
883,0,0,17.66,2.37866e-10,2.12941e-10,0.19902,0,17.66,9744,7.25548,1
884,0,0,17.68,2.39241e-10,2.14091e-10,0.199021,0,17.68,9744,7.24903,1
885,0,0,17.7,2.40616e-10,2.15241e-10,0.199023,0,17.7,9744,7.24258,1
886,0,0,17.72,2.41991e-10,2.16391e-10,0.199024,0,17.72,9744,7.23613,1
887,0,0,17.74,2.43366e-10,2.17541e-10,0.199025,0,17.74,9744,7.22968,1
888,0,0,17.76,2.44741e-10,2.18691e-10,0.199026,0,17.76,9744,7.22323,1
889,0,0,17.78,2.46116e-10,2.19841e-10,0.199028,0,17.78,9744,7.21678,1
890,0,0,17.8,2.47491e-10,2.20991e-10,0.199029,0,17.8,9744,7.21033,1
891,0,0,17.82,2.48866e-10,2.22141e-10,0.19903,0,17.82,9744,7.20388,1
892,0,0,17.84,2.5024e-10,2.2329e-10,0.199031,0,17.84,9744,7.19743,1
893,0,0,17.86,2.51615e-10,2.2444e-10,0.199033,0,17.86,9744,7.19097,1
894,0,0,17.88,2.5299e-10,2.2559e-10,0.199034,0,17.88,9744,7.18452,1
895,0,0,17.9,2.54365e-10,2.2674e-10,0.199035,0,17.9,9744,7.17807,1
896,0,0,17.92,2.5574e-10,2.2789e-10,0.199036,0,17.92,9744,7.17162,1
897,0,0,17.94,2.57115e-10,2.2904e-10,0.199038,0,17.94,9744,7.16517,1
898,0,0,17.96,2.5849e-10,2.3019e-10,0.199039,0,17.96,9744,7.15872,1
899,0,0,17.98,2.59865e-10,2.3134e-10,0.19904,0,17.98,9744,7.15227,1
900,0,0,18,2.6124e-10,2.3249e-10,0.199042,0,18,9744,7.14582,1
901,0,0,18.02,2.6309e-10,2.34365e-10,0.199044,0,18.02,9844,7.13938,1
902,0,0,18.04,2.6494e-10,2.3624e-10,0.199046,0,18.04,9844,7.13295,1
903,0,0,18.06,2.6679e-10,2.38115e-10,0.199049,0,18.06,9844,7.12651,1
904,0,0,18.08,2.6864e-10,2.3999e-10,0.199051,0,18.08,9844,7.12008,1
905,0,0,18.1,2.7049e-10,2.41865e-10,0.199054,0,18.1,9844,7.11364,1
906,0,0,18.12,2.7234e-10,2.4374e-10,0.199056,0,18.12,9844,7.1072,1
907,0,0,18.14,2.74189e-10,2.45614e-10,0.199059,0,18.14,9844,7.10077,1
908,0,0,18.16,2.76039e-10,2.47489e-10,0.199061,0,18.16,9844,7.09433,1
909,0,0,18.18,2.77889e-10,2.49364e-10,0.199064,0,18.18,9844,7.0879,1
910,0,0,18.2,2.79739e-10,2.51239e-10,0.199066,0,18.2,9844,7.08146,1
911,0,0,18.22,2.81589e-10,2.53114e-10,0.199069,0,18.22,9844,7.07503,1
912,0,0,18.24,2.83439e-10,2.54989e-10,0.199071,0,18.24,9844,7.06859,1
913,0,0,18.26,2.85289e-10,2.56864e-10,0.199074,0,18.26,9844,7.06215,1
914,0,0,18.28,2.87139e-10,2.58739e-10,0.199076,0,18.28,9844,7.05572,1
915,0,0,18.3,2.88989e-10,2.60614e-10,0.199079,0,18.3,9844,7.04928,1
916,0,0,18.32,2.90839e-10,2.62489e-10,0.199081,0,18.32,9844,7.04285,1
917,0,0,18.34,2.92689e-10,2.64364e-10,0.199084,0,18.34,9844,7.03641,1
918,0,0,18.36,2.94539e-10,2.66239e-10,0.199086,0,18.36,9844,7.02998,1
919,0,0,18.38,2.96389e-10,2.68114e-10,0.199089,0,18.38,9844,7.02354,1
920,0,0,18.4,2.98239e-10,2.69989e-10,0.199091,0,18.4,9844,7.0171,1
921,0,0,18.42,3.00089e-10,2.71864e-10,0.199094,0,18.42,9844,7.01067,1
922,0,0,18.44,3.01939e-10,2.73739e-10,0.199096,0,18.44,9844,7.00423,1
923,0,0,18.46,3.03789e-10,2.75614e-10,0.199099,0,18.46,9844,6.9978,1
924,0,0,18.48,3.05639e-10,2.77489e-10,0.199101,0,18.48,9844,6.99136,1
925,0,0,18.5,3.07489e-10,2.79364e-10,0.199104,0,18.5,9844,6.98492,1
926,0,0,18.52,3.09339e-10,2.81239e-10,0.199106,0,18.52,9844,6.97849,1
927,0,0,18.54,3.11189e-10,2.83114e-10,0.199108,0,18.54,9844,6.97205,1
928,0,0,18.56,3.13038e-10,2.84988e-10,0.199111,0,18.56,9844,6.96562,1
929,0,0,18.58,3.14888e-10,2.86863e-10,0.199113,0,18.58,9844,6.95918,1
930,0,0,18.6,3.16738e-10,2.88738e-10,0.199116,0,18.6,9844,6.95275,1
931,0,0,18.62,3.18588e-10,2.90613e-10,0.199118,0,18.62,9844,6.94631,1
932,0,0,18.64,3.20438e-10,2.92488e-10,0.199121,0,18.64,9844,6.93987,1
933,0,0,18.66,3.22288e-10,2.94363e-10,0.199123,0,18.66,9844,6.93344,1
934,0,0,18.68,3.24138e-10,2.96238e-10,0.199126,0,18.68,9844,6.927,1
935,0,0,18.7,3.25988e-10,2.98113e-10,0.199128,0,18.7,9844,6.92057,1
936,0,0,18.72,3.27838e-10,2.99988e-10,0.199131,0,18.72,9844,6.91413,1
937,0,0,18.74,3.29688e-10,3.01863e-10,0.199133,0,18.74,9844,6.9077,1
938,0,0,18.76,3.31538e-10,3.03738e-10,0.199136,0,18.76,9844,6.90126,1
939,0,0,18.78,3.33388e-10,3.05613e-10,0.199138,0,18.78,9844,6.89482,1
940,0,0,18.8,3.35238e-10,3.07488e-10,0.199141,0,18.8,9844,6.88839,1
941,0,0,18.82,3.37088e-10,3.09363e-10,0.199143,0,18.82,9844,6.88195,1
942,0,0,18.84,3.38938e-10,3.11238e-10,0.199146,0,18.84,9844,6.87552,1
943,0,0,18.86,3.40788e-10,3.13113e-10,0.199148,0,18.86,9844,6.86908,1
944,0,0,18.88,3.42638e-10,3.14988e-10,0.199151,0,18.88,9844,6.86265,1
945,0,0,18.9,3.44488e-10,3.16863e-10,0.199153,0,18.9,9844,6.85621,1
946,0,0,18.92,3.46338e-10,3.18738e-10,0.199156,0,18.92,9844,6.84977,1
947,0,0,18.94,3.48188e-10,3.20613e-10,0.199158,0,18.94,9844,6.84334,1
948,0,0,18.96,3.50037e-10,3.22487e-10,0.199161,0,18.96,9844,6.8369,1
949,0,0,18.98,3.51887e-10,3.24362e-10,0.199163,0,18.98,9844,6.83047,1
950,0,0,19,3.53737e-10,3.26237e-10,0.199165,0,19,9844,6.82403,1
951,0,0,19.02,3.54462e-10,3.27162e-10,0.199167,0,19.02,9944,6.81752,1
952,0,0,19.04,3.55187e-10,3.28087e-10,0.199169,0,19.04,9944,6.811,1
953,0,0,19.06,3.55912e-10,3.29012e-10,0.199171,0,19.06,9944,6.80449,1
954,0,0,19.08,3.56637e-10,3.29937e-10,0.199173,0,19.08,9944,6.79798,1
955,0,0,19.1,3.57362e-10,3.30862e-10,0.199175,0,19.1,9944,6.79146,1
956,0,0,19.12,3.58087e-10,3.31787e-10,0.199176,0,19.12,9944,6.78495,1
957,0,0,19.14,3.58812e-10,3.32712e-10,0.199178,0,19.14,9944,6.77843,1
958,0,0,19.16,3.59537e-10,3.33637e-10,0.19918,0,19.16,9944,6.77192,1
959,0,0,19.18,3.60262e-10,3.34562e-10,0.199182,0,19.18,9944,6.76541,1
960,0,0,19.2,3.60987e-10,3.35487e-10,0.199184,0,19.2,9944,6.75889,1
961,0,0,19.22,3.61712e-10,3.36412e-10,0.199186,0,19.22,9944,6.75238,1
962,0,0,19.24,3.62437e-10,3.37337e-10,0.199187,0,19.24,9944,6.74587,1
963,0,0,19.26,3.63162e-10,3.38262e-10,0.199189,0,19.26,9944,6.73935,1
964,0,0,19.28,3.63887e-10,3.39187e-10,0.199191,0,19.28,9944,6.73284,1
965,0,0,19.3,3.64612e-10,3.40112e-10,0.199193,0,19.3,9944,6.72633,1
966,0,0,19.32,3.65337e-10,3.41037e-10,0.199195,0,19.32,9944,6.71981,1
967,0,0,19.34,3.66062e-10,3.41962e-10,0.199197,0,19.34,9944,6.7133,1
968,0,0,19.36,3.66787e-10,3.42887e-10,0.199198,0,19.36,9944,6.70679,1
969,0,0,19.38,3.67512e-10,3.43812e-10,0.1992,0,19.38,9944,6.70027,1
970,0,0,19.4,3.68237e-10,3.44737e-10,0.199202,0,19.4,9944,6.69376,1
971,0,0,19.42,3.68962e-10,3.45662e-10,0.199204,0,19.42,9944,6.68724,1
972,0,0,19.44,3.69687e-10,3.46587e-10,0.199206,0,19.44,9944,6.68073,1
973,0,0,19.46,3.70412e-10,3.47512e-10,0.199208,0,19.46,9944,6.67422,1
974,0,0,19.48,3.71137e-10,3.48437e-10,0.199209,0,19.48,9944,6.6677,1
975,0,0,19.5,3.71862e-10,3.49362e-10,0.199211,0,19.5,9944,6.66119,1
976,0,0,19.52,3.72587e-10,3.50287e-10,0.199213,0,19.52,9944,6.65468,1
977,0,0,19.54,3.73312e-10,3.51212e-10,0.199215,0,19.54,9944,6.64816,1
978,0,0,19.56,3.74037e-10,3.52137e-10,0.199217,0,19.56,9944,6.64165,1
979,0,0,19.58,3.74762e-10,3.53062e-10,0.199219,0,19.58,9944,6.63514,1
980,0,0,19.6,3.75487e-10,3.53987e-10,0.19922,0,19.6,9944,6.62862,1
981,0,0,19.62,3.76212e-10,3.54912e-10,0.199222,0,19.62,9944,6.62211,1
982,0,0,19.64,3.76937e-10,3.55837e-10,0.199224,0,19.64,9944,6.61559,1
983,0,0,19.66,3.77662e-10,3.56762e-10,0.199226,0,19.66,9944,6.60908,1
984,0,0,19.68,3.78387e-10,3.57687e-10,0.199228,0,19.68,9944,6.60257,1
985,0,0,19.7,3.79112e-10,3.58612e-10,0.19923,0,19.7,9944,6.59605,1
986,0,0,19.72,3.79837e-10,3.59537e-10,0.199231,0,19.72,9944,6.58954,1
987,0,0,19.74,3.80562e-10,3.60462e-10,0.199233,0,19.74,9944,6.58303,1
988,0,0,19.76,3.81287e-10,3.61387e-10,0.199235,0,19.76,9944,6.57651,1
989,0,0,19.78,3.82012e-10,3.62312e-10,0.199237,0,19.78,9944,6.57,1
990,0,0,19.8,3.82737e-10,3.63237e-10,0.199239,0,19.8,9944,6.56349,1
991,0,0,19.82,3.83462e-10,3.64162e-10,0.199241,0,19.82,9944,6.55697,1
992,0,0,19.84,3.84187e-10,3.65087e-10,0.199242,0,19.84,9944,6.55046,1
993,0,0,19.86,3.84912e-10,3.66012e-10,0.199244,0,19.86,9944,6.54395,1
994,0,0,19.88,3.85637e-10,3.66937e-10,0.199246,0,19.88,9944,6.53743,1
995,0,0,19.9,3.86362e-10,3.67862e-10,0.199248,0,19.9,9944,6.53092,1
996,0,0,19.92,3.87087e-10,3.68787e-10,0.19925,0,19.92,9944,6.5244,1
997,0,0,19.94,3.87812e-10,3.69712e-10,0.199252,0,19.94,9944,6.51789,1
998,0,0,19.96,3.88537e-10,3.70637e-10,0.199253,0,19.96,9944,6.51138,1
999,0,0,19.98,3.89262e-10,3.71562e-10,0.199255,0,19.98,9944,6.50486,1
1000,0,0,20,3.89987e-10,3.72487e-10,0.199257,0,20,9944,6.49835,1
