0,0,0,0,0,0,0.1,0,0,8044,12.0345,1
1,0,0,0.02,-1.50056e-10,-1.50056e-10,0.100442,0,0.02,8044,12.0342,1
2,0,0,0.04,-3.00112e-10,-3.00112e-10,0.100883,0,0.04,8044,12.0339,1
3,0,0,0.06,-4.50168e-10,-4.50168e-10,0.101325,0,0.06,8044,12.0335,1
4,0,0,0.08,-6.00224e-10,-6.00224e-10,0.101767,0,0.08,8044,12.0332,1
5,0,0,0.1,-7.5028e-10,-7.5028e-10,0.102208,0,0.1,8044,12.0329,1
6,0,0,0.12,-9.00336e-10,-9.00336e-10,0.10265,0,0.12,8044,12.0326,1
7,0,0,0.14,-1.05039e-09,-1.05039e-09,0.103092,0,0.14,8044,12.0323,1
8,0,0,0.16,-1.20045e-09,-1.20045e-09,0.103533,0,0.16,8044,12.032,1
9,0,0,0.18,-1.3505e-09,-1.3505e-09,0.103975,0,0.18,8044,12.0316,1
10,0,0,0.2,-1.50056e-09,-1.50056e-09,0.104417,0,0.2,8044,12.0313,1
11,0,0,0.22,-1.65062e-09,-1.65062e-09,0.104858,0,0.22,8044,12.031,1
12,0,0,0.24,-1.80067e-09,-1.80067e-09,0.1053,0,0.24,8044,12.0307,1
13,0,0,0.26,-1.95073e-09,-1.95073e-09,0.105742,0,0.26,8044,12.0304,1
14,0,0,0.28,-2.10078e-09,-2.10078e-09,0.106183,0,0.28,8044,12.03,1
15,0,0,0.3,-2.25084e-09,-2.25084e-09,0.106625,0,0.3,8044,12.0297,1
16,0,0,0.32,-2.4009e-09,-2.4009e-09,0.107067,0,0.32,8044,12.0294,1
17,0,0,0.34,-2.55095e-09,-2.55095e-09,0.107508,0,0.34,8044,12.0291,1
18,0,0,0.36,-2.70101e-09,-2.70101e-09,0.10795,0,0.36,8044,12.0288,1
19,0,0,0.38,-2.85106e-09,-2.85106e-09,0.108392,0,0.38,8044,12.0285,1
20,0,0,0.4,-3.00112e-09,-3.00112e-09,0.108833,0,0.4,8044,12.0281,1
21,0,0,0.42,-3.15118e-09,-3.15118e-09,0.109275,0,0.42,8044,12.0278,1
22,0,0,0.44,-3.30123e-09,-3.30123e-09,0.109717,0,0.44,8044,12.0275,1
23,0,0,0.46,-3.45129e-09,-3.45129e-09,0.110158,0,0.46,8044,12.0272,1
24,0,0,0.48,-3.60134e-09,-3.60134e-09,0.1106,0,0.48,8044,12.0269,1
25,0,0,0.5,-3.7514e-09,-3.7514e-09,0.111042,0,0.5,8044,12.0266,1
26,0,0,0.52,-3.90146e-09,-3.90146e-09,0.111483,0,0.52,8044,12.0262,1
27,0,0,0.54,-4.05151e-09,-4.05151e-09,0.111925,0,0.54,8044,12.0259,1
28,0,0,0.56,-4.20157e-09,-4.20157e-09,0.112367,0,0.56,8044,12.0256,1
29,0,0,0.58,-4.35162e-09,-4.35162e-09,0.112808,0,0.58,8044,12.0253,1
30,0,0,0.6,-4.50168e-09,-4.50168e-09,0.11325,0,0.6,8044,12.025,1
31,0,0,0.62,-4.65174e-09,-4.65174e-09,0.113692,0,0.62,8044,12.0246,1
32,0,0,0.64,-4.80179e-09,-4.80179e-09,0.114133,0,0.64,8044,12.0243,1
33,0,0,0.66,-4.95185e-09,-4.95185e-09,0.114575,0,0.66,8044,12.024,1
34,0,0,0.68,-5.10191e-09,-5.10191e-09,0.115017,0,0.68,8044,12.0237,1
35,0,0,0.7,-5.25196e-09,-5.25196e-09,0.115458,0,0.7,8044,12.0234,1
36,0,0,0.72,-5.40202e-09,-5.40202e-09,0.1159,0,0.72,8044,12.0231,1
37,0,0,0.74,-5.55207e-09,-5.55207e-09,0.116342,0,0.74,8044,12.0227,1
38,0,0,0.76,-5.70213e-09,-5.70213e-09,0.116783,0,0.76,8044,12.0224,1
39,0,0,0.78,-5.85218e-09,-5.85218e-09,0.117225,0,0.78,8044,12.0221,1
40,0,0,0.8,-6.00224e-09,-6.00224e-09,0.117667,0,0.8,8044,12.0218,1
41,0,0,0.82,-6.1523e-09,-6.1523e-09,0.118108,0,0.82,8044,12.0215,1
42,0,0,0.84,-6.30235e-09,-6.30235e-09,0.11855,0,0.84,8044,12.0211,1
43,0,0,0.86,-6.45241e-09,-6.45241e-09,0.118992,0,0.86,8044,12.0208,1
44,0,0,0.88,-6.60247e-09,-6.60247e-09,0.119433,0,0.88,8044,12.0205,1
45,0,0,0.9,-6.75252e-09,-6.75252e-09,0.119875,0,0.9,8044,12.0202,1
46,0,0,0.92,-6.90258e-09,-6.90258e-09,0.120317,0,0.92,8044,12.0199,1
47,0,0,0.94,-7.05263e-09,-7.05263e-09,0.120758,0,0.94,8044,12.0196,1
48,0,0,0.96,-7.20269e-09,-7.20269e-09,0.1212,0,0.96,8044,12.0192,1
49,0,0,0.98,-7.35275e-09,-7.35275e-09,0.121642,0,0.98,8044,12.0189,1
50,0,0,1,-7.5028e-09,-7.5028e-09,0.122084,0,1,8044,12.0186,1
51,0,0,1.02,-7.5528e-09,-7.5528e-09,0.12264,0,1.02,8144,12.0175,1
52,0,0,1.04,-7.6028e-09,-7.6028e-09,0.123196,0,1.04,8144,12.0165,1
53,0,0,1.06,-7.6528e-09,-7.6528e-09,0.123752,0,1.06,8144,12.0154,1
54,0,0,1.08,-7.7028e-09,-7.7028e-09,0.124308,0,1.08,8144,12.0143,1
55,0,0,1.1,-7.7528e-09,-7.7528e-09,0.124865,0,1.1,8144,12.0133,1
56,0,0,1.12,-7.8028e-09,-7.8028e-09,0.125421,0,1.12,8144,12.0122,1
57,0,0,1.14,-7.8528e-09,-7.8528e-09,0.125977,0,1.14,8144,12.0111,1
58,0,0,1.16,-7.9028e-09,-7.9028e-09,0.126533,0,1.16,8144,12.0101,1
59,0,0,1.18,-7.9528e-09,-7.9528e-09,0.12709,0,1.18,8144,12.009,1
60,0,0,1.2,-8.0028e-09,-8.0028e-09,0.127646,0,1.2,8144,12.008,1
61,0,0,1.22,-8.0528e-09,-8.0528e-09,0.128202,0,1.22,8144,12.0069,1
62,0,0,1.24,-8.1028e-09,-8.1028e-09,0.128758,0,1.24,8144,12.0058,1
63,0,0,1.26,-8.1528e-09,-8.1528e-09,0.129315,0,1.26,8144,12.0048,1
64,0,0,1.28,-8.2028e-09,-8.2028e-09,0.129871,0,1.28,8144,12.0037,1
65,0,0,1.3,-8.2528e-09,-8.2528e-09,0.130427,0,1.3,8144,12.0026,1
66,0,0,1.32,-8.3028e-09,-8.3028e-09,0.130983,0,1.32,8144,12.0016,1
67,0,0,1.34,-8.3528e-09,-8.3528e-09,0.13154,0,1.34,8144,12.0005,1
68,0,0,1.36,-8.4028e-09,-8.4028e-09,0.132096,0,1.36,8144,11.9994,1
69,0,0,1.38,-8.4528e-09,-8.4528e-09,0.132652,0,1.38,8144,11.9984,1
70,0,0,1.4,-8.5028e-09,-8.5028e-09,0.133208,0,1.4,8144,11.9973,1
71,0,0,1.42,-8.5528e-09,-8.5528e-09,0.133765,0,1.42,8144,11.9962,1
72,0,0,1.44,-8.6028e-09,-8.6028e-09,0.134321,0,1.44,8144,11.9952,1
73,0,0,1.46,-8.6528e-09,-8.6528e-09,0.134877,0,1.46,8144,11.9941,1
74,0,0,1.48,-8.7028e-09,-8.7028e-09,0.135433,0,1.48,8144,11.993,1
75,0,0,1.5,-8.7528e-09,-8.7528e-09,0.13599,0,1.5,8144,11.992,1
76,0,0,1.52,-8.8028e-09,-8.8028e-09,0.136546,0,1.52,8144,11.9909,1
77,0,0,1.54,-8.8528e-09,-8.8528e-09,0.137102,0,1.54,8144,11.9898,1
78,0,0,1.56,-8.9028e-09,-8.9028e-09,0.137658,0,1.56,8144,11.9888,1
79,0,0,1.58,-8.9528e-09,-8.9528e-09,0.138214,0,1.58,8144,11.9877,1
80,0,0,1.6,-9.0028e-09,-9.0028e-09,0.138771,0,1.6,8144,11.9867,1
81,0,0,1.62,-9.0528e-09,-9.0528e-09,0.139327,0,1.62,8144,11.9856,1
82,0,0,1.64,-9.1028e-09,-9.1028e-09,0.139883,0,1.64,8144,11.9845,1
83,0,0,1.66,-9.1528e-09,-9.1528e-09,0.140439,0,1.66,8144,11.9835,1
84,0,0,1.68,-9.2028e-09,-9.2028e-09,0.140996,0,1.68,8144,11.9824,1
85,0,0,1.7,-9.2528e-09,-9.2528e-09,0.141552,0,1.7,8144,11.9813,1
86,0,0,1.72,-9.3028e-09,-9.3028e-09,0.142108,0,1.72,8144,11.9803,1
87,0,0,1.74,-9.3528e-09,-9.3528e-09,0.142664,0,1.74,8144,11.9792,1
88,0,0,1.76,-9.4028e-09,-9.4028e-09,0.143221,0,1.76,8144,11.9781,1
89,0,0,1.78,-9.4528e-09,-9.4528e-09,0.143777,0,1.78,8144,11.9771,1
90,0,0,1.8,-9.5028e-09,-9.5028e-09,0.144333,0,1.8,8144,11.976,1
91,0,0,1.82,-9.5528e-09,-9.5528e-09,0.144889,0,1.82,8144,11.9749,1
92,0,0,1.84,-9.6028e-09,-9.6028e-09,0.145446,0,1.84,8144,11.9739,1
93,0,0,1.86,-9.6528e-09,-9.6528e-09,0.146002,0,1.86,8144,11.9728,1
94,0,0,1.88,-9.7028e-09,-9.7028e-09,0.146558,0,1.88,8144,11.9717,1
95,0,0,1.9,-9.7528e-09,-9.7528e-09,0.147114,0,1.9,8144,11.9707,1
96,0,0,1.92,-9.8028e-09,-9.8028e-09,0.147671,0,1.92,8144,11.9696,1
97,0,0,1.94,-9.8528e-09,-9.8528e-09,0.148227,0,1.94,8144,11.9685,1
98,0,0,1.96,-9.9028e-09,-9.9028e-09,0.148783,0,1.96,8144,11.9675,1
99,0,0,1.98,-9.9528e-09,-9.9528e-09,0.149339,0,1.98,8144,11.9664,1
100,0,0,2,-1.00028e-08,-1.00028e-08,0.149896,0,2,8144,11.9654,1
101,0,0,2.02,-9.95278e-09,-9.95278e-09,0.150332,0,2.02,8244,11.9617,1
102,0,0,2.04,-9.90277e-09,-9.90277e-09,0.150769,0,2.04,8244,11.958,1
103,0,0,2.06,-9.85275e-09,-9.85275e-09,0.151205,0,2.06,8244,11.9543,1
104,0,0,2.08,-9.80274e-09,-9.80274e-09,0.151642,0,2.08,8244,11.9506,1
105,0,0,2.1,-9.75272e-09,-9.75272e-09,0.152079,0,2.1,8244,11.9469,1
106,0,0,2.12,-9.7027e-09,-9.7027e-09,0.152515,0,2.12,8244,11.9433,1
107,0,0,2.14,-9.65269e-09,-9.65269e-09,0.152952,0,2.14,8244,11.9396,1
108,0,0,2.16,-9.60267e-09,-9.60267e-09,0.153388,0,2.16,8244,11.9359,1
109,0,0,2.18,-9.55266e-09,-9.55266e-09,0.153825,0,2.18,8244,11.9322,1
110,0,0,2.2,-9.50264e-09,-9.50264e-09,0.154262,0,2.2,8244,11.9285,1
111,0,0,2.22,-9.45262e-09,-9.45262e-09,0.154698,0,2.22,8244,11.9249,1
112,0,0,2.24,-9.40261e-09,-9.40261e-09,0.155135,0,2.24,8244,11.9212,1
113,0,0,2.26,-9.35259e-09,-9.35259e-09,0.155572,0,2.26,8244,11.9175,1
114,0,0,2.28,-9.30258e-09,-9.30258e-09,0.156008,0,2.28,8244,11.9138,1
115,0,0,2.3,-9.25256e-09,-9.25256e-09,0.156445,0,2.3,8244,11.9101,1
116,0,0,2.32,-9.20254e-09,-9.20254e-09,0.156881,0,2.32,8244,11.9065,1
117,0,0,2.34,-9.15253e-09,-9.15253e-09,0.157318,0,2.34,8244,11.9028,1
118,0,0,2.36,-9.10251e-09,-9.10251e-09,0.157755,0,2.36,8244,11.8991,1
119,0,0,2.38,-9.0525e-09,-9.0525e-09,0.158191,0,2.38,8244,11.8954,1
120,0,0,2.4,-9.00248e-09,-9.00248e-09,0.158628,0,2.4,8244,11.8917,1
121,0,0,2.42,-8.95246e-09,-8.95246e-09,0.159065,0,2.42,8244,11.888,1
122,0,0,2.44,-8.90245e-09,-8.90245e-09,0.159501,0,2.44,8244,11.8844,1
123,0,0,2.46,-8.85243e-09,-8.85243e-09,0.159938,0,2.46,8244,11.8807,1
124,0,0,2.48,-8.80242e-09,-8.80242e-09,0.160374,0,2.48,8244,11.877,1
125,0,0,2.5,-8.7524e-09,-8.7524e-09,0.160811,0,2.5,8244,11.8733,1
126,0,0,2.52,-8.70238e-09,-8.70238e-09,0.161248,0,2.52,8244,11.8696,1
127,0,0,2.54,-8.65237e-09,-8.65237e-09,0.161684,0,2.54,8244,11.866,1
128,0,0,2.56,-8.60235e-09,-8.60235e-09,0.162121,0,2.56,8244,11.8623,1
129,0,0,2.58,-8.55234e-09,-8.55234e-09,0.162557,0,2.58,8244,11.8586,1
130,0,0,2.6,-8.50232e-09,-8.50232e-09,0.162994,0,2.6,8244,11.8549,1
131,0,0,2.62,-8.4523e-09,-8.4523e-09,0.163431,0,2.62,8244,11.8512,1
132,0,0,2.64,-8.40229e-09,-8.40229e-09,0.163867,0,2.64,8244,11.8476,1
133,0,0,2.66,-8.35227e-09,-8.35227e-09,0.164304,0,2.66,8244,11.8439,1
134,0,0,2.68,-8.30226e-09,-8.30226e-09,0.164741,0,2.68,8244,11.8402,1
135,0,0,2.7,-8.25224e-09,-8.25224e-09,0.165177,0,2.7,8244,11.8365,1
136,0,0,2.72,-8.20222e-09,-8.20222e-09,0.165614,0,2.72,8244,11.8328,1
137,0,0,2.74,-8.15221e-09,-8.15221e-09,0.16605,0,2.74,8244,11.8292,1
138,0,0,2.76,-8.10219e-09,-8.10219e-09,0.166487,0,2.76,8244,11.8255,1
139,0,0,2.78,-8.05218e-09,-8.05218e-09,0.166924,0,2.78,8244,11.8218,1
140,0,0,2.8,-8.00216e-09,-8.00216e-09,0.16736,0,2.8,8244,11.8181,1
141,0,0,2.82,-7.95214e-09,-7.95214e-09,0.167797,0,2.82,8244,11.8144,1
142,0,0,2.84,-7.90213e-09,-7.90213e-09,0.168234,0,2.84,8244,11.8107,1
143,0,0,2.86,-7.85211e-09,-7.85211e-09,0.16867,0,2.86,8244,11.8071,1
144,0,0,2.88,-7.80209e-09,-7.80209e-09,0.169107,0,2.88,8244,11.8034,1
145,0,0,2.9,-7.75208e-09,-7.75208e-09,0.169543,0,2.9,8244,11.7997,1
146,0,0,2.92,-7.70206e-09,-7.70206e-09,0.16998,0,2.92,8244,11.796,1
147,0,0,2.94,-7.65205e-09,-7.65205e-09,0.170417,0,2.94,8244,11.7923,1
148,0,0,2.96,-7.60203e-09,-7.60203e-09,0.170853,0,2.96,8244,11.7887,1
149,0,0,2.98,-7.55202e-09,-7.55202e-09,0.17129,0,2.98,8244,11.785,1
150,0,0,3,-7.502e-09,-7.502e-09,0.171726,0,3,8244,11.7813,1
151,0,0,3.02,-7.47698e-09,-7.48198e-09,0.172,0,3.02,8344,11.7757,1
152,0,0,3.04,-7.45197e-09,-7.46197e-09,0.172273,0,3.04,8344,11.7701,1
153,0,0,3.06,-7.42695e-09,-7.44195e-09,0.172547,0,3.06,8344,11.7645,1
154,0,0,3.08,-7.40193e-09,-7.42193e-09,0.17282,0,3.08,8344,11.7588,1
155,0,0,3.1,-7.37692e-09,-7.40192e-09,0.173093,0,3.1,8344,11.7532,1
156,0,0,3.12,-7.3519e-09,-7.3819e-09,0.173367,0,3.12,8344,11.7476,1
157,0,0,3.14,-7.32688e-09,-7.36188e-09,0.17364,0,3.14,8344,11.742,1
158,0,0,3.16,-7.30187e-09,-7.34187e-09,0.173913,0,3.16,8344,11.7364,1
159,0,0,3.18,-7.27685e-09,-7.32185e-09,0.174187,0,3.18,8344,11.7308,1
160,0,0,3.2,-7.25183e-09,-7.30183e-09,0.17446,0,3.2,8344,11.7251,1
161,0,0,3.22,-7.22682e-09,-7.28182e-09,0.174733,0,3.22,8344,11.7195,1
162,0,0,3.24,-7.2018e-09,-7.2618e-09,0.175007,0,3.24,8344,11.7139,1
163,0,0,3.26,-7.17678e-09,-7.24178e-09,0.17528,0,3.26,8344,11.7083,1
164,0,0,3.28,-7.15177e-09,-7.22177e-09,0.175554,0,3.28,8344,11.7027,1
165,0,0,3.3,-7.12675e-09,-7.20175e-09,0.175827,0,3.3,8344,11.6971,1
166,0,0,3.32,-7.10173e-09,-7.18173e-09,0.1761,0,3.32,8344,11.6914,1
167,0,0,3.34,-7.07672e-09,-7.16172e-09,0.176374,0,3.34,8344,11.6858,1
168,0,0,3.36,-7.0517e-09,-7.1417e-09,0.176647,0,3.36,8344,11.6802,1
169,0,0,3.38,-7.02668e-09,-7.12168e-09,0.17692,0,3.38,8344,11.6746,1
170,0,0,3.4,-7.00167e-09,-7.10167e-09,0.177194,0,3.4,8344,11.669,1
171,0,0,3.42,-6.97665e-09,-7.08165e-09,0.177467,0,3.42,8344,11.6634,1
172,0,0,3.44,-6.95163e-09,-7.06163e-09,0.17774,0,3.44,8344,11.6577,1
173,0,0,3.46,-6.92662e-09,-7.04162e-09,0.178014,0,3.46,8344,11.6521,1
174,0,0,3.48,-6.9016e-09,-7.0216e-09,0.178287,0,3.48,8344,11.6465,1
175,0,0,3.5,-6.87658e-09,-7.00158e-09,0.17856,0,3.5,8344,11.6409,1
176,0,0,3.52,-6.85157e-09,-6.98157e-09,0.178834,0,3.52,8344,11.6353,1
177,0,0,3.54,-6.82655e-09,-6.96155e-09,0.179107,0,3.54,8344,11.6297,1
178,0,0,3.56,-6.80153e-09,-6.94153e-09,0.179381,0,3.56,8344,11.6241,1
179,0,0,3.58,-6.77652e-09,-6.92152e-09,0.179654,0,3.58,8344,11.6184,1
180,0,0,3.6,-6.7515e-09,-6.9015e-09,0.179927,0,3.6,8344,11.6128,1
181,0,0,3.62,-6.72648e-09,-6.88148e-09,0.180201,0,3.62,8344,11.6072,1
182,0,0,3.64,-6.70147e-09,-6.86147e-09,0.180474,0,3.64,8344,11.6016,1
183,0,0,3.66,-6.67645e-09,-6.84145e-09,0.180747,0,3.66,8344,11.596,1
184,0,0,3.68,-6.65143e-09,-6.82143e-09,0.181021,0,3.68,8344,11.5904,1
185,0,0,3.7,-6.62642e-09,-6.80142e-09,0.181294,0,3.7,8344,11.5847,1
186,0,0,3.72,-6.6014e-09,-6.7814e-09,0.181567,0,3.72,8344,11.5791,1
187,0,0,3.74,-6.57638e-09,-6.76138e-09,0.181841,0,3.74,8344,11.5735,1
188,0,0,3.76,-6.55137e-09,-6.74137e-09,0.182114,0,3.76,8344,11.5679,1
189,0,0,3.78,-6.52635e-09,-6.72135e-09,0.182388,0,3.78,8344,11.5623,1
190,0,0,3.8,-6.50133e-09,-6.70133e-09,0.182661,0,3.8,8344,11.5567,1
191,0,0,3.82,-6.47632e-09,-6.68132e-09,0.182934,0,3.82,8344,11.551,1
192,0,0,3.84,-6.4513e-09,-6.6613e-09,0.183208,0,3.84,8344,11.5454,1
193,0,0,3.86,-6.42628e-09,-6.64128e-09,0.183481,0,3.86,8344,11.5398,1
194,0,0,3.88,-6.40127e-09,-6.62127e-09,0.183754,0,3.88,8344,11.5342,1
195,0,0,3.9,-6.37625e-09,-6.60125e-09,0.184028,0,3.9,8344,11.5286,1
196,0,0,3.92,-6.35123e-09,-6.58123e-09,0.184301,0,3.92,8344,11.523,1
197,0,0,3.94,-6.32622e-09,-6.56122e-09,0.184574,0,3.94,8344,11.5173,1
198,0,0,3.96,-6.3012e-09,-6.5412e-09,0.184848,0,3.96,8344,11.5117,1
199,0,0,3.98,-6.27618e-09,-6.52118e-09,0.185121,0,3.98,8344,11.5061,1
200,0,0,4,-6.25117e-09,-6.50117e-09,0.185394,0,4,8344,11.5005,1
201,0,0,4.02,-6.26616e-09,-6.52116e-09,0.185538,0,4.02,8444,11.4946,1
202,0,0,4.04,-6.28115e-09,-6.54115e-09,0.185682,0,4.04,8444,11.4886,1
203,0,0,4.06,-6.29613e-09,-6.56113e-09,0.185826,0,4.06,8444,11.4827,1
204,0,0,4.08,-6.31112e-09,-6.58112e-09,0.18597,0,4.08,8444,11.4768,1
205,0,0,4.1,-6.32611e-09,-6.60111e-09,0.186114,0,4.1,8444,11.4708,1
206,0,0,4.12,-6.3411e-09,-6.6211e-09,0.186257,0,4.12,8444,11.4649,1
207,0,0,4.14,-6.35609e-09,-6.64109e-09,0.186401,0,4.14,8444,11.459,1
208,0,0,4.16,-6.37108e-09,-6.66108e-09,0.186545,0,4.16,8444,11.453,1
209,0,0,4.18,-6.38607e-09,-6.68107e-09,0.186689,0,4.18,8444,11.4471,1
210,0,0,4.2,-6.40106e-09,-6.70106e-09,0.186833,0,4.2,8444,11.4411,1
211,0,0,4.22,-6.41605e-09,-6.72105e-09,0.186977,0,4.22,8444,11.4352,1
212,0,0,4.24,-6.43103e-09,-6.74103e-09,0.18712,0,4.24,8444,11.4293,1
213,0,0,4.26,-6.44602e-09,-6.76102e-09,0.187264,0,4.26,8444,11.4233,1
214,0,0,4.28,-6.46101e-09,-6.78101e-09,0.187408,0,4.28,8444,11.4174,1
215,0,0,4.3,-6.476e-09,-6.801e-09,0.187552,0,4.3,8444,11.4115,1
216,0,0,4.32,-6.49099e-09,-6.82099e-09,0.187696,0,4.32,8444,11.4055,1
217,0,0,4.34,-6.50598e-09,-6.84098e-09,0.18784,0,4.34,8444,11.3996,1
218,0,0,4.36,-6.52097e-09,-6.86097e-09,0.187983,0,4.36,8444,11.3937,1
219,0,0,4.38,-6.53596e-09,-6.88096e-09,0.188127,0,4.38,8444,11.3877,1
220,0,0,4.4,-6.55095e-09,-6.90094e-09,0.188271,0,4.4,8444,11.3818,1
221,0,0,4.42,-6.56593e-09,-6.92093e-09,0.188415,0,4.42,8444,11.3759,1
222,0,0,4.44,-6.58092e-09,-6.94092e-09,0.188559,0,4.44,8444,11.3699,1
223,0,0,4.46,-6.59591e-09,-6.96091e-09,0.188703,0,4.46,8444,11.364,1
224,0,0,4.48,-6.6109e-09,-6.9809e-09,0.188846,0,4.48,8444,11.3581,1
225,0,0,4.5,-6.62589e-09,-7.00089e-09,0.18899,0,4.5,8444,11.3521,1
226,0,0,4.52,-6.64088e-09,-7.02088e-09,0.189134,0,4.52,8444,11.3462,1
227,0,0,4.54,-6.65587e-09,-7.04087e-09,0.189278,0,4.54,8444,11.3403,1
228,0,0,4.56,-6.67086e-09,-7.06086e-09,0.189422,0,4.56,8444,11.3343,1
229,0,0,4.58,-6.68584e-09,-7.08084e-09,0.189566,0,4.58,8444,11.3284,1
230,0,0,4.6,-6.70083e-09,-7.10083e-09,0.189709,0,4.6,8444,11.3224,1
231,0,0,4.62,-6.71582e-09,-7.12082e-09,0.189853,0,4.62,8444,11.3165,1
232,0,0,4.64,-6.73081e-09,-7.14081e-09,0.189997,0,4.64,8444,11.3106,1
233,0,0,4.66,-6.7458e-09,-7.1608e-09,0.190141,0,4.66,8444,11.3046,1
234,0,0,4.68,-6.76079e-09,-7.18079e-09,0.190285,0,4.68,8444,11.2987,1
235,0,0,4.7,-6.77578e-09,-7.20078e-09,0.190429,0,4.7,8444,11.2928,1
236,0,0,4.72,-6.79077e-09,-7.22077e-09,0.190572,0,4.72,8444,11.2868,1
237,0,0,4.74,-6.80576e-09,-7.24075e-09,0.190716,0,4.74,8444,11.2809,1
238,0,0,4.76,-6.82074e-09,-7.26074e-09,0.19086,0,4.76,8444,11.275,1
239,0,0,4.78,-6.83573e-09,-7.28073e-09,0.191004,0,4.78,8444,11.269,1
240,0,0,4.8,-6.85072e-09,-7.30072e-09,0.191148,0,4.8,8444,11.2631,1
241,0,0,4.82,-6.86571e-09,-7.32071e-09,0.191292,0,4.82,8444,11.2572,1
242,0,0,4.84,-6.8807e-09,-7.3407e-09,0.191435,0,4.84,8444,11.2512,1
243,0,0,4.86,-6.89569e-09,-7.36069e-09,0.191579,0,4.86,8444,11.2453,1
244,0,0,4.88,-6.91068e-09,-7.38068e-09,0.191723,0,4.88,8444,11.2394,1
245,0,0,4.9,-6.92567e-09,-7.40067e-09,0.191867,0,4.9,8444,11.2334,1
246,0,0,4.92,-6.94065e-09,-7.42065e-09,0.192011,0,4.92,8444,11.2275,1
247,0,0,4.94,-6.95564e-09,-7.44064e-09,0.192155,0,4.94,8444,11.2216,1
248,0,0,4.96,-6.97063e-09,-7.46063e-09,0.192298,0,4.96,8444,11.2156,1
249,0,0,4.98,-6.98562e-09,-7.48062e-09,0.192442,0,4.98,8444,11.2097,1
250,0,0,5,-7.00061e-09,-7.50061e-09,0.192586,0,5,8444,11.2037,1
251,0,0,5.02,-6.9806e-09,-7.4756e-09,0.192658,0,5.02,8544,11.1974,1
252,0,0,5.04,-6.9606e-09,-7.4506e-09,0.192731,0,5.04,8544,11.191,1
253,0,0,5.06,-6.94059e-09,-7.42559e-09,0.192803,0,5.06,8544,11.1846,1
254,0,0,5.08,-6.92058e-09,-7.40058e-09,0.192876,0,5.08,8544,11.1782,1
255,0,0,5.1,-6.90058e-09,-7.37558e-09,0.192948,0,5.1,8544,11.1718,1
256,0,0,5.12,-6.88057e-09,-7.35057e-09,0.193021,0,5.12,8544,11.1655,1
257,0,0,5.14,-6.86057e-09,-7.32557e-09,0.193093,0,5.14,8544,11.1591,1
258,0,0,5.16,-6.84056e-09,-7.30056e-09,0.193166,0,5.16,8544,11.1527,1
259,0,0,5.18,-6.82055e-09,-7.27555e-09,0.193238,0,5.18,8544,11.1463,1
260,0,0,5.2,-6.80055e-09,-7.25055e-09,0.19331,0,5.2,8544,11.1399,1
261,0,0,5.22,-6.78054e-09,-7.22554e-09,0.193383,0,5.22,8544,11.1335,1
262,0,0,5.24,-6.76053e-09,-7.20053e-09,0.193455,0,5.24,8544,11.1272,1
263,0,0,5.26,-6.74053e-09,-7.17553e-09,0.193528,0,5.26,8544,11.1208,1
264,0,0,5.28,-6.72052e-09,-7.15052e-09,0.1936,0,5.28,8544,11.1144,1
265,0,0,5.3,-6.70051e-09,-7.12551e-09,0.193673,0,5.3,8544,11.108,1
266,0,0,5.32,-6.68051e-09,-7.10051e-09,0.193745,0,5.32,8544,11.1016,1
267,0,0,5.34,-6.6605e-09,-7.0755e-09,0.193817,0,5.34,8544,11.0952,1
268,0,0,5.36,-6.6405e-09,-7.05049e-09,0.19389,0,5.36,8544,11.0889,1
269,0,0,5.38,-6.62049e-09,-7.02549e-09,0.193962,0,5.38,8544,11.0825,1
270,0,0,5.4,-6.60048e-09,-7.00048e-09,0.194035,0,5.4,8544,11.0761,1
271,0,0,5.42,-6.58048e-09,-6.97548e-09,0.194107,0,5.42,8544,11.0697,1
272,0,0,5.44,-6.56047e-09,-6.95047e-09,0.19418,0,5.44,8544,11.0633,1
273,0,0,5.46,-6.54046e-09,-6.92546e-09,0.194252,0,5.46,8544,11.0569,1
274,0,0,5.48,-6.52046e-09,-6.90046e-09,0.194325,0,5.48,8544,11.0506,1
275,0,0,5.5,-6.50045e-09,-6.87545e-09,0.194397,0,5.5,8544,11.0442,1
276,0,0,5.52,-6.48044e-09,-6.85044e-09,0.194469,0,5.52,8544,11.0378,1
277,0,0,5.54,-6.46044e-09,-6.82544e-09,0.194542,0,5.54,8544,11.0314,1
278,0,0,5.56,-6.44043e-09,-6.80043e-09,0.194614,0,5.56,8544,11.025,1
279,0,0,5.58,-6.42043e-09,-6.77543e-09,0.194687,0,5.58,8544,11.0186,1
280,0,0,5.6,-6.40042e-09,-6.75042e-09,0.194759,0,5.6,8544,11.0123,1
281,0,0,5.62,-6.38041e-09,-6.72541e-09,0.194832,0,5.62,8544,11.0059,1
282,0,0,5.64,-6.36041e-09,-6.70041e-09,0.194904,0,5.64,8544,10.9995,1
283,0,0,5.66,-6.3404e-09,-6.6754e-09,0.194977,0,5.66,8544,10.9931,1
284,0,0,5.68,-6.32039e-09,-6.65039e-09,0.195049,0,5.68,8544,10.9867,1
285,0,0,5.7,-6.30039e-09,-6.62539e-09,0.195121,0,5.7,8544,10.9803,1
286,0,0,5.72,-6.28038e-09,-6.60038e-09,0.195194,0,5.72,8544,10.974,1
287,0,0,5.74,-6.26037e-09,-6.57537e-09,0.195266,0,5.74,8544,10.9676,1
288,0,0,5.76,-6.24037e-09,-6.55037e-09,0.195339,0,5.76,8544,10.9612,1
289,0,0,5.78,-6.22036e-09,-6.52536e-09,0.195411,0,5.78,8544,10.9548,1
290,0,0,5.8,-6.20035e-09,-6.50035e-09,0.195484,0,5.8,8544,10.9484,1
291,0,0,5.82,-6.18035e-09,-6.47535e-09,0.195556,0,5.82,8544,10.942,1
292,0,0,5.84,-6.16034e-09,-6.45034e-09,0.195628,0,5.84,8544,10.9357,1
293,0,0,5.86,-6.14034e-09,-6.42534e-09,0.195701,0,5.86,8544,10.9293,1
294,0,0,5.88,-6.12033e-09,-6.40033e-09,0.195773,0,5.88,8544,10.9229,1
295,0,0,5.9,-6.10032e-09,-6.37532e-09,0.195846,0,5.9,8544,10.9165,1
296,0,0,5.92,-6.08032e-09,-6.35032e-09,0.195918,0,5.92,8544,10.9101,1
297,0,0,5.94,-6.06031e-09,-6.32531e-09,0.195991,0,5.94,8544,10.9037,1
298,0,0,5.96,-6.0403e-09,-6.3003e-09,0.196063,0,5.96,8544,10.8974,1
299,0,0,5.98,-6.0203e-09,-6.2753e-09,0.196136,0,5.98,8544,10.891,1
300,0,0,6,-6.00029e-09,-6.25029e-09,0.196208,0,6,8544,10.8846,1
301,0,0,6.02,-5.97579e-09,-6.22354e-09,0.19624,0,6.02,8644,10.8782,1
302,0,0,6.04,-5.95128e-09,-6.19678e-09,0.196271,0,6.04,8644,10.8719,1
303,0,0,6.06,-5.92678e-09,-6.17003e-09,0.196303,0,6.06,8644,10.8655,1
304,0,0,6.08,-5.90228e-09,-6.14328e-09,0.196335,0,6.08,8644,10.8591,1
305,0,0,6.1,-5.87778e-09,-6.11653e-09,0.196367,0,6.1,8644,10.8527,1
306,0,0,6.12,-5.85327e-09,-6.08977e-09,0.196398,0,6.12,8644,10.8463,1
307,0,0,6.14,-5.82877e-09,-6.06302e-09,0.19643,0,6.14,8644,10.84,1
308,0,0,6.16,-5.80427e-09,-6.03627e-09,0.196462,0,6.16,8644,10.8336,1
309,0,0,6.18,-5.77976e-09,-6.00951e-09,0.196494,0,6.18,8644,10.8272,1
310,0,0,6.2,-5.75526e-09,-5.98276e-09,0.196525,0,6.2,8644,10.8208,1
311,0,0,6.22,-5.73076e-09,-5.95601e-09,0.196557,0,6.22,8644,10.8145,1
312,0,0,6.24,-5.70625e-09,-5.92925e-09,0.196589,0,6.24,8644,10.8081,1
313,0,0,6.26,-5.68175e-09,-5.9025e-09,0.196621,0,6.26,8644,10.8017,1
314,0,0,6.28,-5.65725e-09,-5.87575e-09,0.196652,0,6.28,8644,10.7954,1
315,0,0,6.3,-5.63274e-09,-5.84899e-09,0.196684,0,6.3,8644,10.789,1
316,0,0,6.32,-5.60824e-09,-5.82224e-09,0.196716,0,6.32,8644,10.7826,1
317,0,0,6.34,-5.58374e-09,-5.79549e-09,0.196748,0,6.34,8644,10.7762,1
318,0,0,6.36,-5.55923e-09,-5.76873e-09,0.196779,0,6.36,8644,10.7698,1
319,0,0,6.38,-5.53473e-09,-5.74198e-09,0.196811,0,6.38,8644,10.7635,1
320,0,0,6.4,-5.51023e-09,-5.71523e-09,0.196843,0,6.4,8644,10.7571,1
321,0,0,6.42,-5.48572e-09,-5.68847e-09,0.196875,0,6.42,8644,10.7507,1
322,0,0,6.44,-5.46122e-09,-5.66172e-09,0.196906,0,6.44,8644,10.7443,1
323,0,0,6.46,-5.43672e-09,-5.63497e-09,0.196938,0,6.46,8644,10.738,1
324,0,0,6.48,-5.41221e-09,-5.60821e-09,0.19697,0,6.48,8644,10.7316,1
325,0,0,6.5,-5.38771e-09,-5.58146e-09,0.197002,0,6.5,8644,10.7252,1
326,0,0,6.52,-5.36321e-09,-5.55471e-09,0.197033,0,6.52,8644,10.7189,1
327,0,0,6.54,-5.3387e-09,-5.52795e-09,0.197065,0,6.54,8644,10.7125,1
328,0,0,6.56,-5.3142e-09,-5.5012e-09,0.197097,0,6.56,8644,10.7061,1
329,0,0,6.58,-5.2897e-09,-5.47445e-09,0.197128,0,6.58,8644,10.6997,1
330,0,0,6.6,-5.26519e-09,-5.44769e-09,0.19716,0,6.6,8644,10.6933,1
331,0,0,6.62,-5.24069e-09,-5.42094e-09,0.197192,0,6.62,8644,10.687,1
332,0,0,6.64,-5.21619e-09,-5.39419e-09,0.197224,0,6.64,8644,10.6806,1
333,0,0,6.66,-5.19168e-09,-5.36743e-09,0.197255,0,6.66,8644,10.6742,1
334,0,0,6.68,-5.16718e-09,-5.34068e-09,0.197287,0,6.68,8644,10.6679,1
335,0,0,6.7,-5.14268e-09,-5.31393e-09,0.197319,0,6.7,8644,10.6615,1
336,0,0,6.72,-5.11817e-09,-5.28718e-09,0.197351,0,6.72,8644,10.6551,1
337,0,0,6.74,-5.09367e-09,-5.26042e-09,0.197382,0,6.74,8644,10.6487,1
338,0,0,6.76,-5.06917e-09,-5.23367e-09,0.197414,0,6.76,8644,10.6424,1
339,0,0,6.78,-5.04466e-09,-5.20691e-09,0.197446,0,6.78,8644,10.636,1
340,0,0,6.8,-5.02016e-09,-5.18016e-09,0.197478,0,6.8,8644,10.6296,1
341,0,0,6.82,-4.99566e-09,-5.15341e-09,0.197509,0,6.82,8644,10.6232,1
342,0,0,6.84,-4.97116e-09,-5.12666e-09,0.197541,0,6.84,8644,10.6168,1
343,0,0,6.86,-4.94665e-09,-5.0999e-09,0.197573,0,6.86,8644,10.6105,1
344,0,0,6.88,-4.92215e-09,-5.07315e-09,0.197605,0,6.88,8644,10.6041,1
345,0,0,6.9,-4.89765e-09,-5.0464e-09,0.197636,0,6.9,8644,10.5977,1
346,0,0,6.92,-4.87314e-09,-5.01964e-09,0.197668,0,6.92,8644,10.5914,1
347,0,0,6.94,-4.84864e-09,-4.99289e-09,0.1977,0,6.94,8644,10.585,1
348,0,0,6.96,-4.82414e-09,-4.96614e-09,0.197732,0,6.96,8644,10.5786,1
349,0,0,6.98,-4.79963e-09,-4.93938e-09,0.197763,0,6.98,8644,10.5722,1
350,0,0,7,-4.77513e-09,-4.91263e-09,0.197795,0,7,8644,10.5659,1
351,0,0,7.02,-4.75038e-09,-4.88963e-09,0.197809,0,7.02,8744,10.5594,1
352,0,0,7.04,-4.72563e-09,-4.86663e-09,0.197823,0,7.04,8744,10.5529,1
353,0,0,7.06,-4.70087e-09,-4.84363e-09,0.197837,0,7.06,8744,10.5465,1
354,0,0,7.08,-4.67612e-09,-4.82062e-09,0.197851,0,7.08,8744,10.54,1
355,0,0,7.1,-4.65137e-09,-4.79762e-09,0.197865,0,7.1,8744,10.5336,1
356,0,0,7.12,-4.62662e-09,-4.77462e-09,0.197879,0,7.12,8744,10.5271,1
357,0,0,7.14,-4.60187e-09,-4.75162e-09,0.197893,0,7.14,8744,10.5207,1
358,0,0,7.16,-4.57712e-09,-4.72862e-09,0.197907,0,7.16,8744,10.5142,1
359,0,0,7.18,-4.55237e-09,-4.70562e-09,0.197921,0,7.18,8744,10.5078,1
360,0,0,7.2,-4.52761e-09,-4.68261e-09,0.197935,0,7.2,8744,10.5013,1
361,0,0,7.22,-4.50286e-09,-4.65961e-09,0.197949,0,7.22,8744,10.4949,1
362,0,0,7.24,-4.47811e-09,-4.63661e-09,0.197963,0,7.24,8744,10.4884,1
363,0,0,7.26,-4.45336e-09,-4.61361e-09,0.197977,0,7.26,8744,10.482,1
364,0,0,7.28,-4.42861e-09,-4.59061e-09,0.197991,0,7.28,8744,10.4755,1
365,0,0,7.3,-4.40386e-09,-4.56761e-09,0.198005,0,7.3,8744,10.4691,1
366,0,0,7.32,-4.3791e-09,-4.54461e-09,0.198019,0,7.32,8744,10.4626,1
367,0,0,7.34,-4.35435e-09,-4.5216e-09,0.198033,0,7.34,8744,10.4562,1
368,0,0,7.36,-4.3296e-09,-4.4986e-09,0.198047,0,7.36,8744,10.4497,1
369,0,0,7.38,-4.30485e-09,-4.4756e-09,0.198061,0,7.38,8744,10.4433,1
370,0,0,7.4,-4.2801e-09,-4.4526e-09,0.198075,0,7.4,8744,10.4368,1
371,0,0,7.42,-4.25535e-09,-4.4296e-09,0.198089,0,7.42,8744,10.4304,1
372,0,0,7.44,-4.2306e-09,-4.4066e-09,0.198103,0,7.44,8744,10.4239,1
373,0,0,7.46,-4.20584e-09,-4.38359e-09,0.198117,0,7.46,8744,10.4175,1
374,0,0,7.48,-4.18109e-09,-4.36059e-09,0.198131,0,7.48,8744,10.411,1
375,0,0,7.5,-4.15634e-09,-4.33759e-09,0.198145,0,7.5,8744,10.4045,1
376,0,0,7.52,-4.13159e-09,-4.31459e-09,0.198159,0,7.52,8744,10.3981,1
377,0,0,7.54,-4.10684e-09,-4.29159e-09,0.198173,0,7.54,8744,10.3916,1
378,0,0,7.56,-4.08209e-09,-4.26859e-09,0.198187,0,7.56,8744,10.3852,1
379,0,0,7.58,-4.05734e-09,-4.24559e-09,0.198201,0,7.58,8744,10.3787,1
380,0,0,7.6,-4.03258e-09,-4.22258e-09,0.198215,0,7.6,8744,10.3723,1
381,0,0,7.62,-4.00783e-09,-4.19958e-09,0.198229,0,7.62,8744,10.3658,1
382,0,0,7.64,-3.98308e-09,-4.17658e-09,0.198243,0,7.64,8744,10.3594,1
383,0,0,7.66,-3.95833e-09,-4.15358e-09,0.198257,0,7.66,8744,10.3529,1
384,0,0,7.68,-3.93358e-09,-4.13058e-09,0.198271,0,7.68,8744,10.3465,1
385,0,0,7.7,-3.90883e-09,-4.10758e-09,0.198285,0,7.7,8744,10.34,1
386,0,0,7.72,-3.88408e-09,-4.08458e-09,0.198299,0,7.72,8744,10.3336,1
387,0,0,7.74,-3.85932e-09,-4.06157e-09,0.198313,0,7.74,8744,10.3271,1
388,0,0,7.76,-3.83457e-09,-4.03857e-09,0.198327,0,7.76,8744,10.3207,1
389,0,0,7.78,-3.80982e-09,-4.01557e-09,0.198341,0,7.78,8744,10.3142,1
390,0,0,7.8,-3.78507e-09,-3.99257e-09,0.198355,0,7.8,8744,10.3078,1
391,0,0,7.82,-3.76032e-09,-3.96957e-09,0.198369,0,7.82,8744,10.3013,1
392,0,0,7.84,-3.73557e-09,-3.94657e-09,0.198383,0,7.84,8744,10.2949,1
393,0,0,7.86,-3.71081e-09,-3.92356e-09,0.198397,0,7.86,8744,10.2884,1
394,0,0,7.88,-3.68606e-09,-3.90056e-09,0.198411,0,7.88,8744,10.282,1
395,0,0,7.9,-3.66131e-09,-3.87756e-09,0.198425,0,7.9,8744,10.2755,1
396,0,0,7.92,-3.63656e-09,-3.85456e-09,0.198439,0,7.92,8744,10.2691,1
397,0,0,7.94,-3.61181e-09,-3.83156e-09,0.198453,0,7.94,8744,10.2626,1
398,0,0,7.96,-3.58706e-09,-3.80856e-09,0.198467,0,7.96,8744,10.2562,1
399,0,0,7.98,-3.56231e-09,-3.78556e-09,0.198481,0,7.98,8744,10.2497,1
400,0,0,8,-3.53755e-09,-3.76255e-09,0.198494,0,8,8744,10.2432,1
401,0,0,8.02,-3.51848e-09,-3.74208e-09,0.1985,0,8.02,8844,10.2368,1
402,0,0,8.04,-3.4994e-09,-3.7216e-09,0.198505,0,8.04,8844,10.2304,1
403,0,0,8.06,-3.48033e-09,-3.70113e-09,0.19851,0,8.06,8844,10.2239,1
404,0,0,8.08,-3.46125e-09,-3.68065e-09,0.198516,0,8.08,8844,10.2175,1
405,0,0,8.1,-3.44218e-09,-3.66018e-09,0.198521,0,8.1,8844,10.2111,1
406,0,0,8.12,-3.4231e-09,-3.6397e-09,0.198526,0,8.12,8844,10.2046,1
407,0,0,8.14,-3.40402e-09,-3.61922e-09,0.198532,0,8.14,8844,10.1982,1
408,0,0,8.16,-3.38495e-09,-3.59875e-09,0.198537,0,8.16,8844,10.1918,1
409,0,0,8.18,-3.36587e-09,-3.57827e-09,0.198542,0,8.18,8844,10.1853,1
410,0,0,8.2,-3.3468e-09,-3.5578e-09,0.198547,0,8.2,8844,10.1789,1
411,0,0,8.22,-3.32772e-09,-3.53732e-09,0.198553,0,8.22,8844,10.1725,1
412,0,0,8.24,-3.30865e-09,-3.51685e-09,0.198558,0,8.24,8844,10.166,1
413,0,0,8.26,-3.28957e-09,-3.49637e-09,0.198563,0,8.26,8844,10.1596,1
414,0,0,8.28,-3.27049e-09,-3.47589e-09,0.198569,0,8.28,8844,10.1532,1
415,0,0,8.3,-3.25142e-09,-3.45542e-09,0.198574,0,8.3,8844,10.1467,1
416,0,0,8.32,-3.23234e-09,-3.43494e-09,0.198579,0,8.32,8844,10.1403,1
417,0,0,8.34,-3.21327e-09,-3.41447e-09,0.198584,0,8.34,8844,10.1339,1
418,0,0,8.36,-3.19419e-09,-3.39399e-09,0.19859,0,8.36,8844,10.1274,1
419,0,0,8.38,-3.17512e-09,-3.37352e-09,0.198595,0,8.38,8844,10.121,1
420,0,0,8.4,-3.15604e-09,-3.35304e-09,0.1986,0,8.4,8844,10.1146,1
421,0,0,8.42,-3.13696e-09,-3.33256e-09,0.198606,0,8.42,8844,10.1081,1
422,0,0,8.44,-3.11789e-09,-3.31209e-09,0.198611,0,8.44,8844,10.1017,1
423,0,0,8.46,-3.09881e-09,-3.29161e-09,0.198616,0,8.46,8844,10.0953,1
424,0,0,8.48,-3.07974e-09,-3.27114e-09,0.198621,0,8.48,8844,10.0888,1
425,0,0,8.5,-3.06066e-09,-3.25066e-09,0.198627,0,8.5,8844,10.0824,1
426,0,0,8.52,-3.04159e-09,-3.23019e-09,0.198632,0,8.52,8844,10.076,1
427,0,0,8.54,-3.02251e-09,-3.20971e-09,0.198637,0,8.54,8844,10.0695,1
428,0,0,8.56,-3.00344e-09,-3.18923e-09,0.198643,0,8.56,8844,10.0631,1
429,0,0,8.58,-2.98436e-09,-3.16876e-09,0.198648,0,8.58,8844,10.0567,1
430,0,0,8.6,-2.96528e-09,-3.14828e-09,0.198653,0,8.6,8844,10.0502,1
431,0,0,8.62,-2.94621e-09,-3.12781e-09,0.198658,0,8.62,8844,10.0438,1
432,0,0,8.64,-2.92713e-09,-3.10733e-09,0.198664,0,8.64,8844,10.0374,1
433,0,0,8.66,-2.90806e-09,-3.08686e-09,0.198669,0,8.66,8844,10.0309,1
434,0,0,8.68,-2.88898e-09,-3.06638e-09,0.198674,0,8.68,8844,10.0245,1
435,0,0,8.7,-2.86991e-09,-3.04591e-09,0.19868,0,8.7,8844,10.0181,1
436,0,0,8.72,-2.85083e-09,-3.02543e-09,0.198685,0,8.72,8844,10.0116,1
437,0,0,8.74,-2.83175e-09,-3.00495e-09,0.19869,0,8.74,8844,10.0052,1
438,0,0,8.76,-2.81268e-09,-2.98448e-09,0.198696,0,8.76,8844,9.99876,1
439,0,0,8.78,-2.7936e-09,-2.964e-09,0.198701,0,8.78,8844,9.99232,1
440,0,0,8.8,-2.77453e-09,-2.94353e-09,0.198706,0,8.8,8844,9.98589,1
441,0,0,8.82,-2.75545e-09,-2.92305e-09,0.198711,0,8.82,8844,9.97946,1
442,0,0,8.84,-2.73638e-09,-2.90258e-09,0.198717,0,8.84,8844,9.97302,1
443,0,0,8.86,-2.7173e-09,-2.8821e-09,0.198722,0,8.86,8844,9.96659,1
444,0,0,8.88,-2.69822e-09,-2.86162e-09,0.198727,0,8.88,8844,9.96015,1
445,0,0,8.9,-2.67915e-09,-2.84115e-09,0.198733,0,8.9,8844,9.95372,1
446,0,0,8.92,-2.66007e-09,-2.82067e-09,0.198738,0,8.92,8844,9.94729,1
447,0,0,8.94,-2.641e-09,-2.8002e-09,0.198743,0,8.94,8844,9.94085,1
448,0,0,8.96,-2.62192e-09,-2.77972e-09,0.198748,0,8.96,8844,9.93442,1
449,0,0,8.98,-2.60285e-09,-2.75925e-09,0.198754,0,8.98,8844,9.92798,1
450,0,0,9,-2.58377e-09,-2.73877e-09,0.198759,0,9,8844,9.92155,1
451,0,0,9.02,-2.56812e-09,-2.72232e-09,0.198761,0,9.02,8944,9.91511,1
452,0,0,9.04,-2.55247e-09,-2.70587e-09,0.198763,0,9.04,8944,9.90866,1
453,0,0,9.06,-2.53682e-09,-2.68942e-09,0.198765,0,9.06,8944,9.90222,1
454,0,0,9.08,-2.52117e-09,-2.67297e-09,0.198767,0,9.08,8944,9.89577,1
455,0,0,9.1,-2.50552e-09,-2.65652e-09,0.198769,0,9.1,8944,9.88933,1
456,0,0,9.12,-2.48987e-09,-2.64007e-09,0.198771,0,9.12,8944,9.88288,1
457,0,0,9.14,-2.47422e-09,-2.62362e-09,0.198773,0,9.14,8944,9.87644,1
458,0,0,9.16,-2.45857e-09,-2.60717e-09,0.198775,0,9.16,8944,9.87,1
459,0,0,9.18,-2.44292e-09,-2.59072e-09,0.198777,0,9.18,8944,9.86355,1
460,0,0,9.2,-2.42727e-09,-2.57427e-09,0.198779,0,9.2,8944,9.85711,1
461,0,0,9.22,-2.41162e-09,-2.55782e-09,0.198781,0,9.22,8944,9.85066,1
462,0,0,9.24,-2.39597e-09,-2.54137e-09,0.198783,0,9.24,8944,9.84422,1
463,0,0,9.26,-2.38032e-09,-2.52492e-09,0.198786,0,9.26,8944,9.83777,1
464,0,0,9.28,-2.36467e-09,-2.50847e-09,0.198788,0,9.28,8944,9.83133,1
465,0,0,9.3,-2.34902e-09,-2.49202e-09,0.19879,0,9.3,8944,9.82489,1
466,0,0,9.32,-2.33337e-09,-2.47557e-09,0.198792,0,9.32,8944,9.81844,1
467,0,0,9.34,-2.31772e-09,-2.45912e-09,0.198794,0,9.34,8944,9.812,1
468,0,0,9.36,-2.30207e-09,-2.44267e-09,0.198796,0,9.36,8944,9.80555,1
469,0,0,9.38,-2.28642e-09,-2.42622e-09,0.198798,0,9.38,8944,9.79911,1
470,0,0,9.4,-2.27077e-09,-2.40977e-09,0.1988,0,9.4,8944,9.79266,1
471,0,0,9.42,-2.25512e-09,-2.39332e-09,0.198802,0,9.42,8944,9.78622,1
472,0,0,9.44,-2.23947e-09,-2.37687e-09,0.198804,0,9.44,8944,9.77978,1
473,0,0,9.46,-2.22381e-09,-2.36041e-09,0.198806,0,9.46,8944,9.77333,1
474,0,0,9.48,-2.20816e-09,-2.34396e-09,0.198808,0,9.48,8944,9.76689,1
475,0,0,9.5,-2.19251e-09,-2.32751e-09,0.19881,0,9.5,8944,9.76044,1
476,0,0,9.52,-2.17686e-09,-2.31106e-09,0.198812,0,9.52,8944,9.754,1
477,0,0,9.54,-2.16121e-09,-2.29461e-09,0.198814,0,9.54,8944,9.74755,1
478,0,0,9.56,-2.14556e-09,-2.27816e-09,0.198816,0,9.56,8944,9.74111,1
479,0,0,9.58,-2.12991e-09,-2.26171e-09,0.198818,0,9.58,8944,9.73466,1
480,0,0,9.6,-2.11426e-09,-2.24526e-09,0.19882,0,9.6,8944,9.72822,1
481,0,0,9.62,-2.09861e-09,-2.22881e-09,0.198822,0,9.62,8944,9.72178,1
482,0,0,9.64,-2.08296e-09,-2.21236e-09,0.198824,0,9.64,8944,9.71533,1
483,0,0,9.66,-2.06731e-09,-2.19591e-09,0.198826,0,9.66,8944,9.70889,1
484,0,0,9.68,-2.05166e-09,-2.17946e-09,0.198828,0,9.68,8944,9.70244,1
485,0,0,9.7,-2.03601e-09,-2.16301e-09,0.19883,0,9.7,8944,9.696,1
486,0,0,9.72,-2.02036e-09,-2.14656e-09,0.198832,0,9.72,8944,9.68956,1
487,0,0,9.74,-2.00471e-09,-2.13011e-09,0.198834,0,9.74,8944,9.68311,1
488,0,0,9.76,-1.98906e-09,-2.11366e-09,0.198837,0,9.76,8944,9.67667,1
489,0,0,9.78,-1.97341e-09,-2.09721e-09,0.198839,0,9.78,8944,9.67022,1
490,0,0,9.8,-1.95776e-09,-2.08076e-09,0.198841,0,9.8,8944,9.66378,1
491,0,0,9.82,-1.94211e-09,-2.06431e-09,0.198843,0,9.82,8944,9.65733,1
492,0,0,9.84,-1.92646e-09,-2.04786e-09,0.198845,0,9.84,8944,9.65089,1
493,0,0,9.86,-1.91081e-09,-2.03141e-09,0.198847,0,9.86,8944,9.64444,1
494,0,0,9.88,-1.89516e-09,-2.01496e-09,0.198849,0,9.88,8944,9.638,1
495,0,0,9.9,-1.87951e-09,-1.99851e-09,0.198851,0,9.9,8944,9.63156,1
496,0,0,9.92,-1.86386e-09,-1.98206e-09,0.198853,0,9.92,8944,9.62511,1
497,0,0,9.94,-1.84821e-09,-1.96561e-09,0.198855,0,9.94,8944,9.61867,1
498,0,0,9.96,-1.83256e-09,-1.94916e-09,0.198857,0,9.96,8944,9.61222,1
499,0,0,9.98,-1.81691e-09,-1.93271e-09,0.198859,0,9.98,8944,9.60578,1
500,0,0,10,-1.80126e-09,-1.91626e-09,0.198861,0,10,8944,9.59933,1
501,0,0,10.02,-1.78934e-09,-1.90364e-09,0.198862,0,10.02,9044,9.5929,1
502,0,0,10.04,-1.77743e-09,-1.89102e-09,0.198862,0,10.04,9044,9.58646,1
503,0,0,10.06,-1.76551e-09,-1.8784e-09,0.198863,0,10.06,9044,9.58002,1
504,0,0,10.08,-1.7536e-09,-1.86578e-09,0.198863,0,10.08,9044,9.57358,1
505,0,0,10.1,-1.74168e-09,-1.85316e-09,0.198864,0,10.1,9044,9.56714,1
506,0,0,10.12,-1.72977e-09,-1.84054e-09,0.198865,0,10.12,9044,9.56071,1
507,0,0,10.14,-1.71785e-09,-1.82792e-09,0.198865,0,10.14,9044,9.55427,1
508,0,0,10.16,-1.70594e-09,-1.8153e-09,0.198866,0,10.16,9044,9.54783,1
509,0,0,10.18,-1.69402e-09,-1.80268e-09,0.198866,0,10.18,9044,9.54139,1
510,0,0,10.2,-1.68211e-09,-1.79006e-09,0.198867,0,10.2,9044,9.53496,1
511,0,0,10.22,-1.67019e-09,-1.77744e-09,0.198868,0,10.22,9044,9.52852,1
512,0,0,10.24,-1.65828e-09,-1.76482e-09,0.198868,0,10.24,9044,9.52208,1
513,0,0,10.26,-1.64636e-09,-1.7522e-09,0.198869,0,10.26,9044,9.51564,1
514,0,0,10.28,-1.63445e-09,-1.73958e-09,0.19887,0,10.28,9044,9.5092,1
515,0,0,10.3,-1.62253e-09,-1.72696e-09,0.19887,0,10.3,9044,9.50276,1
516,0,0,10.32,-1.61062e-09,-1.71434e-09,0.198871,0,10.32,9044,9.49633,1
517,0,0,10.34,-1.5987e-09,-1.70172e-09,0.198871,0,10.34,9044,9.48989,1
518,0,0,10.36,-1.58679e-09,-1.6891e-09,0.198872,0,10.36,9044,9.48345,1
519,0,0,10.38,-1.57487e-09,-1.67648e-09,0.198873,0,10.38,9044,9.47701,1
520,0,0,10.4,-1.56296e-09,-1.66386e-09,0.198873,0,10.4,9044,9.47058,1
521,0,0,10.42,-1.55104e-09,-1.65124e-09,0.198874,0,10.42,9044,9.46414,1
522,0,0,10.44,-1.53913e-09,-1.63862e-09,0.198874,0,10.44,9044,9.4577,1
523,0,0,10.46,-1.52721e-09,-1.626e-09,0.198875,0,10.46,9044,9.45126,1
524,0,0,10.48,-1.5153e-09,-1.61338e-09,0.198876,0,10.48,9044,9.44482,1
525,0,0,10.5,-1.50338e-09,-1.60075e-09,0.198876,0,10.5,9044,9.43839,1
526,0,0,10.52,-1.49146e-09,-1.58813e-09,0.198877,0,10.52,9044,9.43195,1
527,0,0,10.54,-1.47955e-09,-1.57551e-09,0.198877,0,10.54,9044,9.42551,1
528,0,0,10.56,-1.46763e-09,-1.56289e-09,0.198878,0,10.56,9044,9.41907,1
529,0,0,10.58,-1.45572e-09,-1.55027e-09,0.198879,0,10.58,9044,9.41263,1
530,0,0,10.6,-1.4438e-09,-1.53765e-09,0.198879,0,10.6,9044,9.40619,1
531,0,0,10.62,-1.43189e-09,-1.52503e-09,0.19888,0,10.62,9044,9.39976,1
532,0,0,10.64,-1.41997e-09,-1.51241e-09,0.198881,0,10.64,9044,9.39332,1
533,0,0,10.66,-1.40806e-09,-1.49979e-09,0.198881,0,10.66,9044,9.38688,1
534,0,0,10.68,-1.39614e-09,-1.48717e-09,0.198882,0,10.68,9044,9.38044,1
535,0,0,10.7,-1.38423e-09,-1.47455e-09,0.198882,0,10.7,9044,9.37401,1
536,0,0,10.72,-1.37231e-09,-1.46193e-09,0.198883,0,10.72,9044,9.36757,1
537,0,0,10.74,-1.3604e-09,-1.44931e-09,0.198884,0,10.74,9044,9.36113,1
538,0,0,10.76,-1.34848e-09,-1.43669e-09,0.198884,0,10.76,9044,9.35469,1
539,0,0,10.78,-1.33657e-09,-1.42407e-09,0.198885,0,10.78,9044,9.34825,1
540,0,0,10.8,-1.32465e-09,-1.41145e-09,0.198885,0,10.8,9044,9.34181,1
541,0,0,10.82,-1.31274e-09,-1.39883e-09,0.198886,0,10.82,9044,9.33538,1
542,0,0,10.84,-1.30082e-09,-1.38621e-09,0.198887,0,10.84,9044,9.32894,1
543,0,0,10.86,-1.28891e-09,-1.37359e-09,0.198887,0,10.86,9044,9.3225,1
544,0,0,10.88,-1.27699e-09,-1.36097e-09,0.198888,0,10.88,9044,9.31606,1
545,0,0,10.9,-1.26508e-09,-1.34835e-09,0.198888,0,10.9,9044,9.30963,1
546,0,0,10.92,-1.25316e-09,-1.33573e-09,0.198889,0,10.92,9044,9.30319,1
547,0,0,10.94,-1.24125e-09,-1.32311e-09,0.19889,0,10.94,9044,9.29675,1
548,0,0,10.96,-1.22933e-09,-1.31049e-09,0.19889,0,10.96,9044,9.29031,1
549,0,0,10.98,-1.21742e-09,-1.29787e-09,0.198891,0,10.98,9044,9.28387,1
550,0,0,11,-1.2055e-09,-1.28525e-09,0.198892,0,11,9044,9.27744,1
551,0,0,11.02,-1.19661e-09,-1.27585e-09,0.198892,0,11.02,9144,9.271,1
552,0,0,11.04,-1.18771e-09,-1.26645e-09,0.198892,0,11.04,9144,9.26456,1
553,0,0,11.06,-1.17882e-09,-1.25704e-09,0.198892,0,11.06,9144,9.25812,1
554,0,0,11.08,-1.16992e-09,-1.24764e-09,0.198892,0,11.08,9144,9.25168,1
555,0,0,11.1,-1.16103e-09,-1.23824e-09,0.198892,0,11.1,9144,9.24524,1
556,0,0,11.12,-1.15213e-09,-1.22883e-09,0.198893,0,11.12,9144,9.2388,1
557,0,0,11.14,-1.14324e-09,-1.21943e-09,0.198893,0,11.14,9144,9.23236,1
558,0,0,11.16,-1.13434e-09,-1.21003e-09,0.198893,0,11.16,9144,9.22592,1
559,0,0,11.18,-1.12544e-09,-1.20062e-09,0.198893,0,11.18,9144,9.21948,1
560,0,0,11.2,-1.11655e-09,-1.19122e-09,0.198893,0,11.2,9144,9.21304,1
561,0,0,11.22,-1.10765e-09,-1.18182e-09,0.198893,0,11.22,9144,9.2066,1
562,0,0,11.24,-1.09876e-09,-1.17242e-09,0.198894,0,11.24,9144,9.20017,1
563,0,0,11.26,-1.08986e-09,-1.16301e-09,0.198894,0,11.26,9144,9.19373,1
564,0,0,11.28,-1.08097e-09,-1.15361e-09,0.198894,0,11.28,9144,9.18729,1
565,0,0,11.3,-1.07207e-09,-1.14421e-09,0.198894,0,11.3,9144,9.18085,1
566,0,0,11.32,-1.06318e-09,-1.1348e-09,0.198894,0,11.32,9144,9.17441,1
567,0,0,11.34,-1.05428e-09,-1.1254e-09,0.198895,0,11.34,9144,9.16797,1
568,0,0,11.36,-1.04539e-09,-1.116e-09,0.198895,0,11.36,9144,9.16153,1
569,0,0,11.38,-1.03649e-09,-1.10659e-09,0.198895,0,11.38,9144,9.15509,1
570,0,0,11.4,-1.0276e-09,-1.09719e-09,0.198895,0,11.4,9144,9.14865,1
571,0,0,11.42,-1.0187e-09,-1.08779e-09,0.198895,0,11.42,9144,9.14221,1
572,0,0,11.44,-1.00981e-09,-1.07839e-09,0.198895,0,11.44,9144,9.13577,1
573,0,0,11.46,-1.00091e-09,-1.06898e-09,0.198896,0,11.46,9144,9.12934,1
574,0,0,11.48,-9.92016e-10,-1.05958e-09,0.198896,0,11.48,9144,9.1229,1
575,0,0,11.5,-9.8312e-10,-1.05018e-09,0.198896,0,11.5,9144,9.11646,1
576,0,0,11.52,-9.74225e-10,-1.04077e-09,0.198896,0,11.52,9144,9.11002,1
577,0,0,11.54,-9.6533e-10,-1.03137e-09,0.198896,0,11.54,9144,9.10358,1
578,0,0,11.56,-9.56434e-10,-1.02197e-09,0.198897,0,11.56,9144,9.09714,1
579,0,0,11.58,-9.47539e-10,-1.01256e-09,0.198897,0,11.58,9144,9.0907,1
580,0,0,11.6,-9.38643e-10,-1.00316e-09,0.198897,0,11.6,9144,9.08426,1
581,0,0,11.62,-9.29748e-10,-9.93758e-10,0.198897,0,11.62,9144,9.07782,1
582,0,0,11.64,-9.20853e-10,-9.84355e-10,0.198897,0,11.64,9144,9.07138,1
583,0,0,11.66,-9.11958e-10,-9.74952e-10,0.198897,0,11.66,9144,9.06494,1
584,0,0,11.68,-9.03062e-10,-9.65549e-10,0.198898,0,11.68,9144,9.05851,1
585,0,0,11.7,-8.94167e-10,-9.56146e-10,0.198898,0,11.7,9144,9.05207,1
586,0,0,11.72,-8.85272e-10,-9.46743e-10,0.198898,0,11.72,9144,9.04563,1
587,0,0,11.74,-8.76377e-10,-9.3734e-10,0.198898,0,11.74,9144,9.03919,1
588,0,0,11.76,-8.67481e-10,-9.27937e-10,0.198898,0,11.76,9144,9.03275,1
589,0,0,11.78,-8.58586e-10,-9.18534e-10,0.198899,0,11.78,9144,9.02631,1
590,0,0,11.8,-8.49691e-10,-9.09131e-10,0.198899,0,11.8,9144,9.01987,1
591,0,0,11.82,-8.40796e-10,-8.99728e-10,0.198899,0,11.82,9144,9.01343,1
592,0,0,11.84,-8.319e-10,-8.90325e-10,0.198899,0,11.84,9144,9.00699,1
593,0,0,11.86,-8.23005e-10,-8.80922e-10,0.198899,0,11.86,9144,9.00055,1
594,0,0,11.88,-8.1411e-10,-8.71519e-10,0.198899,0,11.88,9144,8.99411,1
595,0,0,11.9,-8.05215e-10,-8.62116e-10,0.1989,0,11.9,9144,8.98768,1
596,0,0,11.92,-7.96319e-10,-8.52713e-10,0.1989,0,11.92,9144,8.98124,1
597,0,0,11.94,-7.87424e-10,-8.4331e-10,0.1989,0,11.94,9144,8.9748,1
598,0,0,11.96,-7.78528e-10,-8.33906e-10,0.1989,0,11.96,9144,8.96836,1
599,0,0,11.98,-7.69633e-10,-8.24504e-10,0.1989,0,11.98,9144,8.96192,1
600,0,0,12,-7.60738e-10,-8.151e-10,0.198901,0,12,9144,8.95548,1
601,0,0,12.02,-7.54228e-10,-8.0825e-10,0.1989,0,12.02,9244,8.94904,1
602,0,0,12.04,-7.47718e-10,-8.014e-10,0.1989,0,12.04,9244,8.94261,1
603,0,0,12.06,-7.41208e-10,-7.9455e-10,0.1989,0,12.06,9244,8.93617,1
604,0,0,12.08,-7.34698e-10,-7.877e-10,0.1989,0,12.08,9244,8.92973,1
605,0,0,12.1,-7.28188e-10,-7.8085e-10,0.1989,0,12.1,9244,8.92329,1
606,0,0,12.12,-7.21678e-10,-7.74e-10,0.1989,0,12.12,9244,8.91685,1
607,0,0,12.14,-7.15168e-10,-7.6715e-10,0.1989,0,12.14,9244,8.91042,1
608,0,0,12.16,-7.08658e-10,-7.603e-10,0.1989,0,12.16,9244,8.90398,1
609,0,0,12.18,-7.02148e-10,-7.5345e-10,0.1989,0,12.18,9244,8.89754,1
610,0,0,12.2,-6.95638e-10,-7.466e-10,0.1989,0,12.2,9244,8.8911,1
611,0,0,12.22,-6.89128e-10,-7.3975e-10,0.1989,0,12.22,9244,8.88467,1
612,0,0,12.24,-6.82618e-10,-7.329e-10,0.1989,0,12.24,9244,8.87823,1
613,0,0,12.26,-6.76108e-10,-7.2605e-10,0.1989,0,12.26,9244,8.87179,1
614,0,0,12.28,-6.69598e-10,-7.192e-10,0.1989,0,12.28,9244,8.86535,1
615,0,0,12.3,-6.63088e-10,-7.1235e-10,0.1989,0,12.3,9244,8.85892,1
616,0,0,12.32,-6.56578e-10,-7.055e-10,0.1989,0,12.32,9244,8.85248,1
617,0,0,12.34,-6.50068e-10,-6.9865e-10,0.1989,0,12.34,9244,8.84604,1
618,0,0,12.36,-6.43558e-10,-6.918e-10,0.1989,0,12.36,9244,8.83961,1
619,0,0,12.38,-6.37048e-10,-6.8495e-10,0.1989,0,12.38,9244,8.83317,1
620,0,0,12.4,-6.30538e-10,-6.781e-10,0.1989,0,12.4,9244,8.82673,1
621,0,0,12.42,-6.24028e-10,-6.7125e-10,0.1989,0,12.42,9244,8.82029,1
622,0,0,12.44,-6.17518e-10,-6.644e-10,0.1989,0,12.44,9244,8.81386,1
623,0,0,12.46,-6.11008e-10,-6.5755e-10,0.1989,0,12.46,9244,8.80742,1
624,0,0,12.48,-6.04498e-10,-6.507e-10,0.1989,0,12.48,9244,8.80098,1
625,0,0,12.5,-5.97988e-10,-6.4385e-10,0.1989,0,12.5,9244,8.79454,1
626,0,0,12.52,-5.91477e-10,-6.37e-10,0.1989,0,12.52,9244,8.78811,1
627,0,0,12.54,-5.84968e-10,-6.3015e-10,0.1989,0,12.54,9244,8.78167,1
628,0,0,12.56,-5.78457e-10,-6.233e-10,0.1989,0,12.56,9244,8.77523,1
629,0,0,12.58,-5.71948e-10,-6.1645e-10,0.1989,0,12.58,9244,8.76879,1
630,0,0,12.6,-5.65437e-10,-6.096e-10,0.1989,0,12.6,9244,8.76235,1
631,0,0,12.62,-5.58928e-10,-6.0275e-10,0.1989,0,12.62,9244,8.75592,1
632,0,0,12.64,-5.52417e-10,-5.959e-10,0.1989,0,12.64,9244,8.74948,1
633,0,0,12.66,-5.45908e-10,-5.8905e-10,0.1989,0,12.66,9244,8.74304,1
634,0,0,12.68,-5.39397e-10,-5.822e-10,0.1989,0,12.68,9244,8.7366,1
635,0,0,12.7,-5.32888e-10,-5.7535e-10,0.1989,0,12.7,9244,8.73017,1
636,0,0,12.72,-5.26377e-10,-5.685e-10,0.1989,0,12.72,9244,8.72373,1
637,0,0,12.74,-5.19868e-10,-5.6165e-10,0.1989,0,12.74,9244,8.71729,1
638,0,0,12.76,-5.13357e-10,-5.548e-10,0.1989,0,12.76,9244,8.71085,1
639,0,0,12.78,-5.06848e-10,-5.4795e-10,0.1989,0,12.78,9244,8.70442,1
640,0,0,12.8,-5.00337e-10,-5.411e-10,0.1989,0,12.8,9244,8.69798,1
641,0,0,12.82,-4.93827e-10,-5.3425e-10,0.1989,0,12.82,9244,8.69154,1
642,0,0,12.84,-4.87317e-10,-5.274e-10,0.1989,0,12.84,9244,8.68511,1
643,0,0,12.86,-4.80808e-10,-5.2055e-10,0.1989,0,12.86,9244,8.67867,1
644,0,0,12.88,-4.74297e-10,-5.137e-10,0.1989,0,12.88,9244,8.67223,1
645,0,0,12.9,-4.67787e-10,-5.0685e-10,0.1989,0,12.9,9244,8.66579,1
646,0,0,12.92,-4.61277e-10,-5e-10,0.1989,0,12.92,9244,8.65936,1
647,0,0,12.94,-4.54767e-10,-4.9315e-10,0.1989,0,12.94,9244,8.65292,1
648,0,0,12.96,-4.48257e-10,-4.863e-10,0.1989,0,12.96,9244,8.64648,1
649,0,0,12.98,-4.41747e-10,-4.7945e-10,0.1989,0,12.98,9244,8.64004,1
650,0,0,13,-4.35237e-10,-4.726e-10,0.1989,0,13,9244,8.63361,1
651,0,0,13.02,-4.30647e-10,-4.67823e-10,0.1989,0,13.02,9344,8.62717,1
652,0,0,13.04,-4.26058e-10,-4.63046e-10,0.1989,0,13.04,9344,8.62073,1
653,0,0,13.06,-4.21468e-10,-4.58269e-10,0.1989,0,13.06,9344,8.61429,1
654,0,0,13.08,-4.16878e-10,-4.53492e-10,0.1989,0,13.08,9344,8.60786,1
655,0,0,13.1,-4.12288e-10,-4.48715e-10,0.1989,0,13.1,9344,8.60142,1
656,0,0,13.12,-4.07699e-10,-4.43938e-10,0.1989,0,13.12,9344,8.59498,1
657,0,0,13.14,-4.03109e-10,-4.39161e-10,0.1989,0,13.14,9344,8.58854,1
658,0,0,13.16,-3.98519e-10,-4.34384e-10,0.198899,0,13.16,9344,8.58211,1
659,0,0,13.18,-3.93929e-10,-4.29607e-10,0.198899,0,13.18,9344,8.57567,1
660,0,0,13.2,-3.8934e-10,-4.2483e-10,0.198899,0,13.2,9344,8.56923,1
661,0,0,13.22,-3.8475e-10,-4.20053e-10,0.198899,0,13.22,9344,8.5628,1
662,0,0,13.24,-3.8016e-10,-4.15276e-10,0.198899,0,13.24,9344,8.55636,1
663,0,0,13.26,-3.7557e-10,-4.10499e-10,0.198899,0,13.26,9344,8.54992,1
664,0,0,13.28,-3.70981e-10,-4.05722e-10,0.198899,0,13.28,9344,8.54349,1
665,0,0,13.3,-3.66391e-10,-4.00945e-10,0.198899,0,13.3,9344,8.53705,1
666,0,0,13.32,-3.61801e-10,-3.96168e-10,0.198899,0,13.32,9344,8.53061,1
667,0,0,13.34,-3.57211e-10,-3.91391e-10,0.198899,0,13.34,9344,8.52417,1
668,0,0,13.36,-3.52622e-10,-3.86614e-10,0.198899,0,13.36,9344,8.51774,1
669,0,0,13.38,-3.48032e-10,-3.81837e-10,0.198899,0,13.38,9344,8.5113,1
670,0,0,13.4,-3.43442e-10,-3.7706e-10,0.198899,0,13.4,9344,8.50486,1
671,0,0,13.42,-3.38852e-10,-3.72283e-10,0.198899,0,13.42,9344,8.49843,1
672,0,0,13.44,-3.34263e-10,-3.67506e-10,0.198898,0,13.44,9344,8.49199,1
673,0,0,13.46,-3.29673e-10,-3.62729e-10,0.198898,0,13.46,9344,8.48555,1
674,0,0,13.48,-3.25083e-10,-3.57952e-10,0.198898,0,13.48,9344,8.47911,1
675,0,0,13.5,-3.20493e-10,-3.53175e-10,0.198898,0,13.5,9344,8.47268,1
676,0,0,13.52,-3.15903e-10,-3.48397e-10,0.198898,0,13.52,9344,8.46624,1
677,0,0,13.54,-3.11314e-10,-3.43621e-10,0.198898,0,13.54,9344,8.4598,1
678,0,0,13.56,-3.06724e-10,-3.38843e-10,0.198898,0,13.56,9344,8.45337,1
679,0,0,13.58,-3.02134e-10,-3.34066e-10,0.198898,0,13.58,9344,8.44693,1
680,0,0,13.6,-2.97544e-10,-3.29289e-10,0.198898,0,13.6,9344,8.44049,1
681,0,0,13.62,-2.92955e-10,-3.24513e-10,0.198898,0,13.62,9344,8.43406,1
682,0,0,13.64,-2.88365e-10,-3.19735e-10,0.198898,0,13.64,9344,8.42762,1
683,0,0,13.66,-2.83775e-10,-3.14958e-10,0.198898,0,13.66,9344,8.42118,1
684,0,0,13.68,-2.79185e-10,-3.10181e-10,0.198898,0,13.68,9344,8.41474,1
685,0,0,13.7,-2.74596e-10,-3.05404e-10,0.198898,0,13.7,9344,8.40831,1
686,0,0,13.72,-2.70006e-10,-3.00627e-10,0.198897,0,13.72,9344,8.40187,1
687,0,0,13.74,-2.65416e-10,-2.9585e-10,0.198897,0,13.74,9344,8.39543,1
688,0,0,13.76,-2.60826e-10,-2.91073e-10,0.198897,0,13.76,9344,8.389,1
689,0,0,13.78,-2.56237e-10,-2.86296e-10,0.198897,0,13.78,9344,8.38256,1
690,0,0,13.8,-2.51647e-10,-2.81519e-10,0.198897,0,13.8,9344,8.37612,1
691,0,0,13.82,-2.47057e-10,-2.76742e-10,0.198897,0,13.82,9344,8.36968,1
692,0,0,13.84,-2.42467e-10,-2.71965e-10,0.198897,0,13.84,9344,8.36325,1
693,0,0,13.86,-2.37878e-10,-2.67188e-10,0.198897,0,13.86,9344,8.35681,1
694,0,0,13.88,-2.33288e-10,-2.62411e-10,0.198897,0,13.88,9344,8.35037,1
695,0,0,13.9,-2.28698e-10,-2.57634e-10,0.198897,0,13.9,9344,8.34394,1
696,0,0,13.92,-2.24108e-10,-2.52857e-10,0.198897,0,13.92,9344,8.3375,1
697,0,0,13.94,-2.19519e-10,-2.4808e-10,0.198897,0,13.94,9344,8.33106,1
698,0,0,13.96,-2.14929e-10,-2.43303e-10,0.198897,0,13.96,9344,8.32463,1
699,0,0,13.98,-2.10339e-10,-2.38526e-10,0.198897,0,13.98,9344,8.31819,1
700,0,0,14,-2.05749e-10,-2.33749e-10,0.198896,0,14,9344,8.31175,1
701,0,0,14.02,-2.02524e-10,-2.30444e-10,0.198896,0,14.02,9444,8.30531,1
702,0,0,14.04,-1.99299e-10,-2.27139e-10,0.198896,0,14.04,9444,8.29888,1
703,0,0,14.06,-1.96074e-10,-2.23834e-10,0.198896,0,14.06,9444,8.29244,1
704,0,0,14.08,-1.92849e-10,-2.20529e-10,0.198896,0,14.08,9444,8.286,1
705,0,0,14.1,-1.89624e-10,-2.17224e-10,0.198896,0,14.1,9444,8.27956,1
706,0,0,14.12,-1.86399e-10,-2.13919e-10,0.198895,0,14.12,9444,8.27313,1
707,0,0,14.14,-1.83174e-10,-2.10614e-10,0.198895,0,14.14,9444,8.26669,1
708,0,0,14.16,-1.79949e-10,-2.07309e-10,0.198895,0,14.16,9444,8.26025,1
709,0,0,14.18,-1.76724e-10,-2.04004e-10,0.198895,0,14.18,9444,8.25381,1
710,0,0,14.2,-1.73499e-10,-2.00699e-10,0.198895,0,14.2,9444,8.24738,1
711,0,0,14.22,-1.70274e-10,-1.97394e-10,0.198894,0,14.22,9444,8.24094,1
712,0,0,14.24,-1.67049e-10,-1.94089e-10,0.198894,0,14.24,9444,8.2345,1
713,0,0,14.26,-1.63824e-10,-1.90784e-10,0.198894,0,14.26,9444,8.22807,1
714,0,0,14.28,-1.60599e-10,-1.87479e-10,0.198894,0,14.28,9444,8.22163,1
715,0,0,14.3,-1.57374e-10,-1.84174e-10,0.198894,0,14.3,9444,8.21519,1
716,0,0,14.32,-1.54149e-10,-1.80869e-10,0.198893,0,14.32,9444,8.20875,1
717,0,0,14.34,-1.50924e-10,-1.77564e-10,0.198893,0,14.34,9444,8.20232,1
718,0,0,14.36,-1.47699e-10,-1.74259e-10,0.198893,0,14.36,9444,8.19588,1
719,0,0,14.38,-1.44474e-10,-1.70954e-10,0.198893,0,14.38,9444,8.18944,1
720,0,0,14.4,-1.41249e-10,-1.67649e-10,0.198893,0,14.4,9444,8.183,1
721,0,0,14.42,-1.38024e-10,-1.64344e-10,0.198893,0,14.42,9444,8.17657,1
722,0,0,14.44,-1.34799e-10,-1.61039e-10,0.198892,0,14.44,9444,8.17013,1
723,0,0,14.46,-1.31574e-10,-1.57734e-10,0.198892,0,14.46,9444,8.16369,1
724,0,0,14.48,-1.28349e-10,-1.54429e-10,0.198892,0,14.48,9444,8.15726,1
725,0,0,14.5,-1.25124e-10,-1.51124e-10,0.198892,0,14.5,9444,8.15082,1
726,0,0,14.52,-1.21899e-10,-1.47819e-10,0.198892,0,14.52,9444,8.14438,1
727,0,0,14.54,-1.18674e-10,-1.44514e-10,0.198891,0,14.54,9444,8.13794,1
728,0,0,14.56,-1.15449e-10,-1.41209e-10,0.198891,0,14.56,9444,8.13151,1
729,0,0,14.58,-1.12224e-10,-1.37904e-10,0.198891,0,14.58,9444,8.12507,1
730,0,0,14.6,-1.08999e-10,-1.34599e-10,0.198891,0,14.6,9444,8.11863,1
731,0,0,14.62,-1.05774e-10,-1.31294e-10,0.198891,0,14.62,9444,8.11219,1
732,0,0,14.64,-1.02549e-10,-1.27989e-10,0.19889,0,14.64,9444,8.10576,1
733,0,0,14.66,-9.93238e-11,-1.24684e-10,0.19889,0,14.66,9444,8.09932,1
734,0,0,14.68,-9.60987e-11,-1.21379e-10,0.19889,0,14.68,9444,8.09288,1
735,0,0,14.7,-9.28738e-11,-1.18074e-10,0.19889,0,14.7,9444,8.08644,1
736,0,0,14.72,-8.96487e-11,-1.14769e-10,0.19889,0,14.72,9444,8.08001,1
737,0,0,14.74,-8.64238e-11,-1.11464e-10,0.198889,0,14.74,9444,8.07357,1
738,0,0,14.76,-8.31987e-11,-1.08159e-10,0.198889,0,14.76,9444,8.06713,1
739,0,0,14.78,-7.99737e-11,-1.04854e-10,0.198889,0,14.78,9444,8.0607,1
740,0,0,14.8,-7.67486e-11,-1.01549e-10,0.198889,0,14.8,9444,8.05426,1
741,0,0,14.82,-7.35237e-11,-9.82437e-11,0.198889,0,14.82,9444,8.04782,1
742,0,0,14.84,-7.02986e-11,-9.49386e-11,0.198889,0,14.84,9444,8.04138,1
743,0,0,14.86,-6.70737e-11,-9.16337e-11,0.198888,0,14.86,9444,8.03495,1
744,0,0,14.88,-6.38486e-11,-8.83286e-11,0.198888,0,14.88,9444,8.02851,1
745,0,0,14.9,-6.06237e-11,-8.50237e-11,0.198888,0,14.9,9444,8.02207,1
746,0,0,14.92,-5.73986e-11,-8.17186e-11,0.198888,0,14.92,9444,8.01563,1
747,0,0,14.94,-5.41736e-11,-7.84136e-11,0.198888,0,14.94,9444,8.0092,1
748,0,0,14.96,-5.09485e-11,-7.51085e-11,0.198887,0,14.96,9444,8.00276,1
749,0,0,14.98,-4.77236e-11,-7.18036e-11,0.198887,0,14.98,9444,7.99632,1
750,0,0,15,-4.44985e-11,-6.84985e-11,0.198887,0,15,9444,7.98988,1
751,0,0,15.02,-4.20584e-11,-6.60034e-11,0.198887,0,15.02,9544,7.98345,1
752,0,0,15.04,-3.96185e-11,-6.35085e-11,0.198886,0,15.04,9544,7.97701,1
753,0,0,15.06,-3.71784e-11,-6.10134e-11,0.198886,0,15.06,9544,7.97058,1
754,0,0,15.08,-3.47384e-11,-5.85184e-11,0.198886,0,15.08,9544,7.96414,1
755,0,0,15.1,-3.22983e-11,-5.60233e-11,0.198885,0,15.1,9544,7.95771,1
756,0,0,15.12,-2.98584e-11,-5.35284e-11,0.198885,0,15.12,9544,7.95127,1
757,0,0,15.14,-2.74183e-11,-5.10333e-11,0.198885,0,15.14,9544,7.94484,1
758,0,0,15.16,-2.49783e-11,-4.85383e-11,0.198884,0,15.16,9544,7.9384,1
759,0,0,15.18,-2.25382e-11,-4.60432e-11,0.198884,0,15.18,9544,7.93197,1
760,0,0,15.2,-2.00982e-11,-4.35482e-11,0.198884,0,15.2,9544,7.92553,1
761,0,0,15.22,-1.76582e-11,-4.10532e-11,0.198883,0,15.22,9544,7.9191,1
762,0,0,15.24,-1.52182e-11,-3.85582e-11,0.198883,0,15.24,9544,7.91266,1
763,0,0,15.26,-1.27781e-11,-3.60631e-11,0.198883,0,15.26,9544,7.90623,1
764,0,0,15.28,-1.03381e-11,-3.35681e-11,0.198882,0,15.28,9544,7.89979,1
765,0,0,15.3,-7.89805e-12,-3.1073e-11,0.198882,0,15.3,9544,7.89336,1
766,0,0,15.32,-5.45808e-12,-2.85781e-11,0.198882,0,15.32,9544,7.88692,1
767,0,0,15.34,-3.01799e-12,-2.6083e-11,0.198881,0,15.34,9544,7.88049,1
768,0,0,15.36,-5.78025e-13,-2.3588e-11,0.198881,0,15.36,9544,7.87405,1
769,0,0,15.38,1.86206e-12,-2.10929e-11,0.198881,0,15.38,9544,7.86762,1
770,0,0,15.4,4.30203e-12,-1.8598e-11,0.19888,0,15.4,9544,7.86118,1
771,0,0,15.42,6.74212e-12,-1.61029e-11,0.19888,0,15.42,9544,7.85475,1
772,0,0,15.44,9.18208e-12,-1.36079e-11,0.19888,0,15.44,9544,7.84831,1
773,0,0,15.46,1.16222e-11,-1.11128e-11,0.198879,0,15.46,9544,7.84188,1
774,0,0,15.48,1.40621e-11,-8.61786e-12,0.198879,0,15.48,9544,7.83544,1
775,0,0,15.5,1.65022e-11,-6.12277e-12,0.198879,0,15.5,9544,7.82901,1
776,0,0,15.52,1.89423e-11,-3.62768e-12,0.198878,0,15.52,9544,7.82257,1
777,0,0,15.54,2.13823e-11,-1.13272e-12,0.198878,0,15.54,9544,7.81613,1
778,0,0,15.56,2.38224e-11,1.36237e-12,0.198877,0,15.56,9544,7.8097,1
779,0,0,15.58,2.62623e-11,3.85734e-12,0.198877,0,15.58,9544,7.80326,1
780,0,0,15.6,2.87024e-11,6.35242e-12,0.198877,0,15.6,9544,7.79683,1
781,0,0,15.62,3.11424e-11,8.84739e-12,0.198876,0,15.62,9544,7.79039,1
782,0,0,15.64,3.35825e-11,1.13425e-11,0.198876,0,15.64,9544,7.78396,1
783,0,0,15.66,3.60224e-11,1.38374e-11,0.198876,0,15.66,9544,7.77752,1
784,0,0,15.68,3.84625e-11,1.63325e-11,0.198875,0,15.68,9544,7.77109,1
785,0,0,15.7,4.09025e-11,1.88275e-11,0.198875,0,15.7,9544,7.76465,1
786,0,0,15.72,4.33426e-11,2.13226e-11,0.198875,0,15.72,9544,7.75822,1
787,0,0,15.74,4.57826e-11,2.38176e-11,0.198874,0,15.74,9544,7.75178,1
788,0,0,15.76,4.82226e-11,2.63126e-11,0.198874,0,15.76,9544,7.74535,1
789,0,0,15.78,5.06626e-11,2.88076e-11,0.198874,0,15.78,9544,7.73891,1
790,0,0,15.8,5.31027e-11,3.13027e-11,0.198873,0,15.8,9544,7.73248,1
791,0,0,15.82,5.55427e-11,3.37977e-11,0.198873,0,15.82,9544,7.72604,1
792,0,0,15.84,5.79828e-11,3.62928e-11,0.198873,0,15.84,9544,7.71961,1
793,0,0,15.86,6.04227e-11,3.87877e-11,0.198872,0,15.86,9544,7.71317,1
794,0,0,15.88,6.28628e-11,4.12828e-11,0.198872,0,15.88,9544,7.70674,1
795,0,0,15.9,6.53028e-11,4.37778e-11,0.198872,0,15.9,9544,7.7003,1
796,0,0,15.92,6.77429e-11,4.62729e-11,0.198871,0,15.92,9544,7.69387,1
797,0,0,15.94,7.01828e-11,4.87678e-11,0.198871,0,15.94,9544,7.68743,1
798,0,0,15.96,7.26229e-11,5.12629e-11,0.198871,0,15.96,9544,7.681,1
799,0,0,15.98,7.50629e-11,5.37579e-11,0.19887,0,15.98,9544,7.67456,1
800,0,0,16,7.7503e-11,5.6253e-11,0.19887,0,16,9544,7.66813,1
801,0,0,16.02,7.92531e-11,5.80531e-11,0.198869,0,16.02,9644,7.66169,1
802,0,0,16.04,8.10031e-11,5.98532e-11,0.198869,0,16.04,9644,7.65525,1
803,0,0,16.06,8.27531e-11,6.16531e-11,0.198868,0,16.06,9644,7.64881,1
804,0,0,16.08,8.45031e-11,6.34532e-11,0.198867,0,16.08,9644,7.64237,1
805,0,0,16.1,8.62532e-11,6.52532e-11,0.198866,0,16.1,9644,7.63594,1
806,0,0,16.12,8.80033e-11,6.70533e-11,0.198866,0,16.12,9644,7.6295,1
807,0,0,16.14,8.97532e-11,6.88532e-11,0.198865,0,16.14,9644,7.62306,1
808,0,0,16.16,9.15033e-11,7.06533e-11,0.198864,0,16.16,9644,7.61662,1
809,0,0,16.18,9.32534e-11,7.24534e-11,0.198863,0,16.18,9644,7.61019,1
810,0,0,16.2,9.50035e-11,7.42535e-11,0.198863,0,16.2,9644,7.60375,1
811,0,0,16.22,9.67534e-11,7.60534e-11,0.198862,0,16.22,9644,7.59731,1
812,0,0,16.24,9.85035e-11,7.78535e-11,0.198861,0,16.24,9644,7.59087,1
813,0,0,16.26,1.00254e-10,7.96536e-11,0.19886,0,16.26,9644,7.58443,1
814,0,0,16.28,1.02004e-10,8.14537e-11,0.19886,0,16.28,9644,7.578,1
815,0,0,16.3,1.03754e-10,8.32536e-11,0.198859,0,16.3,9644,7.57156,1
816,0,0,16.32,1.05504e-10,8.50537e-11,0.198858,0,16.32,9644,7.56512,1
817,0,0,16.34,1.07254e-10,8.68538e-11,0.198857,0,16.34,9644,7.55868,1
818,0,0,16.36,1.09004e-10,8.86539e-11,0.198857,0,16.36,9644,7.55225,1
819,0,0,16.38,1.10754e-10,9.04538e-11,0.198856,0,16.38,9644,7.54581,1
820,0,0,16.4,1.12504e-10,9.22539e-11,0.198855,0,16.4,9644,7.53937,1
821,0,0,16.42,1.14254e-10,9.4054e-11,0.198854,0,16.42,9644,7.53293,1
822,0,0,16.44,1.16004e-10,9.5854e-11,0.198854,0,16.44,9644,7.5265,1
823,0,0,16.46,1.17754e-10,9.7654e-11,0.198853,0,16.46,9644,7.52006,1
824,0,0,16.48,1.19504e-10,9.9454e-11,0.198852,0,16.48,9644,7.51362,1
825,0,0,16.5,1.21254e-10,1.01254e-10,0.198852,0,16.5,9644,7.50718,1
826,0,0,16.52,1.23004e-10,1.03054e-10,0.198851,0,16.52,9644,7.50074,1
827,0,0,16.54,1.24754e-10,1.04854e-10,0.19885,0,16.54,9644,7.49431,1
828,0,0,16.56,1.26504e-10,1.06654e-10,0.198849,0,16.56,9644,7.48787,1
829,0,0,16.58,1.28254e-10,1.08454e-10,0.198849,0,16.58,9644,7.48143,1
830,0,0,16.6,1.30004e-10,1.10254e-10,0.198848,0,16.6,9644,7.47499,1
831,0,0,16.62,1.31754e-10,1.12054e-10,0.198847,0,16.62,9644,7.46856,1
832,0,0,16.64,1.33504e-10,1.13854e-10,0.198846,0,16.64,9644,7.46212,1
833,0,0,16.66,1.35254e-10,1.15654e-10,0.198846,0,16.66,9644,7.45568,1
834,0,0,16.68,1.37005e-10,1.17455e-10,0.198845,0,16.68,9644,7.44924,1
835,0,0,16.7,1.38755e-10,1.19255e-10,0.198844,0,16.7,9644,7.44281,1
836,0,0,16.72,1.40505e-10,1.21055e-10,0.198843,0,16.72,9644,7.43637,1
837,0,0,16.74,1.42255e-10,1.22855e-10,0.198843,0,16.74,9644,7.42993,1
838,0,0,16.76,1.44005e-10,1.24655e-10,0.198842,0,16.76,9644,7.42349,1
839,0,0,16.78,1.45755e-10,1.26455e-10,0.198841,0,16.78,9644,7.41705,1
840,0,0,16.8,1.47505e-10,1.28255e-10,0.19884,0,16.8,9644,7.41062,1
841,0,0,16.82,1.49255e-10,1.30055e-10,0.19884,0,16.82,9644,7.40418,1
842,0,0,16.84,1.51005e-10,1.31855e-10,0.198839,0,16.84,9644,7.39774,1
843,0,0,16.86,1.52755e-10,1.33655e-10,0.198838,0,16.86,9644,7.3913,1
844,0,0,16.88,1.54505e-10,1.35455e-10,0.198837,0,16.88,9644,7.38487,1
845,0,0,16.9,1.56255e-10,1.37255e-10,0.198837,0,16.9,9644,7.37843,1
846,0,0,16.92,1.58005e-10,1.39055e-10,0.198836,0,16.92,9644,7.37199,1
847,0,0,16.94,1.59755e-10,1.40855e-10,0.198835,0,16.94,9644,7.36555,1
848,0,0,16.96,1.61505e-10,1.42655e-10,0.198834,0,16.96,9644,7.35912,1
849,0,0,16.98,1.63255e-10,1.44455e-10,0.198834,0,16.98,9644,7.35268,1
850,0,0,17,1.65005e-10,1.46255e-10,0.198833,0,17,9644,7.34624,1
851,0,0,17.02,1.66605e-10,1.4793e-10,0.198832,0,17.02,9744,7.33981,1
852,0,0,17.04,1.68206e-10,1.49606e-10,0.198831,0,17.04,9744,7.33339,1
853,0,0,17.06,1.69805e-10,1.5128e-10,0.19883,0,17.06,9744,7.32696,1
854,0,0,17.08,1.71406e-10,1.52956e-10,0.198829,0,17.08,9744,7.32054,1
855,0,0,17.1,1.73006e-10,1.54631e-10,0.198828,0,17.1,9744,7.31411,1
856,0,0,17.12,1.74606e-10,1.56306e-10,0.198826,0,17.12,9744,7.30769,1
857,0,0,17.14,1.76206e-10,1.57981e-10,0.198825,0,17.14,9744,7.30126,1
858,0,0,17.16,1.77806e-10,1.59656e-10,0.198824,0,17.16,9744,7.29484,1
859,0,0,17.18,1.79406e-10,1.61331e-10,0.198823,0,17.18,9744,7.28841,1
860,0,0,17.2,1.81006e-10,1.63006e-10,0.198822,0,17.2,9744,7.28199,1
861,0,0,17.22,1.82606e-10,1.64681e-10,0.198821,0,17.22,9744,7.27556,1
862,0,0,17.24,1.84206e-10,1.66356e-10,0.19882,0,17.24,9744,7.26914,1
863,0,0,17.26,1.85806e-10,1.68031e-10,0.198819,0,17.26,9744,7.26271,1
864,0,0,17.28,1.87406e-10,1.69706e-10,0.198818,0,17.28,9744,7.25629,1
865,0,0,17.3,1.89006e-10,1.71381e-10,0.198817,0,17.3,9744,7.24986,1
866,0,0,17.32,1.90606e-10,1.73056e-10,0.198816,0,17.32,9744,7.24344,1
867,0,0,17.34,1.92206e-10,1.74731e-10,0.198814,0,17.34,9744,7.23701,1
868,0,0,17.36,1.93807e-10,1.76407e-10,0.198813,0,17.36,9744,7.23058,1
869,0,0,17.38,1.95407e-10,1.78082e-10,0.198812,0,17.38,9744,7.22416,1
870,0,0,17.4,1.97007e-10,1.79757e-10,0.198811,0,17.4,9744,7.21773,1
871,0,0,17.42,1.98607e-10,1.81432e-10,0.19881,0,17.42,9744,7.21131,1
872,0,0,17.44,2.00207e-10,1.83107e-10,0.198809,0,17.44,9744,7.20488,1
873,0,0,17.46,2.01807e-10,1.84782e-10,0.198808,0,17.46,9744,7.19846,1
874,0,0,17.48,2.03407e-10,1.86457e-10,0.198807,0,17.48,9744,7.19203,1
875,0,0,17.5,2.05007e-10,1.88132e-10,0.198806,0,17.5,9744,7.18561,1
876,0,0,17.52,2.06607e-10,1.89807e-10,0.198805,0,17.52,9744,7.17918,1
877,0,0,17.54,2.08207e-10,1.91482e-10,0.198804,0,17.54,9744,7.17276,1
878,0,0,17.56,2.09807e-10,1.93157e-10,0.198802,0,17.56,9744,7.16633,1
879,0,0,17.58,2.11407e-10,1.94832e-10,0.198801,0,17.58,9744,7.15991,1
880,0,0,17.6,2.13007e-10,1.96507e-10,0.1988,0,17.6,9744,7.15348,1
881,0,0,17.62,2.14607e-10,1.98182e-10,0.198799,0,17.62,9744,7.14706,1
882,0,0,17.64,2.16207e-10,1.99857e-10,0.198798,0,17.64,9744,7.14063,1
883,0,0,17.66,2.17808e-10,2.01533e-10,0.198797,0,17.66,9744,7.1342,1
884,0,0,17.68,2.19408e-10,2.03208e-10,0.198796,0,17.68,9744,7.12778,1
885,0,0,17.7,2.21008e-10,2.04883e-10,0.198795,0,17.7,9744,7.12135,1
886,0,0,17.72,2.22608e-10,2.06558e-10,0.198794,0,17.72,9744,7.11493,1
887,0,0,17.74,2.24208e-10,2.08233e-10,0.198793,0,17.74,9744,7.1085,1
888,0,0,17.76,2.25808e-10,2.09908e-10,0.198792,0,17.76,9744,7.10208,1
889,0,0,17.78,2.27408e-10,2.11583e-10,0.19879,0,17.78,9744,7.09565,1
890,0,0,17.8,2.29008e-10,2.13258e-10,0.198789,0,17.8,9744,7.08923,1
891,0,0,17.82,2.30608e-10,2.14933e-10,0.198788,0,17.82,9744,7.0828,1
892,0,0,17.84,2.32208e-10,2.16608e-10,0.198787,0,17.84,9744,7.07638,1
893,0,0,17.86,2.33808e-10,2.18283e-10,0.198786,0,17.86,9744,7.06995,1
894,0,0,17.88,2.35408e-10,2.19958e-10,0.198785,0,17.88,9744,7.06353,1
895,0,0,17.9,2.37008e-10,2.21633e-10,0.198784,0,17.9,9744,7.0571,1
896,0,0,17.92,2.38608e-10,2.23308e-10,0.198783,0,17.92,9744,7.05068,1
897,0,0,17.94,2.40209e-10,2.24984e-10,0.198782,0,17.94,9744,7.04425,1
898,0,0,17.96,2.41809e-10,2.26659e-10,0.198781,0,17.96,9744,7.03783,1
899,0,0,17.98,2.43409e-10,2.28334e-10,0.19878,0,17.98,9744,7.0314,1
900,0,0,18,2.45009e-10,2.30009e-10,0.198778,0,18,9744,7.02497,1
901,0,0,18.02,2.47159e-10,2.32209e-10,0.198776,0,18.02,9844,7.01853,1
902,0,0,18.04,2.49309e-10,2.34409e-10,0.198774,0,18.04,9844,7.01209,1
903,0,0,18.06,2.51459e-10,2.36609e-10,0.198772,0,18.06,9844,7.00565,1
904,0,0,18.08,2.53609e-10,2.38809e-10,0.19877,0,18.08,9844,6.99921,1
905,0,0,18.1,2.55759e-10,2.41009e-10,0.198768,0,18.1,9844,6.99277,1
906,0,0,18.12,2.57909e-10,2.43209e-10,0.198766,0,18.12,9844,6.98633,1
907,0,0,18.14,2.60059e-10,2.45409e-10,0.198764,0,18.14,9844,6.97989,1
908,0,0,18.16,2.62209e-10,2.47609e-10,0.198761,0,18.16,9844,6.97345,1
909,0,0,18.18,2.64359e-10,2.49809e-10,0.198759,0,18.18,9844,6.96701,1
910,0,0,18.2,2.66509e-10,2.52009e-10,0.198757,0,18.2,9844,6.96057,1
911,0,0,18.22,2.68659e-10,2.54209e-10,0.198755,0,18.22,9844,6.95413,1
912,0,0,18.24,2.70809e-10,2.56409e-10,0.198753,0,18.24,9844,6.94769,1
913,0,0,18.26,2.72959e-10,2.58609e-10,0.198751,0,18.26,9844,6.94125,1
914,0,0,18.28,2.75109e-10,2.60809e-10,0.198749,0,18.28,9844,6.9348,1
915,0,0,18.3,2.77259e-10,2.63009e-10,0.198747,0,18.3,9844,6.92836,1
916,0,0,18.32,2.79409e-10,2.65209e-10,0.198744,0,18.32,9844,6.92192,1
917,0,0,18.34,2.81559e-10,2.67409e-10,0.198742,0,18.34,9844,6.91548,1
918,0,0,18.36,2.8371e-10,2.6961e-10,0.19874,0,18.36,9844,6.90904,1
919,0,0,18.38,2.85859e-10,2.71809e-10,0.198738,0,18.38,9844,6.9026,1
920,0,0,18.4,2.8801e-10,2.7401e-10,0.198736,0,18.4,9844,6.89616,1
921,0,0,18.42,2.9016e-10,2.7621e-10,0.198734,0,18.42,9844,6.88972,1
922,0,0,18.44,2.9231e-10,2.7841e-10,0.198732,0,18.44,9844,6.88328,1
923,0,0,18.46,2.9446e-10,2.8061e-10,0.19873,0,18.46,9844,6.87684,1
924,0,0,18.48,2.9661e-10,2.8281e-10,0.198727,0,18.48,9844,6.8704,1
925,0,0,18.5,2.9876e-10,2.8501e-10,0.198725,0,18.5,9844,6.86396,1
926,0,0,18.52,3.0091e-10,2.8721e-10,0.198723,0,18.52,9844,6.85752,1
927,0,0,18.54,3.0306e-10,2.8941e-10,0.198721,0,18.54,9844,6.85108,1
928,0,0,18.56,3.0521e-10,2.9161e-10,0.198719,0,18.56,9844,6.84464,1
929,0,0,18.58,3.0736e-10,2.9381e-10,0.198717,0,18.58,9844,6.83819,1
930,0,0,18.6,3.0951e-10,2.9601e-10,0.198715,0,18.6,9844,6.83175,1
931,0,0,18.62,3.1166e-10,2.9821e-10,0.198712,0,18.62,9844,6.82531,1
932,0,0,18.64,3.1381e-10,3.0041e-10,0.19871,0,18.64,9844,6.81887,1
933,0,0,18.66,3.1596e-10,3.0261e-10,0.198708,0,18.66,9844,6.81243,1
934,0,0,18.68,3.1811e-10,3.0481e-10,0.198706,0,18.68,9844,6.80599,1
935,0,0,18.7,3.2026e-10,3.0701e-10,0.198704,0,18.7,9844,6.79955,1
936,0,0,18.72,3.2241e-10,3.0921e-10,0.198702,0,18.72,9844,6.79311,1
937,0,0,18.74,3.2456e-10,3.1141e-10,0.1987,0,18.74,9844,6.78667,1
938,0,0,18.76,3.2671e-10,3.1361e-10,0.198698,0,18.76,9844,6.78023,1
939,0,0,18.78,3.2886e-10,3.1581e-10,0.198695,0,18.78,9844,6.77379,1
940,0,0,18.8,3.3101e-10,3.1801e-10,0.198693,0,18.8,9844,6.76735,1
941,0,0,18.82,3.3316e-10,3.2021e-10,0.198691,0,18.82,9844,6.76091,1
942,0,0,18.84,3.35311e-10,3.22411e-10,0.198689,0,18.84,9844,6.75447,1
943,0,0,18.86,3.37461e-10,3.24611e-10,0.198687,0,18.86,9844,6.74802,1
944,0,0,18.88,3.39611e-10,3.26811e-10,0.198685,0,18.88,9844,6.74158,1
945,0,0,18.9,3.41761e-10,3.29011e-10,0.198683,0,18.9,9844,6.73514,1
946,0,0,18.92,3.43911e-10,3.31211e-10,0.198681,0,18.92,9844,6.7287,1
947,0,0,18.94,3.46061e-10,3.33411e-10,0.198678,0,18.94,9844,6.72226,1
948,0,0,18.96,3.48211e-10,3.35611e-10,0.198676,0,18.96,9844,6.71582,1
949,0,0,18.98,3.50361e-10,3.37811e-10,0.198674,0,18.98,9844,6.70938,1
950,0,0,19,3.52511e-10,3.40011e-10,0.198672,0,19,9844,6.70294,1
951,0,0,19.02,3.53711e-10,3.41211e-10,0.19867,0,19.02,9944,6.69656,1
952,0,0,19.04,3.54911e-10,3.42411e-10,0.198669,0,19.04,9944,6.69018,1
953,0,0,19.06,3.56111e-10,3.43611e-10,0.198667,0,19.06,9944,6.68381,1
954,0,0,19.08,3.57311e-10,3.44811e-10,0.198666,0,19.08,9944,6.67743,1
955,0,0,19.1,3.58511e-10,3.46011e-10,0.198664,0,19.1,9944,6.67105,1
956,0,0,19.12,3.59711e-10,3.47211e-10,0.198663,0,19.12,9944,6.66467,1
957,0,0,19.14,3.60911e-10,3.48411e-10,0.198661,0,19.14,9944,6.6583,1
958,0,0,19.16,3.62111e-10,3.49611e-10,0.198659,0,19.16,9944,6.65192,1
959,0,0,19.18,3.63311e-10,3.50811e-10,0.198658,0,19.18,9944,6.64554,1
960,0,0,19.2,3.64511e-10,3.52011e-10,0.198656,0,19.2,9944,6.63916,1
961,0,0,19.22,3.65711e-10,3.53211e-10,0.198655,0,19.22,9944,6.63279,1
962,0,0,19.24,3.66911e-10,3.54411e-10,0.198653,0,19.24,9944,6.62641,1
963,0,0,19.26,3.68111e-10,3.55611e-10,0.198651,0,19.26,9944,6.62003,1
964,0,0,19.28,3.69311e-10,3.56811e-10,0.19865,0,19.28,9944,6.61365,1
965,0,0,19.3,3.70511e-10,3.58011e-10,0.198648,0,19.3,9944,6.60728,1
966,0,0,19.32,3.71711e-10,3.59211e-10,0.198647,0,19.32,9944,6.6009,1
967,0,0,19.34,3.72911e-10,3.60411e-10,0.198645,0,19.34,9944,6.59452,1
968,0,0,19.36,3.74111e-10,3.61611e-10,0.198644,0,19.36,9944,6.58814,1
969,0,0,19.38,3.75311e-10,3.62811e-10,0.198642,0,19.38,9944,6.58177,1
970,0,0,19.4,3.76511e-10,3.64011e-10,0.19864,0,19.4,9944,6.57539,1
971,0,0,19.42,3.77711e-10,3.65211e-10,0.198639,0,19.42,9944,6.56901,1
972,0,0,19.44,3.78911e-10,3.66411e-10,0.198637,0,19.44,9944,6.56263,1
973,0,0,19.46,3.80111e-10,3.67611e-10,0.198636,0,19.46,9944,6.55626,1
974,0,0,19.48,3.81311e-10,3.68811e-10,0.198634,0,19.48,9944,6.54988,1
975,0,0,19.5,3.82511e-10,3.70011e-10,0.198633,0,19.5,9944,6.5435,1
976,0,0,19.52,3.83711e-10,3.71211e-10,0.198631,0,19.52,9944,6.53712,1
977,0,0,19.54,3.84911e-10,3.72411e-10,0.198629,0,19.54,9944,6.53074,1
978,0,0,19.56,3.86111e-10,3.73611e-10,0.198628,0,19.56,9944,6.52437,1
979,0,0,19.58,3.87311e-10,3.74811e-10,0.198626,0,19.58,9944,6.51799,1
980,0,0,19.6,3.88511e-10,3.76011e-10,0.198625,0,19.6,9944,6.51161,1
981,0,0,19.62,3.89711e-10,3.77211e-10,0.198623,0,19.62,9944,6.50523,1
982,0,0,19.64,3.90911e-10,3.78411e-10,0.198621,0,19.64,9944,6.49886,1
983,0,0,19.66,3.92111e-10,3.79611e-10,0.19862,0,19.66,9944,6.49248,1
984,0,0,19.68,3.93311e-10,3.80811e-10,0.198618,0,19.68,9944,6.4861,1
985,0,0,19.7,3.94511e-10,3.82011e-10,0.198617,0,19.7,9944,6.47972,1
986,0,0,19.72,3.95711e-10,3.83211e-10,0.198615,0,19.72,9944,6.47335,1
987,0,0,19.74,3.96911e-10,3.84411e-10,0.198614,0,19.74,9944,6.46697,1
988,0,0,19.76,3.98111e-10,3.85611e-10,0.198612,0,19.76,9944,6.46059,1
989,0,0,19.78,3.99311e-10,3.86811e-10,0.19861,0,19.78,9944,6.45421,1
990,0,0,19.8,4.00511e-10,3.88011e-10,0.198609,0,19.8,9944,6.44784,1
991,0,0,19.82,4.01711e-10,3.89211e-10,0.198607,0,19.82,9944,6.44146,1
992,0,0,19.84,4.02911e-10,3.90411e-10,0.198606,0,19.84,9944,6.43508,1
993,0,0,19.86,4.04111e-10,3.91611e-10,0.198604,0,19.86,9944,6.4287,1
994,0,0,19.88,4.05311e-10,3.92811e-10,0.198602,0,19.88,9944,6.42233,1
995,0,0,19.9,4.06511e-10,3.94011e-10,0.198601,0,19.9,9944,6.41595,1
996,0,0,19.92,4.07711e-10,3.95211e-10,0.198599,0,19.92,9944,6.40957,1
997,0,0,19.94,4.08911e-10,3.96411e-10,0.198598,0,19.94,9944,6.40319,1
998,0,0,19.96,4.10111e-10,3.97611e-10,0.198596,0,19.96,9944,6.39682,1
999,0,0,19.98,4.11311e-10,3.98811e-10,0.198595,0,19.98,9944,6.39044,1
1000,0,0,20,4.12511e-10,4.00011e-10,0.198593,0,20,9944,6.38406,1
