0.000000e+00; 9.896695e+04; -2.774830e-03; 1.002145e+05; 1.306816e-03; 1.013250e+05; 6.548368e-17
5.000000e-03; 9.978260e+04; -4.880687e-04; 9.935038e+04; 1.698694e-03; 1.013250e+05; 1.309673e-16
1.000000e-02; 1.004018e+05; -2.117213e-03; 9.967100e+04; 1.729384e-03; 1.013250e+05; 1.964509e-16
1.500000e-02; 9.918051e+04; -1.381095e-03; 9.968273e+04; 1.713521e-03; 1.013250e+05; 2.619345e-16
2.000000e-02; 9.995148e+04; -1.465565e-03; 9.958807e+04; 1.611694e-03; 1.013250e+05; 3.274182e-16
2.500000e-02; 9.976540e+04; -1.918281e-03; 9.976725e+04; 1.614904e-03; 1.013250e+05; 3.929018e-16
3.000000e-02; 9.952055e+04; -1.388536e-03; 9.972379e+04; 1.639810e-03; 1.013250e+05; 4.583854e-16
3.500000e-02; 9.985356e+04; -1.672182e-03; 9.965199e+04; 1.604730e-03; 1.013250e+05; 5.238690e-16
4.000000e-02; 9.966956e+04; -1.692663e-03; 9.974335e+04; 1.611211e-03; 1.013250e+05; 5.893526e-16
4.500000e-02; 9.966947e+04; -1.516985e-03; 9.972207e+04; 1.626034e-03; 1.013250e+05; 6.548363e-16
5.000000e-02; 9.976069e+04; -1.666027e-03; 9.967916e+04; 1.607241e-03; 1.013250e+05; 7.203208e-16
5.500000e-02; 9.968524e+04; -1.621709e-03; 9.972888e+04; 1.610900e-03; 1.013250e+05; 7.858200e-16
6.000000e-02; 9.970802e+04; -1.584407e-03; 9.971970e+04; 1.620354e-03; 1.013250e+05; 8.515661e-16
6.500000e-02; 9.972281e+04; -1.634992e-03; 9.969308e+04; 1.609788e-03; 1.013250e+05; 9.215765e-16
7.000000e-02; 9.970362e+04; -1.611292e-03; 9.972070e+04; 1.611232e-03; 1.013250e+05; 1.079738e-15
7.500000e-02; 9.971234e+04; -1.607031e-03; 9.971767e+04; 1.617368e-03; 1.013250e+05; 1.231917e-15
8.000000e-02; 9.971269e+04; -1.618711e-03; 9.970082e+04; 1.611456e-03; 1.013250e+05; 1.606918e-15
8.500000e-02; 9.971132e+04; -1.612671e-03; 9.971620e+04; 1.611692e-03; 1.013250e+05; 1.718570e-15
9.000000e-02; 9.971166e+04; -1.612000e-03; 9.971611e+04; 1.615596e-03; 1.013250e+05; 1.652211e-15
9.500000e-02; 9.971146e+04; -1.613256e-03; 9.970543e+04; 1.612321e-03; 1.013250e+05; 1.385897e-15
1.000000e-01; 9.971318e+04; -1.613679e-03; 9.971385e+04; 1.612057e-03; 1.013250e+05; 6.780095e-16
1.050000e-01; 9.971155e+04; -1.612497e-03; 9.971491e+04; 1.614522e-03; 1.013250e+05; -2.982512e-16
1.100000e-01; 9.971190e+04; -1.612044e-03; 9.970819e+04; 1.612738e-03; 1.013250e+05; 3.500140e-15
1.150000e-01; 9.971326e+04; -1.613519e-03; 9.971269e+04; 1.612318e-03; 1.013250e+05; 1.036141e-14
1.200000e-01; 9.971195e+04; -1.612371e-03; 9.971402e+04; 1.613859e-03; 1.013250e+05; -1.464204e-14
1.250000e-01; 9.971231e+04; -1.611937e-03; 9.970985e+04; 1.612919e-03; 1.013250e+05; -1.547649e-13
1.300000e-01; 9.971309e+04; -1.613013e-03; 9.971217e+04; 1.612502e-03; 1.013250e+05; -6.526293e-13
1.350000e-01; 9.971238e+04; -1.612279e-03; 9.971339e+04; 1.613450e-03; 1.013250e+05; -2.376546e-12
1.400000e-01; 9.971255e+04; -1.611981e-03; 9.971084e+04; 1.612981e-03; 1.013250e+05; -8.221350e-12
1.450000e-01; 9.971299e+04; -1.612583e-03; 9.971194e+04; 1.612656e-03; 1.013250e+05; -2.728897e-11
1.500000e-01; 9.971248e+04; -1.612448e-03; 9.971341e+04; 1.612655e-03; 1.013250e+05; -8.724417e-11
1.550000e-01; 9.971283e+04; -1.611748e-03; 9.971172e+04; 1.612907e-03; 1.013250e+05; -2.685732e-10
1.600000e-01; 9.971302e+04; -1.612474e-03; 9.971143e+04; 1.613074e-03; 1.013250e+05; -7.954199e-10
1.650000e-01; 9.971273e+04; -1.612077e-03; 9.971186e+04; 1.613853e-03; 1.013250e+05; -2.265243e-09
1.700000e-01; 9.971291e+04; -1.612009e-03; 9.971022e+04; 1.614650e-03; 1.013250e+05; -6.200103e-09
1.750000e-01; 9.971295e+04; -1.612186e-03; 9.970869e+04; 1.616023e-03; 1.013249e+05; -1.629936e-08
1.800000e-01; 9.971292e+04; -1.612057e-03; 9.970639e+04; 1.619168e-03; 1.013248e+05; -4.112330e-08
1.850000e-01; 9.971293e+04; -1.612019e-03; 9.970071e+04; 1.624465e-03; 1.013246e+05; -9.948117e-08
1.900000e-01; 9.971297e+04; -1.612060e-03; 9.969170e+04; 1.633418e-03; 1.013239e+05; -2.304851e-07
1.950000e-01; 9.971299e+04; -1.612046e-03; 9.967720e+04; 1.648636e-03; 1.013225e+05; -5.107627e-07
2.000000e-01; 9.971296e+04; -1.612001e-03; 9.965283e+04; 1.673080e-03; 1.013193e+05; -1.080914e-06
2.050000e-01; 9.971299e+04; -1.612011e-03; 9.961503e+04; 1.711102e-03; 1.013125e+05; -2.180503e-06
2.100000e-01; 9.971301e+04; -1.612029e-03; 9.955823e+04; 1.768751e-03; 1.012988e+05; -4.183711e-06
2.150000e-01; 9.971298e+04; -1.611991e-03; 9.947441e+04; 1.853113e-03; 1.012727e+05; -7.614861e-06
2.200000e-01; 9.971300e+04; -1.611996e-03; 9.935538e+04; 1.972755e-03; 1.012254e+05; -1.310589e-05
2.250000e-01; 9.971301e+04; -1.612016e-03; 9.919159e+04; 2.137568e-03; 1.011440e+05; -2.124479e-05
2.300000e-01; 9.971299e+04; -1.611994e-03; 9.897229e+04; 2.357681e-03; 1.010121e+05; -3.227251e-05
2.350000e-01; 9.971300e+04; -1.611995e-03; 9.868769e+04; 2.642982e-03; 1.008112e+05; -4.563882e-05
2.400000e-01; 9.971300e+04; -1.612015e-03; 9.832902e+04; 3.002447e-03; 1.005253e+05; -5.953941e-05
2.450000e-01; 9.971299e+04; -1.612003e-03; 9.788917e+04; 3.442754e-03; 1.001477e+05; -7.070280e-05
2.500000e-01; 9.971299e+04; -1.612007e-03; 9.736437e+04; 3.967688e-03; 9.968911e+04; -7.479147e-05
2.550000e-01; 9.971299e+04; -1.612021e-03; 9.675445e+04; 4.577568e-03; 9.918347e+04; -6.768523e-05
2.600000e-01; 9.971298e+04; -1.612019e-03; 9.606266e+04; 5.268973e-03; 9.868722e+04; -4.751537e-05
2.650000e-01; 9.971297e+04; -1.612023e-03; 9.529589e+04; 6.035026e-03; 9.826830e+04; -1.667499e-05
2.700000e-01; 9.971297e+04; -1.612035e-03; 9.446387e+04; 6.866230e-03; 9.798543e+04; 1.750233e-05
2.750000e-01; 9.971296e+04; -1.612039e-03; 9.357787e+04; 7.751271e-03; 9.786463e+04; 4.456681e-05
2.800000e-01; 9.971295e+04; -1.612043e-03; 9.264990e+04; 8.678235e-03; 9.788526e+04; 5.527542e-05
2.850000e-01; 9.971295e+04; -1.612054e-03; 9.169144e+04; 9.635827e-03; 9.798594e+04; 4.655469e-05
2.900000e-01; 9.971294e+04; -1.612061e-03; 9.071240e+04; 1.061411e-02; 9.809164e+04; 2.397350e-05
2.950000e-01; 9.971293e+04; -1.612066e-03; 8.972079e+04; 1.160513e-02; 9.814864e+04; -6.385064e-07
3.000000e-01; 9.971293e+04; -1.612077e-03; 8.872244e+04; 1.260308e-02; 9.814640e+04; -1.575625e-05
3.050000e-01; 9.971292e+04; -1.612084e-03; 8.772118e+04; 1.360409e-02; 9.811219e+04; -1.682764e-05
3.100000e-01; 9.971291e+04; -1.612090e-03; 8.671917e+04; 1.460597e-02; 9.808329e+04; -8.208827e-06
3.150000e-01; 9.971290e+04; -1.612102e-03; 8.571744e+04; 1.560765e-02; 9.807872e+04; 1.162427e-06
3.200000e-01; 9.971289e+04; -1.612107e-03; 8.471628e+04; 1.660881e-02; 9.809153e+04; 4.805278e-06
3.250000e-01; 9.971288e+04; -1.612118e-03; 8.371563e+04; 1.760949e-02; 9.810349e+04; 2.641542e-06
3.300000e-01; 9.971288e+04; -1.612125e-03; 8.271531e+04; 1.860984e-02; 9.810467e+04; -9.392112e-07
3.350000e-01; 9.971287e+04; -1.612137e-03; 8.171518e+04; 1.961000e-02; 9.809918e+04; -2.161077e-06
3.400000e-01; 9.971286e+04; -1.612145e-03; 8.071514e+04; 2.061007e-02; 9.809577e+04; -8.932914e-07
3.450000e-01; 9.971284e+04; -1.612162e-03; 7.971513e+04; 2.161010e-02; 9.809720e+04; 6.221042e-07
3.500000e-01; 9.971282e+04; -1.612179e-03; 7.871515e+04; 2.261010e-02; 9.809979e+04; 8.685588e-07
3.550000e-01; 9.971280e+04; -1.612207e-03; 7.771520e+04; 2.361007e-02; 9.810016e+04; 2.917181e-07
3.600000e-01; 9.971274e+04; -1.612263e-03; 7.671529e+04; 2.461001e-02; 9.809904e+04; 7.186738e-09
3.650000e-01; 9.971267e+04; -1.612326e-03; 7.571542e+04; 2.560990e-02; 9.809867e+04; 2.835929e-07
3.700000e-01; 9.971256e+04; -1.612452e-03; 7.471562e+04; 2.660972e-02; 9.809933e+04; 6.030046e-07
3.750000e-01; 9.971237e+04; -1.612633e-03; 7.371586e+04; 2.760953e-02; 9.809980e+04; 6.292030e-07
3.800000e-01; 9.971207e+04; -1.612948e-03; 7.271620e+04; 2.860918e-02; 9.809961e+04; 5.524485e-07
3.850000e-01; 9.971159e+04; -1.613424e-03; 7.171668e+04; 2.960876e-02; 9.809939e+04; 6.267617e-07
3.900000e-01; 9.971084e+04; -1.614181e-03; 7.071740e+04; 3.060801e-02; 9.809949e+04; 8.320300e-07
3.950000e-01; 9.970969e+04; -1.615329e-03; 6.971843e+04; 3.160704e-02; 9.809954e+04; 1.072397e-06
4.000000e-01; 9.970796e+04; -1.617063e-03; 6.871985e+04; 3.260557e-02; 9.809921e+04; 1.431271e-06
4.050000e-01; 9.970537e+04; -1.619623e-03; 6.772193e+04; 3.360345e-02; 9.809856e+04; 2.117747e-06
4.100000e-01; 9.970161e+04; -1.623319e-03; 6.672490e+04; 3.460036e-02; 9.809759e+04; 3.338829e-06
4.150000e-01; 9.969621e+04; -1.628558e-03; 6.572908e+04; 3.559593e-02; 9.809587e+04; 5.362759e-06
4.200000e-01; 9.968860e+04; -1.635822e-03; 6.473485e+04; 3.658965e-02; 9.809286e+04; 8.662560e-06
4.250000e-01; 9.967806e+04; -1.645678e-03; 6.374268e+04; 3.758086e-02; 9.808796e+04; 1.397270e-05
4.300000e-01; 9.966368e+04; -1.658722e-03; 6.275303e+04; 3.856871e-02; 9.808025e+04; 2.232538e-05
4.350000e-01; 9.964435e+04; -1.675569e-03; 6.176637e+04; 3.955215e-02; 9.806826e+04; 3.517322e-05
4.400000e-01; 9.961874e+04; -1.696713e-03; 6.078305e+04; 4.052984e-02; 9.804997e+04; 5.455158e-05
4.450000e-01; 9.958524e+04; -1.722466e-03; 5.980318e+04; 4.150012e-02; 9.802276e+04; 8.320392e-05
4.500000e-01; 9.954193e+04; -1.752701e-03; 5.882649e+04; 4.246095e-02; 9.798312e+04; 1.246849e-04
4.550000e-01; 9.948652e+04; -1.786798e-03; 5.785215e+04; 4.340987e-02; 9.792659e+04; 1.834614e-04
4.600000e-01; 9.941632e+04; -1.823295e-03; 5.687858e+04; 4.434393e-02; 9.784772e+04; 2.649672e-04
4.650000e-01; 9.932827e+04; -1.859835e-03; 5.590337e+04; 4.525971e-02; 9.774012e+04; 3.755669e-04
4.700000e-01; 9.921895e+04; -1.893056e-03; 5.492325e+04; 4.615349e-02; 9.759653e+04; 5.224227e-04
4.750000e-01; 9.908489e+04; -1.918665e-03; 5.393429e+04; 4.702146e-02; 9.740907e+04; 7.132542e-04
4.800000e-01; 9.892286e+04; -1.931849e-03; 5.293239e+04; 4.786026e-02; 9.716963e+04; 9.559686e-04
4.850000e-01; 9.873058e+04; -1.927808e-03; 5.191392e+04; 4.866765e-02; 9.687038e+04; 1.258169e-03
4.900000e-01; 9.850760e+04; -1.902720e-03; 5.087672e+04; 4.944343e-02; 9.650432e+04; 1.626591e-03
4.950000e-01; 9.825616e+04; -1.854797e-03; 4.982100e+04; 5.019044e-02; 9.606593e+04; 2.066518e-03
5.000000e-01; 9.798215e+04; -1.785275e-03; 4.875012e+04; 5.091527e-02; 9.555171e+04; 2.581255e-03
5.050000e-01; 9.769555e+04; -1.699155e-03; 4.767077e+04; 5.162863e-02; 9.496066e+04; 3.171723e-03
5.100000e-01; 9.741011e+04; -1.605136e-03; 4.659243e+04; 5.234473e-02; 9.429443e+04; 3.836247e-03
5.150000e-01; 9.714206e+04; -1.514703e-03; 4.552576e+04; 5.307989e-02; 9.355737e+04; 4.570598e-03
5.200000e-01; 9.690768e+04; -1.440297e-03; 4.448048e+04; 5.384980e-02; 9.275620e+04; 5.368275e-03
5.250000e-01; 9.672005e+04; -1.392893e-03; 4.346287e+04; 5.466686e-02; 9.189947e+04; 6.221025e-03
5.300000e-01; 9.658657e+04; -1.378676e-03; 4.247388e+04; 5.553715e-02; 9.099683e+04; 7.119528e-03
5.350000e-01; 9.650746e+04; -1.396940e-03; 4.150880e+04; 5.645887e-02; 9.005823e+04; 8.054150e-03
5.400000e-01; 9.647501e+04; -1.440183e-03; 4.055807e+04; 5.742296e-02; 8.909316e+04; 9.015671e-03
5.450000e-01; 9.647509e+04; -1.496168e-03; 3.961009e+04; 5.841514e-02; 8.811002e+04; 9.995881e-03
5.500000e-01; 9.649081e+04; -1.551424e-03; 3.865484e+04; 5.941978e-02; 8.711569e+04; 1.098799e-02
5.550000e-01; 9.650718e+04; -1.594786e-03; 3.768626e+04; 6.042428e-02; 8.611532e+04; 1.198681e-02
5.600000e-01; 9.651504e+04; -1.620201e-03; 3.670343e+04; 6.142173e-02; 8.511247e+04; 1.298873e-02
5.650000e-01; 9.651221e+04; -1.627996e-03; 3.570992e+04; 6.241150e-02; 8.410922e+04; 1.399150e-02
5.700000e-01; 9.650200e+04; -1.623758e-03; 3.471118e+04; 6.339755e-02; 8.310662e+04; 1.499395e-02
5.750000e-01; 9.649027e+04; -1.615111e-03; 3.371176e+04; 6.438520e-02; 8.210494e+04; 1.599565e-02
5.800000e-01; 9.648221e+04; -1.608266e-03; 3.271387e+04; 6.537809e-02; 8.110408e+04; 1.699660e-02
5.850000e-01; 9.647997e+04; -1.606024e-03; 3.171717e+04; 6.637678e-02; 8.010379e+04; 1.799699e-02
5.900000e-01; 9.648232e+04; -1.607684e-03; 3.072005e+04; 6.737915e-02; 7.910381e+04; 1.899703e-02
5.950000e-01; 9.648627e+04; -1.610749e-03; 2.972133e+04; 6.838216e-02; 7.810393e+04; 1.999691e-02
6.000000e-01; 9.648908e+04; -1.612845e-03; 2.872101e+04; 6.938375e-02; 7.710407e+04; 2.099671e-02
6.050000e-01; 9.648968e+04; -1.613073e-03; 2.772000e+04; 7.038356e-02; 7.610418e+04; 2.199647e-02
6.100000e-01; 9.648872e+04; -1.611996e-03; 2.671938e+04; 7.138252e-02; 7.510427e+04; 2.299616e-02
6.150000e-01; 9.648753e+04; -1.610822e-03; 2.571954e+04; 7.238177e-02; 7.410435e+04; 2.399575e-02
6.200000e-01; 9.648700e+04; -1.610318e-03; 2.472017e+04; 7.338179e-02; 7.310441e+04; 2.499515e-02
6.250000e-01; 9.648721e+04; -1.610489e-03; 2.372072e+04; 7.438230e-02; 7.210447e+04; 2.599429e-02
6.300000e-01; 9.648762e+04; -1.610824e-03; 2.272089e+04; 7.538277e-02; 7.110449e+04; 2.699304e-02
6.350000e-01; 9.648771e+04; -1.610834e-03; 2.172081e+04; 7.638290e-02; 7.010447e+04; 2.799124e-02
6.400000e-01; 9.648731e+04; -1.610383e-03; 2.072075e+04; 7.738276e-02; 6.910436e+04; 2.898867e-02
6.450000e-01; 9.648652e+04; -1.609558e-03; 1.972088e+04; 7.838264e-02; 6.810414e+04; 2.998502e-02
6.500000e-01; 9.648542e+04; -1.608413e-03; 1.872112e+04; 7.938266e-02; 6.710377e+04; 3.097989e-02
6.550000e-01; 9.648384e+04; -1.606756e-03; 1.772131e+04; 8.038278e-02; 6.610318e+04; 3.197278e-02
6.600000e-01; 9.648136e+04; -1.604156e-03; 1.672140e+04; 8.138289e-02; 6.510233e+04; 3.296304e-02
6.650000e-01; 9.647740e+04; -1.600042e-03; 1.572143e+04; 8.238295e-02; 6.410115e+04; 3.394985e-02
6.700000e-01; 9.647128e+04; -1.593717e-03; 1.472153e+04; 8.338291e-02; 6.309957e+04; 3.493227e-02
6.750000e-01; 9.646210e+04; -1.584262e-03; 1.372164e+04; 8.438297e-02; 6.209751e+04; 3.590918e-02
6.800000e-01; 9.644862e+04; -1.570392e-03; 1.272172e+04; 8.538302e-02; 6.109488e+04; 3.687931e-02
6.850000e-01; 9.642911e+04; -1.550347e-03; 1.172179e+04; 8.638312e-02; 6.009164e+04; 3.784127e-02
6.900000e-01; 9.640131e+04; -1.521834e-03; 1.072186e+04; 8.738314e-02; 5.908770e+04; 3.879360e-02
6.950000e-01; 9.636236e+04; -1.481968e-03; 9.721883e+03; 8.838325e-02; 5.808305e+04; 3.973482e-02
7.000000e-01; 9.630878e+04; -1.427094e-03; 8.721917e+03; 8.938329e-02; 5.707767e+04; 4.066353e-02
7.050000e-01; 9.623624e+04; -1.353052e-03; 7.722000e+03; 9.038335e-02; 5.607161e+04; 4.157849e-02
7.100000e-01; 9.613951e+04; -1.254902e-03; 6.722076e+03; 9.138337e-02; 5.506498e+04; 4.247874e-02
7.150000e-01; 9.601263e+04; -1.127231e-03; 5.722094e+03; 9.238346e-02; 5.405793e+04; 4.336369e-02
7.200000e-01; 9.584877e+04; -9.643162e-04; 4.722131e+03; 9.338350e-02; 5.305073e+04; 4.423326e-02
7.250000e-01; 9.564036e+04; -7.604767e-04; 3.722187e+03; 9.438357e-02; 5.204370e+04; 4.508792e-02
7.300000e-01; 9.537900e+04; -5.108116e-04; 2.722330e+03; 9.538349e-02; 5.103725e+04; 4.592875e-02
7.350000e-01; 9.505506e+04; -2.122439e-04; 1.722305e+03; 9.638370e-02; 5.003183e+04; 4.675752e-02
7.400000e-01; 9.465636e+04; 1.341966e-04; 7.222519e+02; 9.738374e-02; 4.902794e+04; 4.757661e-02
7.450000e-01; 9.415816e+04; 5.112597e-04; -2.776324e+02; 9.838379e-02; 4.802601e+04; 4.838899e-02
7.500000e-01; 9.363024e+04; 1.015587e-03; -1.277585e+03; 9.938383e-02; 4.702641e+04; 4.919814e-02
7.550000e-01; 9.311883e+04; 1.650517e-03; -2.277577e+03; 1.003839e-01; 4.602931e+04; 5.000791e-02
7.600000e-01; 9.252196e+04; 2.339068e-03; -3.277513e+03; 1.013839e-01; 4.503466e+04; 5.082233e-02
7.650000e-01; 9.179804e+04; 3.053496e-03; -4.277462e+03; 1.023840e-01; 4.404213e+04; 5.164544e-02
7.700000e-01; 9.099495e+04; 3.799717e-03; -5.277427e+03; 1.033840e-01; 4.305111e+04; 5.248102e-02
7.750000e-01; 9.014164e+04; 4.608238e-03; -6.277369e+03; 1.043841e-01; 4.206079e+04; 5.333233e-02
7.800000e-01; 8.925331e+04; 5.479855e-03; -7.277316e+03; 1.053841e-01; 4.107025e+04; 5.420190e-02
7.850000e-01; 8.833136e+04; 6.389350e-03; -8.277279e+03; 1.063842e-01; 4.007863e+04; 5.509126e-02
7.900000e-01; 8.737465e+04; 7.329013e-03; -9.277206e+03; 1.073842e-01; 3.908533e+04; 5.600083e-02
7.950000e-01; 8.639543e+04; 8.292290e-03; -1.027716e+04; 1.083843e-01; 3.809010e+04; 5.692986e-02
8.000000e-01; 8.540259e+04; 9.270711e-03; -1.127708e+04; 1.093842e-01; 3.709311e+04; 5.787658e-02
8.050000e-01; 8.440021e+04; 1.026081e-02; -1.227700e+04; 1.103843e-01; 3.609489e+04; 5.883837e-02
8.100000e-01; 8.339362e+04; 1.125744e-02; -1.327690e+04; 1.113843e-01; 3.509615e+04; 5.981219e-02
8.150000e-01; 8.238600e+04; 1.225668e-02; -1.427677e+04; 1.123842e-01; 3.409755e+04; 6.079492e-02
8.200000e-01; 8.137889e+04; 1.325748e-02; -1.527666e+04; 1.133842e-01; 3.309952e+04; 6.178377e-02
8.250000e-01; 8.037325e+04; 1.425829e-02; -1.627652e+04; 1.143842e-01; 3.210214e+04; 6.277655e-02
8.300000e-01; 7.936927e+04; 1.525837e-02; -1.727638e+04; 1.153841e-01; 3.110516e+04; 6.377178e-02
8.350000e-01; 7.836667e+04; 1.625790e-02; -1.827625e+04; 1.163840e-01; 3.010812e+04; 6.476861e-02
8.400000e-01; 7.736513e+04; 1.725709e-02; -1.927613e+04; 1.173839e-01; 2.911055e+04; 6.576665e-02
8.450000e-01; 7.636433e+04; 1.825599e-02; -2.027602e+04; 1.183838e-01; 2.811215e+04; 6.676569e-02
8.500000e-01; 7.536389e+04; 1.925481e-02; -2.127597e+04; 1.193837e-01; 2.711287e+04; 6.776555e-02
8.550000e-01; 7.436356e+04; 2.025368e-02; -2.227598e+04; 1.203835e-01; 2.611292e+04; 6.876596e-02
8.600000e-01; 7.336337e+04; 2.125262e-02; -2.327611e+04; 1.213834e-01; 2.511264e+04; 6.976659e-02
8.650000e-01; 7.236329e+04; 2.225156e-02; -2.427642e+04; 1.223832e-01; 2.411235e+04; 7.076715e-02
8.700000e-01; 7.136339e+04; 2.325063e-02; -2.527699e+04; 1.233829e-01; 2.311227e+04; 7.176746e-02
8.750000e-01; 7.036380e+04; 2.424962e-02; -2.627792e+04; 1.243826e-01; 2.211242e+04; 7.276751e-02
8.800000e-01; 6.936448e+04; 2.524842e-02; -2.727937e+04; 1.253823e-01; 2.111272e+04; 7.376737e-02
8.850000e-01; 6.836590e+04; 2.624739e-02; -2.828155e+04; 1.263818e-01; 2.011302e+04; 7.476718e-02
8.900000e-01; 6.736821e+04; 2.724615e-02; -2.928472e+04; 1.273813e-01; 1.911325e+04; 7.576705e-02
8.950000e-01; 6.637150e+04; 2.824482e-02; -3.028919e+04; 1.283806e-01; 1.811338e+04; 7.676701e-02
9.000000e-01; 6.537635e+04; 2.924340e-02; -3.129549e+04; 1.293798e-01; 1.711347e+04; 7.776704e-02
9.050000e-01; 6.438314e+04; 3.024179e-02; -3.230402e+04; 1.303786e-01; 1.611358e+04; 7.876708e-02
9.100000e-01; 6.339239e+04; 3.124002e-02; -3.331547e+04; 1.313771e-01; 1.511374e+04; 7.976712e-02
9.150000e-01; 6.240483e+04; 3.223798e-02; -3.433077e+04; 1.323754e-01; 1.411394e+04; 8.076714e-02
9.200000e-01; 6.142122e+04; 3.323564e-02; -3.535076e+04; 1.333733e-01; 1.311416e+04; 8.176716e-02
9.250000e-01; 6.044257e+04; 3.423304e-02; -3.637639e+04; 1.343707e-01; 1.211439e+04; 8.276722e-02
9.300000e-01; 5.947002e+04; 3.523016e-02; -3.740880e+04; 1.353675e-01; 1.111460e+04; 8.376730e-02
9.350000e-01; 5.850483e+04; 3.622716e-02; -3.844942e+04; 1.363639e-01; 1.011481e+04; 8.476740e-02
9.400000e-01; 5.754841e+04; 3.722415e-02; -3.949946e+04; 1.373596e-01; 9.114991e+03; 8.576747e-02
9.450000e-01; 5.660217e+04; 3.822130e-02; -4.056006e+04; 1.383548e-01; 8.115091e+03; 8.676742e-02
9.500000e-01; 5.566753e+04; 3.921886e-02; -4.163259e+04; 1.393496e-01; 7.114997e+03; 8.776715e-02
9.550000e-01; 5.474555e+04; 4.021672e-02; -4.271796e+04; 1.403437e-01; 6.114525e+03; 8.876648e-02
9.600000e-01; 5.383718e+04; 4.121511e-02; -4.381688e+04; 1.413376e-01; 5.113417e+03; 8.976513e-02
9.650000e-01; 5.294309e+04; 4.221394e-02; -4.492984e+04; 1.423312e-01; 4.111330e+03; 9.076279e-02
9.700000e-01; 5.206348e+04; 4.321330e-02; -4.605665e+04; 1.433247e-01; 3.107872e+03; 9.175909e-02
9.750000e-01; 5.119804e+04; 4.421299e-02; -4.719677e+04; 1.443183e-01; 2.102676e+03; 9.275370e-02
9.800000e-01; 5.034599e+04; 4.521305e-02; -4.834929e+04; 1.453123e-01; 1.095532e+03; 9.374650e-02
9.850000e-01; 4.950596e+04; 4.621323e-02; -4.951239e+04; 1.463069e-01; 8.656974e+01; 9.473769e-02
9.900000e-01; 4.867594e+04; 4.721341e-02; -5.068367e+04; 1.473022e-01; -9.235784e+02; 9.572793e-02
9.950000e-01; 4.785376e+04; 4.821376e-02; -5.186072e+04; 1.482987e-01; -1.933721e+03; 9.671835e-02
